{
    "_id": "EWT9OXxBuKQLQMHj",
    "data": {
        "abilities": {
            "cha": {
                "mod": -5
            },
            "con": {
                "mod": 2
            },
            "dex": {
                "mod": -5
            },
            "int": {
                "mod": -5
            },
            "str": {
                "mod": 2
            },
            "wis": {
                "mod": 1
            }
        },
        "attributes": {
            "ac": {
                "details": "",
                "value": 8
            },
            "allSaves": {
                "value": ""
            },
            "hp": {
                "details": "",
                "max": 38,
                "temp": 0,
                "value": 38
            },
            "initiative": {
                "ability": "perception"
            },
            "perception": {
                "value": 4
            },
            "speed": {
                "details": "slushy undulation",
                "otherSpeeds": [
                    {
                        "type": "swim",
                        "value": "10"
                    }
                ],
                "value": "10"
            }
        },
        "details": {
            "alignment": {
                "value": "N"
            },
            "blurb": "",
            "creatureType": "",
            "level": {
                "value": 1
            },
            "privateNotes": "",
            "publicNotes": "<p>Rot and decay play a natural role in swamps of all climates, and latent magical energies or other strange phenomena can transform decomposing matter into oozes and other monstrous creatures made of living muck. Tundra wetlands are no exception to this trend. Worse, in such regions, a quick freeze can prevent noxious sludge from breaking down, and sequential years of short, seasonal thaws can compress rot upon rot until the pestilential mass animates as a rime sludge. These rare, noxious oozes hungrily search for and consume any organic matter they find in their northland habitats.</p>\n<p>Like most oozes, rime sludges consist primarily of protoplasm, though theirs has a slushy consistency peppered with disgusting nuggets of indigestible matter, such as petrified wood, jagged arrowheads, and animal fossils. A rime sludge renews this protoplasm by consuming plants and animals and maintaining a careful balance of semifrozen decomposition in its mutable form.</p>\n<p>Rime sludges are among the few oozes that thrive in cold climates, as too much heat accelerates their natural decay. Rime sludges can't survive temperatures too far above freezing for more than a few days. Rising temperatures force them to migrate toward cooler climates or cold underground areas.</p>\n<p>Few intelligent creatures inhabiting cold climates want anything to do with rime sludges. These oozes can't be trained, tend to wander off at random, and emit a noxious stink at the slightest hint of warmth. Some inventive creatures try to trap rime sludges in pits to keep them contained and use them to dispose of prisoners or food scraps. Because of the oozes' overpowering stench, these pits tend to be quite deep.</p>",
            "source": {
                "value": "Pathfinder #175: Broken Tusk Moon"
            }
        },
        "resources": {},
        "saves": {
            "fortitude": {
                "saveDetail": "",
                "value": 7
            },
            "reflex": {
                "saveDetail": "",
                "value": 2
            },
            "will": {
                "saveDetail": "",
                "value": 4
            }
        },
        "traits": {
            "ci": [],
            "di": {
                "custom": "",
                "value": [
                    "cold",
                    "critical-hits",
                    "mental",
                    "poison",
                    "precision",
                    "unconscious",
                    "visual"
                ]
            },
            "dr": [],
            "dv": [],
            "languages": {
                "custom": "",
                "selected": [],
                "value": []
            },
            "rarity": "rare",
            "senses": {
                "value": "motion sense 60 feet, no vision"
            },
            "size": {
                "value": "med"
            },
            "traits": {
                "custom": "",
                "value": [
                    "mindless",
                    "ooze"
                ]
            }
        }
    },
    "effects": [],
    "flags": {},
    "img": "systems/pf2e/icons/default-icons/npc.svg",
    "items": [
        {
            "_id": "qKLjJAhtJDOnp4Jc",
            "data": {
                "attack": {
                    "value": ""
                },
                "attackEffects": {
                    "value": []
                },
                "bonus": {
                    "value": 9
                },
                "damageRolls": {
                    "dhxf8v275oljxtuill8y": {
                        "damage": "1d4+2",
                        "damageType": "bludgeoning"
                    },
                    "ubyvrwuxmje2u4lycz1c": {
                        "damage": "1d4",
                        "damageType": "poison"
                    }
                },
                "description": {
                    "value": ""
                },
                "rules": [],
                "slug": null,
                "source": {
                    "value": ""
                },
                "traits": {
                    "custom": "",
                    "rarity": "common",
                    "value": []
                },
                "weaponType": {
                    "value": "melee"
                }
            },
            "effects": [],
            "flags": {},
            "img": "systems/pf2e/icons/default-icons/melee.svg",
            "name": "Pseudopod",
            "sort": 100000,
            "type": "melee"
        },
        {
            "_id": "g7nKIafpypXq1fDV",
            "data": {
                "actionCategory": {
                    "value": "interaction"
                },
                "actionType": {
                    "value": "passive"
                },
                "actions": {
                    "value": null
                },
                "description": {
                    "value": "<p>A rime sludge can sense nearby motion through vibration and air movement.</p>"
                },
                "requirements": {
                    "value": ""
                },
                "rules": [],
                "slug": null,
                "source": {
                    "value": ""
                },
                "traits": {
                    "custom": "",
                    "rarity": "common",
                    "value": []
                },
                "trigger": {
                    "value": ""
                }
            },
            "effects": [],
            "flags": {},
            "img": "systems/pf2e/icons/actions/Passive.webp",
            "name": "Motion Sense 60 feet",
            "sort": 200000,
            "type": "action"
        },
        {
            "_id": "J5EQsz5ScS5djw5T",
            "data": {
                "actionCategory": {
                    "value": "defensive"
                },
                "actionType": {
                    "value": "passive"
                },
                "actions": {
                    "value": null
                },
                "description": {
                    "value": "<p>The first time each round that the rime sludge takes fire damage, a cloud of sickening decay roils outward, dealing [[/r {2d6}[poison]]]{2d6 poison damage} (@Check[type:fortitude|dc:17|basic:true]) to all creatures in a @Template[type:emanation|distance:10]. A creature that fails its saving throw is also @Compendium[pf2e.conditionitems.Sickened]{Sickened 1} (or @Compendium[pf2e.conditionitems.Sickened]{Sickened 3} on a critical failure).</p>"
                },
                "requirements": {
                    "value": ""
                },
                "rules": [],
                "slug": null,
                "source": {
                    "value": ""
                },
                "traits": {
                    "custom": "",
                    "rarity": "common",
                    "value": []
                },
                "trigger": {
                    "value": ""
                }
            },
            "effects": [],
            "flags": {},
            "img": "systems/pf2e/icons/actions/Passive.webp",
            "name": "Noxious Sublimation",
            "sort": 300000,
            "type": "action"
        },
        {
            "_id": "42yvufWkXpbQRCrE",
            "data": {
                "actionCategory": {
                    "value": "offensive"
                },
                "actionType": {
                    "value": "passive"
                },
                "actions": {
                    "value": null
                },
                "description": {
                    "value": "<p>A rime sludge ignores difficult terrain and greater difficult terrain from ice and snow and doesn't risk falling @Compendium[pf2e.conditionitems.Prone]{Prone} when crossing ice.</p>"
                },
                "requirements": {
                    "value": ""
                },
                "rules": [],
                "slug": null,
                "source": {
                    "value": ""
                },
                "traits": {
                    "custom": "",
                    "rarity": "common",
                    "value": []
                },
                "trigger": {
                    "value": ""
                }
            },
            "effects": [],
            "flags": {},
            "img": "systems/pf2e/icons/actions/Passive.webp",
            "name": "Slushy Undulation",
            "sort": 400000,
            "type": "action"
        },
        {
            "_id": "FlZpKL1ScVCIxDDm",
            "data": {
                "description": {
                    "value": ""
                },
                "mod": {
                    "value": 7
                },
                "proficient": {
                    "value": 0
                },
                "rules": [],
                "slug": null,
                "source": {
                    "value": ""
                },
                "traits": {
                    "custom": "",
                    "rarity": "common",
                    "value": []
                }
            },
            "effects": [],
            "flags": {},
            "img": "systems/pf2e/icons/default-icons/lore.svg",
            "name": "Athletics",
            "sort": 500000,
            "type": "lore"
        }
    ],
    "name": "Rime Sludge",
    "token": {
        "disposition": -1,
        "height": 1,
        "img": "systems/pf2e/icons/default-icons/npc.svg",
        "name": "Rime Sludge",
        "width": 1
    },
    "type": "npc"
}
