{
    "_id": "Uw2iVgbbeyn3mOjt",
    "data": {
        "attributes": {
            "ac": {
                "value": 19
            },
            "hardness": 13,
            "hasHealth": true,
            "hp": {
                "details": "",
                "max": 50,
                "temp": 0,
                "tempmax": 0,
                "value": 50
            },
            "stealth": {
                "details": "<p>(expert)</p>",
                "value": 16
            }
        },
        "creatureType": "",
        "details": {
            "description": "<p>The reflection in the mirror subtly twists and distorts, its expression taking on an unnerving sneer of malice.</p>",
            "disable": "<p>DC 23 Religion (trained) to exorcise the spirit, or DC 23 Thievery (trained) to quickly cover the mirror</p>",
            "isComplex": false,
            "level": {
                "value": 5
            },
            "reset": "<p>The haunt re-forms after 1 minute, manifesting in any mirror within its infused area (see Special below).</p>",
            "routine": ""
        },
        "saves": {
            "fortitude": {
                "saveDetail": "",
                "value": 15
            },
            "reflex": {
                "saveDetail": "",
                "value": 10
            },
            "will": {
                "saveDetail": "",
                "value": 0
            }
        },
        "source": {
            "value": "Pathfinder Gamemastery Guide"
        },
        "statusEffects": [],
        "traits": {
            "ci": [],
            "di": {
                "custom": "",
                "selected": {},
                "value": [
                    "critical-hits",
                    "object-immunities",
                    "precision"
                ]
            },
            "dr": [],
            "dv": [],
            "rarity": "common",
            "size": {
                "value": "med"
            },
            "traits": {
                "custom": "",
                "value": [
                    "haunt"
                ]
            }
        }
    },
    "effects": [],
    "flags": {},
    "img": "systems/pf2e/icons/default-icons/hazard.svg",
    "items": [
        {
            "_id": "hEtVGo9EpKcXlhPI",
            "data": {
                "actionCategory": {
                    "value": ""
                },
                "actionType": {
                    "value": "reaction"
                },
                "actions": {
                    "value": null
                },
                "description": {
                    "value": "<p data-visibility=\"gm\"><strong>Trigger</strong> A living creature approaches within 15 feet of the mirror, and the mirror is lit with dim or brighter light.</p>\n<p><strong>Effect</strong> Shadowy barbs impale the body of the reflected creature as the haunt makes a shadow barbs Strike.</p>"
                },
                "requirements": {
                    "value": ""
                },
                "rules": [],
                "slug": null,
                "source": {
                    "value": ""
                },
                "traits": {
                    "custom": "",
                    "rarity": "common",
                    "value": []
                },
                "trigger": {
                    "value": ""
                },
                "weapon": {
                    "value": ""
                }
            },
            "effects": [],
            "flags": {},
            "img": "systems/pf2e/icons/actions/Reaction.webp",
            "name": "Spectral Impale",
            "sort": 100000,
            "type": "action"
        },
        {
            "_id": "wdA0nAhiSTY7znrs",
            "data": {
                "attack": {
                    "value": ""
                },
                "attackEffects": {
                    "custom": "",
                    "value": [
                        "sap-vitality"
                    ]
                },
                "bonus": {
                    "value": 19
                },
                "damageRolls": {
                    "vyild2eqx4ge0c61qqpd": {
                        "damage": "4d8+9",
                        "damageType": "negative"
                    }
                },
                "description": {
                    "value": ""
                },
                "rules": [],
                "slug": null,
                "source": {
                    "value": ""
                },
                "traits": {
                    "custom": "",
                    "rarity": "common",
                    "value": []
                },
                "weaponType": {
                    "value": "melee"
                }
            },
            "effects": [],
            "flags": {},
            "img": "systems/pf2e/icons/default-icons/melee.svg",
            "name": "Shadow Barbs",
            "sort": 200000,
            "type": "melee"
        },
        {
            "_id": "17gJOHIRtWXfYMKa",
            "data": {
                "actionCategory": {
                    "value": ""
                },
                "actionType": {
                    "value": "passive"
                },
                "actions": {
                    "value": null
                },
                "description": {
                    "value": "<p>A creature hit by the reflection's shadow barbs must attempt a @Check[type:fortitude|dc:22] save as the haunt tries to draw a portion of its vital essence into the mirror. The target is drained 1 on a failed saving throw, or drained 2 on a critical failure.</p>"
                },
                "requirements": {
                    "value": ""
                },
                "rules": [],
                "slug": null,
                "source": {
                    "value": ""
                },
                "traits": {
                    "custom": "",
                    "rarity": "common",
                    "value": []
                },
                "trigger": {
                    "value": ""
                },
                "weapon": {
                    "value": ""
                }
            },
            "effects": [],
            "flags": {},
            "img": "systems/pf2e/icons/actions/Passive.webp",
            "name": "Sap Vitality",
            "sort": 300000,
            "type": "action"
        },
        {
            "_id": "V7tWWuB9NSEsMEae",
            "data": {
                "actionCategory": {
                    "value": ""
                },
                "actionType": {
                    "value": "passive"
                },
                "actions": {
                    "value": null
                },
                "description": {
                    "value": "<p>Spectral reflections often infuse entire buildings, manifesting in any sufficiently large mirror. The example Hit Points and Hardness given represent a typical mirror reinforced by the haunt; at your discretion, the haunt might appear in reflective surfaces that are harder to destroy. Defeating a manifestation through damage destroys the surface, preventing the haunt from using it again. If this haunt appears in an area with many mirrors, consider giving PCs double or even triple the XP for a typical simple hazard.</p>"
                },
                "requirements": {
                    "value": ""
                },
                "rules": [],
                "slug": null,
                "source": {
                    "value": ""
                },
                "traits": {
                    "custom": "",
                    "rarity": "common",
                    "value": []
                },
                "trigger": {
                    "value": ""
                },
                "weapon": {
                    "value": ""
                }
            },
            "effects": [],
            "flags": {},
            "img": "systems/pf2e/icons/actions/Passive.webp",
            "name": "Special",
            "sort": 400000,
            "type": "action"
        }
    ],
    "name": "Spectral Reflection",
    "token": {
        "disposition": 0,
        "height": 1,
        "img": "systems/pf2e/icons/default-icons/hazard.svg",
        "name": "Spectral Reflection",
        "width": 1
    },
    "type": "hazard"
}
