{
    "_id": "GQn5HfP1Jg5qO0Dz",
    "content": "<h1>Swashbuckler</h1>\n<p>You fight with flair and style, adding swashbuckling tricks to your combat repertoire.</p>\n<h2>@Compendium[pf2e.feats-srd.Swashbuckler Dedication]{Swashbuckler Dedication} Feat 2</h2>\n<p><strong>Prerequisites</strong> Charisma 14, Dexterity 14</p>\n<hr />\n<p>Choose a swashbuckler style. You gain the panache class feature, and you can gain panache in all the ways a swashbuckler of your style can. You become trained in Acrobatics or the skill associated with your style. If you were already trained in both skills, you instead become trained in a skill of your choice. You also become trained in swashbuckler class DC. You don't gain any other effects of your chosen style.</p>\n<p><strong>Special</strong> You can't select another dedication feat until you have gained two other feats from the swashbuckler archetype.</p>\n<h2>@Compendium[pf2e.feats-srd.Basic Flair]{Basic Flair} Feat 4</h2>\n<p><strong>Prerequisites</strong> Swashbuckler Dedication</p>\n<hr />\n<p>You gain a 1st- or 2nd-level swashbuckler feat of your choice.</p>\n<h2>@Compendium[pf2e.feats-srd.Finishing Precision]{Finishing Precision} Feat 4</h2>\n<p><strong>Prerequisites</strong> Swashbuckler Dedication</p>\n<hr />\n<p>You've learned how to land daring blows when you have panache. You gain the precise strike class feature but you deal 1 addition damage on a hit and 1d6 damage on a finisher. This damage doesn't increase as you gain levels. In addition, you gain the Basic Finisher action.</p>\n<h2>@Compendium[pf2e.feats-srd.Advanced Flair]{Advanced Flair} Feat 6</h2>\n<p><strong>Prerequisites</strong> Basic Flair</p>\n<hr />\n<p>You gain one swashbuckler feat. For the purpose of meeting its prerequisites, your swashbuckler level is equal to half your character level.</p>\n<h2>@Compendium[pf2e.feats-srd.Swashbuckler's Riposte]{Swashbuckler's Riposte} Feat 6</h2>\n<p><strong>Prerequisites</strong> Swashbuckler Dedication</p>\n<hr />\n<p>You've learned to riposte against ill-conceived attacks. You gain the Opportune Riposte reaction.</p>\n<h2>@Compendium[pf2e.feats-srd.Swashbuckler's Speed]{Swashbuckler's Speed} Feat 8</h2>\n<p><strong>Prerequisites</strong> Swashbuckler Dedication</p>\n<hr />\n<p>You move faster, with or without panache. Increase the status bonus to your Speeds when you have panache to a +10-foot status bonus; you also gain a +5-foot status bonus to your Speeds when you don't have panache.</p>\n<h2>@Compendium[pf2e.feats-srd.Evasiveness (Swashbuckler)]{Evasiveness} Feat 12</h2>\n<p><strong>Prerequisites</strong> Swashbuckler Dedication, expert in Reflex saves</p>\n<hr />\n<p>Your proficiency rank for Reflex saves increases to master.</p>",
    "flags": {},
    "name": "Swashbuckler",
    "permission": {
        "default": 0
    }
}
