{
    "_id": "yZUZDw8TXX1MvZ4P",
    "content": "<p>Information provided by this character-either intentionally or inadvertently given-required you to justify yourself in front of a group of bureaucrats or magistrates.</p>\n<p>Add the @Compendium[pf2e.feats-srd.Group Impression]{Group Impression} skill feat to your background options.</p>",
    "flags": {},
    "name": "Called Before Judges",
    "permission": {
        "default": 0
    }
}
