{
    "_id": "G9058881e1ci9X1C",
    "content": "<p>You had to frighten off pirates or slavers looking to capture you and this character.</p>\n<p>Add the @Compendium[pf2e.feats-srd.Group Coercion]{Group Coercion} skill feat to your background options.</p>",
    "flags": {},
    "name": "Desperate Intimidation",
    "permission": {
        "default": 0
    }
}
