{
    "_id": "ppBGlWl0UkBKkJgE",
    "data": {
        "boosts": {
            "0": {
                "value": [
                    "cha",
                    "dex"
                ]
            },
            "1": {
                "value": [
                    "cha",
                    "con",
                    "dex",
                    "int",
                    "str",
                    "wis"
                ]
            }
        },
        "description": {
            "value": "<p>You have spent time in the First World or another realm of the fey and aren't entirely the same person you were before. Perhaps you made a purchase at the legendary Witchmarket or partook deeply of fey food and wine. Whatever the case, willingly or inadvertently, you made a bargain with the fey, the benefits of which come at a price.</p>\n<p>Choose two ability boosts. One must be to <strong>Dexterity</strong> or <strong>Charisma</strong>, and one is a free ability boost.</p>\n<p>You are trained in Fey Lore and gain the @Compendium[pf2e.actionspf2e.Fey's Fortune]{Fey's Fortune} free action. You must follow some rule or limitation as part of your pact with the fey. If you violate the rule, you lose Fey's Fortune until you receive the effects of a successful <em>@Compendium[pf2e.spells-srd.Atone]{Atone}</em> ritual using the Nature skill. The exact limitation is up to you and the GM, but the most common requirement is that you must fulfill a single request from any fey who knows your name.</p>"
        },
        "items": {},
        "rules": [],
        "source": {
            "value": "Pathfinder Advanced Player's Guide"
        },
        "trainedLore": "Fey Lore",
        "trainedSkills": {
            "value": []
        },
        "traits": {
            "custom": "",
            "rarity": "rare",
            "value": []
        }
    },
    "effects": [],
    "flags": {},
    "img": "systems/pf2e/icons/default-icons/background.svg",
    "name": "Feybound",
    "type": "background"
}
