{
    "_id": "UyddtAwqDGjQ1SZK",
    "data": {
        "boosts": {
            "0": {
                "value": [
                    "con",
                    "int"
                ]
            },
            "1": {
                "value": [
                    "cha",
                    "con",
                    "dex",
                    "int",
                    "str",
                    "wis"
                ]
            }
        },
        "description": {
            "value": "<p>The unfamiliar technology of Numeria's Silver Mount still baffles Society scholars, yet you are one of the innovators who discovered how to operate a handful of these futuristic tools-possibly after surviving more than a few explosions. The Society might have recruited you for your esoteric abilities, or you might have sought out the Society's protection in escaping the covetously vile Technic League. Even if your understanding of advanced technology is imperfect, your hard-learned lessons are invaluable in deciphering and repairing gear.</p>\n<p>Choose two ability boosts. One must be to <strong>Constitution</strong> or <strong>Intelligence</strong>, and one is a free ability boost.</p>\n<p>You're trained in the Crafting skill and the Engineering Lore skill. You gain the @Compendium[pf2e.feats-srd.Quick Repair]{Quick Repair} skill feat.</p>\n<hr />\n<p><strong>Special</strong> You can select this background only if you have earned credit for at least 5 First Edition scenarios from Season 6 of the Pathfinder Society organized play campaign.</p>"
        },
        "items": {
            "htv8u": {
                "id": "ASy9AKEIRxPYUi5o",
                "img": "systems/pf2e/icons/features/feats/feats.webp",
                "level": "1",
                "name": "Quick Repair",
                "pack": "pf2e.feats-srd"
            }
        },
        "rules": [],
        "source": {
            "value": "Organized Play Foundation"
        },
        "trainedLore": "Engineering Lore",
        "trainedSkills": {
            "value": [
                "cra"
            ]
        },
        "traits": {
            "custom": "",
            "rarity": "common",
            "value": []
        }
    },
    "effects": [],
    "flags": {},
    "img": "systems/pf2e/icons/default-icons/background.svg",
    "name": "Scholar of the Sky Key",
    "type": "background"
}
