{
    "_id": "kwp0N4MdOgRpdKi6",
    "data": {
        "activation": {
            "condition": "",
            "cost": 0,
            "type": ""
        },
        "autoDestroy": {
            "_deprecated": true,
            "value": true
        },
        "autoUse": {
            "_deprecated": true,
            "value": true
        },
        "baseItem": null,
        "brokenThreshold": {
            "value": 0
        },
        "charges": {
            "_deprecated": true,
            "max": 0,
            "value": 0
        },
        "consumableType": {
            "value": "ammo"
        },
        "consume": {
            "_deprecated": true,
            "value": ""
        },
        "containerId": "null",
        "description": {
            "value": "<p><strong>Ammunition</strong> round</p>\n<p><strong>Activate</strong> <span class=\"pf2-icon\">1</span> Interact</p>\n<p>These bullets are formed from a liquefied high-grade precious metal and enchanted to unlock that metal's true potential.</p>\n<p>The shot is a high-grade cold iron bullet. The awakened cold iron attempts to disrupt enchantments the target placed on others' minds. You can name a creature you believe to be enchanted by your target or allow the shot to choose an enchanted creature randomly. On a hit, the shot attempts to counteract the enchantment the target is using to manipulate that creature's mind. The counteract level is 9, and the counteract modifier is [[/r 1d20+27 #Counteract]]{+27}. If you fail (but don't critically fail) the counteract check against a demon or fey, you get a success instead. If you hit a demon or fey with no active enchantment effects on other creatures, the target is @Compendium[pf2e.conditionitems.Stupefied]{Stupefied 1} for 1 minute instead.</p>"
        },
        "duration": {
            "units": "",
            "value": null
        },
        "equippedBulk": {
            "value": ""
        },
        "hardness": 0,
        "hp": {
            "brokenThreshold": 0,
            "max": 0,
            "value": 0
        },
        "identification": {
            "misidentified": {},
            "status": "identified",
            "unidentified": {
                "data": {
                    "description": {
                        "value": ""
                    }
                },
                "img": "",
                "name": ""
            }
        },
        "level": {
            "value": 17
        },
        "negateBulk": {
            "value": "0"
        },
        "preciousMaterial": {
            "value": null
        },
        "preciousMaterialGrade": {
            "value": null
        },
        "price": {
            "value": "2300 gp"
        },
        "quantity": 1,
        "range": {
            "long": null,
            "units": "",
            "value": null
        },
        "rules": [],
        "size": "med",
        "source": {
            "value": "Pathfinder Guns & Gears"
        },
        "spell": {
            "data": null,
            "heightenedLevel": null
        },
        "stackGroup": "rounds10",
        "target": {
            "type": "",
            "units": "",
            "value": null
        },
        "traits": {
            "custom": "",
            "rarity": "uncommon",
            "value": [
                "consumable",
                "evocation",
                "magical"
            ]
        },
        "usage": {
            "value": "held-in-one-hand"
        },
        "uses": {
            "autoDestroy": true,
            "autoUse": true,
            "max": 0,
            "per": null,
            "value": 0
        },
        "weight": {
            "value": "-"
        }
    },
    "effects": [],
    "flags": {},
    "img": "systems/pf2e/icons/default-icons/consumable.svg",
    "name": "Awakened Cold Iron Shot",
    "type": "consumable"
}
