{
    "_id": "ecqz1iUGtyQEkZwy",
    "data": {
        "baseItem": null,
        "brokenThreshold": {
            "value": 0
        },
        "containerId": null,
        "description": {
            "value": "<p>The springy soles of these sturdy leather boots cushion your feet and make each step lighter. These boots give you a +5-foot item bonus to your Speed and a +2 item bonus to Athletics checks to High Jump and Long Jump.</p>\n<p>In addition, when you use the Leap action, you can move 5 feet further if jumping horizontally or 3 feet higher if jumping vertically.</p>\n<hr />\n<p>Automatically applied effects:</p>\n<ul>\n<li>+5-foot item bonus to Speed</li>\n<li>+2 item bonus to Athletics checks to High Jump and Long Jump</li>\n</ul>"
        },
        "equippedBulk": {
            "value": ""
        },
        "hardness": 0,
        "hp": {
            "brokenThreshold": 0,
            "max": 0,
            "value": 0
        },
        "identification": {
            "misidentified": {},
            "status": "identified",
            "unidentified": {
                "data": {
                    "description": {
                        "value": ""
                    }
                },
                "img": "",
                "name": ""
            }
        },
        "level": {
            "value": 7
        },
        "negateBulk": {
            "value": "0"
        },
        "preciousMaterial": {
            "value": ""
        },
        "preciousMaterialGrade": {
            "value": ""
        },
        "price": {
            "value": "340 gp"
        },
        "quantity": 1,
        "rules": [
            {
                "key": "FlatModifier",
                "selector": "speed",
                "type": "item",
                "value": 5
            },
            {
                "key": "FlatModifier",
                "predicate": {
                    "any": [
                        "action:high-jump",
                        "action:long-jump"
                    ]
                },
                "selector": "athletics",
                "type": "item",
                "value": 2
            }
        ],
        "size": "med",
        "source": {
            "value": "Pathfinder Core Rulebook"
        },
        "stackGroup": null,
        "traits": {
            "custom": "",
            "rarity": "common",
            "value": [
                "invested",
                "magical",
                "transmutation"
            ]
        },
        "usage": {
            "value": "wornshoes"
        },
        "weight": {
            "value": "L"
        }
    },
    "effects": [],
    "flags": {},
    "img": "systems/pf2e/icons/equipment/worn-items/other-worn-items/boots-of-bounding.webp",
    "name": "Boots of Bounding",
    "type": "equipment"
}
