{
    "_id": "tLa4bewBhyqzi6Ow",
    "data": {
        "activation": {
            "condition": "",
            "cost": 0,
            "type": ""
        },
        "autoDestroy": {
            "_deprecated": true,
            "value": true
        },
        "autoUse": {
            "_deprecated": true,
            "value": true
        },
        "baseItem": null,
        "brokenThreshold": {
            "value": 0
        },
        "charges": {
            "_deprecated": true,
            "max": 5,
            "value": 5
        },
        "consumableType": {
            "value": "other"
        },
        "consume": {
            "_deprecated": true,
            "value": ""
        },
        "containerId": "null",
        "description": {
            "value": "<p>In an effort to spread the knowledge of magic as widely as possible, worshippers of Nethys discovered a way to bind cantrips into cards accessible even to non-spellcasters. The deck contains thick parchment cards, each roughly half the size of a playing card. In precise, no-nonsense script, each card simply states the name of its cantrip, color-coded based on its school.</p>\n<p>This pack contains 5 cards of a single common cantrip.</p>\n<hr />\n<p><strong>Activate</strong> <span class=\"pf2-icon\">1</span> or more (envision, Interact)</p>\n<p><strong>Effect</strong> You envision your desired cantrip, causing its card to rise to the top of the deck, and draw the card. The deck casts that cantrip as a 1st-level spell, with a DC of 15 and a spell attack modifier of +5. The card crumbles into dust as the cantrip takes effect. The activation takes the same number of actions as the cantrip you chose takes to cast.</p>"
        },
        "duration": {
            "units": "",
            "value": null
        },
        "equippedBulk": {
            "value": ""
        },
        "hardness": 0,
        "hp": {
            "brokenThreshold": 0,
            "max": 0,
            "value": 0
        },
        "identification": {
            "misidentified": {},
            "status": "identified",
            "unidentified": {
                "data": {
                    "description": {
                        "value": ""
                    }
                },
                "img": "",
                "name": ""
            }
        },
        "level": {
            "value": 1
        },
        "negateBulk": {
            "value": "0"
        },
        "preciousMaterial": {
            "value": null
        },
        "preciousMaterialGrade": {
            "value": null
        },
        "price": {
            "value": "5 gp"
        },
        "quantity": 1,
        "range": {
            "long": null,
            "units": "",
            "value": null
        },
        "rules": [],
        "size": "med",
        "source": {
            "value": "Pathfinder Secrets of Magic"
        },
        "spell": {
            "data": null,
            "heightenedLevel": null
        },
        "stackGroup": null,
        "target": {
            "type": "",
            "units": "",
            "value": null
        },
        "traits": {
            "custom": "",
            "rarity": "common",
            "value": [
                "evocation",
                "magical"
            ]
        },
        "usage": {
            "value": "held-in-one-hand"
        },
        "uses": {
            "autoDestroy": true,
            "autoUse": true,
            "max": 0,
            "per": null,
            "value": 0
        },
        "weight": {
            "value": "-"
        }
    },
    "effects": [],
    "flags": {},
    "img": "systems/pf2e/icons/default-icons/consumable.svg",
    "name": "Cantrip Deck (5-pack)",
    "type": "consumable"
}
