{
    "_id": "Wm0X7Pfd1bfocPSv",
    "data": {
        "baseItem": null,
        "brokenThreshold": {
            "value": 0
        },
        "containerId": null,
        "description": {
            "value": "<p>Acid sizzles across the surface of the weapon. When you hit with the weapon, add 1d6 acid damage to the damage dealt. In addition, on a critical hit, the target's armor (if any) takes 3d6 acid damage (before applying Hardness); if the target has a shield raised, the shield takes this damage instead.</p>"
        },
        "equippedBulk": {
            "value": ""
        },
        "hardness": 0,
        "hp": {
            "brokenThreshold": 0,
            "max": 0,
            "value": 0
        },
        "identification": {
            "misidentified": {},
            "status": "identified",
            "unidentified": {
                "data": {
                    "description": {
                        "value": ""
                    }
                },
                "img": "",
                "name": ""
            }
        },
        "level": {
            "value": 8
        },
        "negateBulk": {
            "value": "0"
        },
        "preciousMaterial": {
            "value": ""
        },
        "preciousMaterialGrade": {
            "value": ""
        },
        "price": {
            "value": "500 gp"
        },
        "quantity": 1,
        "rules": [],
        "size": "med",
        "source": {
            "value": "Pathfinder Core Rulebook"
        },
        "stackGroup": null,
        "traits": {
            "custom": "",
            "rarity": "common",
            "value": [
                "acid",
                "conjuration",
                "magical"
            ]
        },
        "usage": {
            "value": "etched-onto-a-weapon"
        },
        "weight": {
            "value": "-"
        }
    },
    "effects": [],
    "flags": {},
    "img": "systems/pf2e/icons/equipment/runes/weapon-property-runes/weapon-property-runes.webp",
    "name": "Corrosive",
    "type": "equipment"
}
