{
    "_id": "S4w9D1naKennNO5T",
    "data": {
        "baseItem": null,
        "brokenThreshold": {
            "value": 0
        },
        "containerId": "null",
        "description": {
            "value": "<p>This prosthetic eye was designed by elven crafters but comes in a range of appearances for different ancestries. While wearing the eye, you gain a +1 item bonus to visual Perception checks.</p>\n<hr />\n<p><strong>Activate</strong> <span class=\"pf2-icon\">2</span> command, envision</p>\n<p><strong>Frequency</strong> once per day</p>\n<p><strong>Effect</strong> You focus on the eye to see the unseen. The eye casts <em>@Compendium[pf2e.spells-srd.See Invisibility]{See Invisibility}</em> on you.</p>\n<p>@Compendium[pf2e.equipment-effects.Effect: Eye of the Unseen]{Effect: Eye of the Unseen}</p>"
        },
        "equippedBulk": {
            "value": ""
        },
        "hardness": 0,
        "hp": {
            "brokenThreshold": 0,
            "max": 0,
            "value": 0
        },
        "identification": {
            "misidentified": {},
            "status": "identified",
            "unidentified": {
                "data": {
                    "description": {
                        "value": ""
                    }
                },
                "img": "",
                "name": ""
            }
        },
        "level": {
            "value": 8
        },
        "negateBulk": {
            "value": "0"
        },
        "preciousMaterial": {
            "value": null
        },
        "preciousMaterialGrade": {
            "value": null
        },
        "price": {
            "value": "450 gp"
        },
        "quantity": 1,
        "rules": [
            {
                "key": "FlatModifier",
                "selector": "perception",
                "type": "item",
                "value": 1
            }
        ],
        "size": "med",
        "source": {
            "value": "Pathfinder Lost Omens: The Grand Bazaar"
        },
        "stackGroup": null,
        "traits": {
            "custom": "",
            "rarity": "common",
            "value": [
                "divination",
                "invested",
                "magical"
            ]
        },
        "usage": {
            "value": "worn"
        },
        "weight": {
            "value": "L"
        }
    },
    "effects": [],
    "flags": {},
    "img": "systems/pf2e/icons/equipment/worn-items/other-worn-items/eye-of-the-unseen.webp",
    "name": "Eye of the Unseen",
    "type": "equipment"
}
