{
    "_id": "pvxRcuBexbFawjCg",
    "data": {
        "MAP": {
            "value": ""
        },
        "baseItem": "longsword",
        "bonus": {
            "value": 3
        },
        "bonusDamage": {
            "value": 0
        },
        "brokenThreshold": {
            "value": 0
        },
        "category": "martial",
        "containerId": null,
        "damage": {
            "damageType": "slashing",
            "dice": 1,
            "die": "d8",
            "value": ""
        },
        "description": {
            "value": "<p>This <em>+3 greater striking @Compendium[pf2e.equipment-srd.Flaming (Greater)]{greater flaming} longsword</em> has an ornate brass hilt and a blade shaped like stylized flames. When wielded, the blade projects illumination resembling shimmering firelight, emitting dim light in a 10-foot radius.</p>\n<hr />\n<p><strong>Activate</strong> <span class=\"pf2-icon\">D</span> command, Interact</p>\n<p><strong>Effect</strong> You cast the <em>@Compendium[pf2e.spells-srd.Produce Flame]{produce flame}</em> cantrip from the sword as a 9th-level arcane spell, using your melee attack modifier with <em>flametongue</em> as your spell attack modifier.</p>\n<hr />\n<p><strong>Activate</strong> <span class=\"pf2-icon\">A</span> command</p>\n<p><strong>Frequency</strong> once per day</p>\n<p><strong>Effect</strong> A @Template[type:emanation|distance:10] of flame radiates from the <em>greater flame tongue</em> for 1 minute. All weapon and unarmed attacks by you and your allies within the area gain the effect of the <em>flaming</em> property rune.</p>"
        },
        "equippedBulk": {
            "value": ""
        },
        "group": "sword",
        "hardness": 0,
        "hp": {
            "brokenThreshold": 0,
            "max": 0,
            "value": 0
        },
        "identification": {
            "misidentified": {},
            "status": "identified",
            "unidentified": {
                "data": {
                    "description": {
                        "value": ""
                    }
                },
                "img": "",
                "name": ""
            }
        },
        "level": {
            "value": 17
        },
        "negateBulk": {
            "value": "0"
        },
        "potencyRune": {
            "value": 3
        },
        "preciousMaterial": {
            "value": null
        },
        "preciousMaterialGrade": {
            "value": null
        },
        "price": {
            "value": "13,800 gp"
        },
        "property1": {
            "critDamage": "",
            "critDamageType": "",
            "critDice": null,
            "critDie": "",
            "criticalConditionType": "",
            "criticalConditionValue": null,
            "damageType": "",
            "dice": null,
            "die": "",
            "strikeConditionType": "",
            "strikeConditionValue": null,
            "value": ""
        },
        "propertyRune1": {
            "value": "greaterFlaming"
        },
        "propertyRune2": {
            "value": null
        },
        "propertyRune3": {
            "value": null
        },
        "propertyRune4": {
            "value": null
        },
        "quantity": 1,
        "range": null,
        "reload": {
            "value": ""
        },
        "rules": [],
        "size": "med",
        "source": {
            "value": "Pathfinder Core Rulebook"
        },
        "specific": {
            "material": null,
            "runes": {
                "potency": 3,
                "striking": "greaterStriking"
            },
            "value": true
        },
        "splashDamage": {
            "value": 0
        },
        "stackGroup": null,
        "strikingRune": {
            "value": "greaterStriking"
        },
        "traits": {
            "custom": "",
            "rarity": "common",
            "value": [
                "evocation",
                "fire",
                "magical",
                "versatile-p"
            ]
        },
        "usage": {
            "value": "held-in-one-hand"
        },
        "weight": {
            "value": "1"
        }
    },
    "effects": [],
    "flags": {},
    "img": "systems/pf2e/icons/equipment/weapons/specific-magic-weapons/flame-tongue.webp",
    "name": "Flame Tongue (Greater)",
    "type": "weapon"
}
