{
    "_id": "bh3zC7WcVlM0qgYZ",
    "data": {
        "baseItem": null,
        "brokenThreshold": {
            "value": 0
        },
        "containerId": "null",
        "description": {
            "value": "<p>Originally developed as a body modification by oreads, <em>fleshgems</em> are crystals that can be implanted in the skin of a creature of any ancestry. While a <em>fleshgem</em> can be applied anywhere on the body for cosmetic purposes, the most common usage among adventurers is to implant them at the base of the fingers, to be used like brass knuckles.</p>\n<p>You siphon your <em>fleshgem's</em> power, and the earth around you erupts in crystal stalagmites.</p>\n<hr />\n<p><strong>Activate</strong> <span class=\"pf2-icon\">1</span> to <span class=\"pf2-icon\">2</span> command</p>\n<p><strong>Frequency</strong> once per day</p>\n<p><strong>Requirements</strong> You are standing on the ground</p>\n<p><strong>Effect</strong> The ground around you erupts in a @Template[type:burst|distance:10] of knee-high crystal shards that remain for 1 round, or 1 minute if you spent two actions. To all creatures other than you, the area is difficult terrain as well as hazardous terrain. Creatures that move through a space containing crystal shards take [[/r {2}[piercing]]]{2 piercing damage}.</p>"
        },
        "equippedBulk": {
            "value": ""
        },
        "hardness": 0,
        "hp": {
            "brokenThreshold": 0,
            "max": 0,
            "value": 0
        },
        "identification": {
            "misidentified": {},
            "status": "identified",
            "unidentified": {
                "data": {
                    "description": {
                        "value": ""
                    }
                },
                "img": "",
                "name": ""
            }
        },
        "level": {
            "value": 8
        },
        "negateBulk": {
            "value": "0"
        },
        "preciousMaterial": {
            "value": null
        },
        "preciousMaterialGrade": {
            "value": null
        },
        "price": {
            "value": "450 gp"
        },
        "quantity": 1,
        "rules": [],
        "size": "med",
        "source": {
            "value": "Pathfinder Lost Omens: The Grand Bazaar"
        },
        "stackGroup": null,
        "traits": {
            "custom": "",
            "rarity": "uncommon",
            "value": [
                "evocation",
                "invested",
                "primal"
            ]
        },
        "usage": {
            "value": "worn"
        },
        "weight": {
            "value": "-"
        }
    },
    "effects": [],
    "flags": {},
    "img": "systems/pf2e/icons/default-icons/equipment.svg",
    "name": "Fleshgem (Earthspeaker)",
    "type": "equipment"
}
