{
    "_id": "WTVLL9xk0Tk87w93",
    "data": {
        "baseItem": null,
        "brokenThreshold": {
            "value": 0
        },
        "containerId": "null",
        "description": {
            "value": "<p>A gumiho wears a strange green amulet around its neck. This fox marble stores all of the gumiho's knowledge. By focusing on the marble, a gumiho can perfectly recall anything it has experienced in its lifetime. A creature who manages to steal a gumiho's fox marble is lucky indeed, for they can also use it to access the gumiho's memories. However, if the gumiho still lives, the vengeful fox will stop at nothing to recover its marble.</p>\n<p>Whoever wears a fox marble gains a +2 item bonus to all checks to Recall Knowledge.</p>"
        },
        "equippedBulk": {
            "value": ""
        },
        "hardness": 0,
        "hp": {
            "brokenThreshold": 0,
            "max": 0,
            "value": 0
        },
        "identification": {
            "misidentified": {},
            "status": "identified",
            "unidentified": {
                "data": {
                    "description": {
                        "value": ""
                    }
                },
                "img": "",
                "name": ""
            }
        },
        "level": {
            "value": 0
        },
        "negateBulk": {
            "value": "0"
        },
        "preciousMaterial": {
            "value": null
        },
        "preciousMaterialGrade": {
            "value": null
        },
        "price": {
            "value": "0 gp"
        },
        "quantity": 1,
        "rules": [
            {
                "key": "FlatModifier",
                "predicate": {
                    "all": [
                        "action:recall-knowledge"
                    ]
                },
                "selector": "arcana",
                "type": "item",
                "value": 2
            },
            {
                "key": "FlatModifier",
                "predicate": {
                    "all": [
                        "action:recall-knowledge"
                    ]
                },
                "selector": "crafting",
                "type": "item",
                "value": 2
            },
            {
                "key": "FlatModifier",
                "predicate": {
                    "all": [
                        "action:recall-knowledge"
                    ]
                },
                "selector": "medicine",
                "type": "item",
                "value": 2
            },
            {
                "key": "FlatModifier",
                "predicate": {
                    "all": [
                        "action:recall-knowledge"
                    ]
                },
                "selector": "nature",
                "type": "item",
                "value": 2
            },
            {
                "key": "FlatModifier",
                "predicate": {
                    "all": [
                        "action:recall-knowledge"
                    ]
                },
                "selector": "occultism",
                "type": "item",
                "value": 2
            },
            {
                "key": "FlatModifier",
                "predicate": {
                    "all": [
                        "action:recall-knowledge"
                    ]
                },
                "selector": "religion",
                "type": "item",
                "value": 2
            },
            {
                "key": "FlatModifier",
                "predicate": {
                    "all": [
                        "action:recall-knowledge"
                    ]
                },
                "selector": "society",
                "type": "item",
                "value": 2
            }
        ],
        "size": "med",
        "source": {
            "value": "Pathfinder #168: King of the Mountain"
        },
        "stackGroup": null,
        "traits": {
            "custom": "",
            "rarity": "uncommon",
            "value": []
        },
        "usage": {
            "value": "worn"
        },
        "weight": {
            "value": "-"
        }
    },
    "effects": [],
    "flags": {},
    "img": "systems/pf2e/icons/equipment/consumables/talismans/jade-bauble.webp",
    "name": "Fox Marble",
    "type": "equipment"
}
