{
    "_id": "Ouou5j07pm2MysXI",
    "data": {
        "baseItem": null,
        "brokenThreshold": {
            "value": 0
        },
        "containerId": "null",
        "description": {
            "value": "<p>These wire-rim glasses with large, circular lenses were invented for the sole purpose of avoiding awkward confrontations at social gatherings. They grant you a +1 item bonus to Diplomacy.</p>\n<hr />\n<p><strong>Activate</strong> <span class=\"pf2-icon\">1</span> envision</p>\n<p><strong>Effect</strong> You stare at another creature and instantly remember their name if you've met and exchanged names. The glasses rely on your latent memories, so if the creature is disguising their identity, the glasses don't penetrate the disguise. If a doppelganger was disguised as an innkeeper you met, the glasses would give you the innkeeper's name, and if a noble you met before was in disguise as a masked vigilante, the glasses wouldn't reveal their name.</p>"
        },
        "equippedBulk": {
            "value": ""
        },
        "hardness": 0,
        "hp": {
            "brokenThreshold": 0,
            "max": 0,
            "value": 0
        },
        "identification": {
            "misidentified": {},
            "status": "identified",
            "unidentified": {
                "data": {
                    "description": {
                        "value": ""
                    }
                },
                "img": "",
                "name": ""
            }
        },
        "level": {
            "value": 3
        },
        "negateBulk": {
            "value": "0"
        },
        "preciousMaterial": {
            "value": null
        },
        "preciousMaterialGrade": {
            "value": null
        },
        "price": {
            "value": "60 gp"
        },
        "quantity": 1,
        "rules": [
            {
                "key": "FlatModifier",
                "selector": "diplomacy",
                "type": "item",
                "value": 1
            }
        ],
        "size": "med",
        "source": {
            "value": "Pathfinder Secrets of Magic"
        },
        "stackGroup": null,
        "traits": {
            "custom": "",
            "rarity": "common",
            "value": [
                "divination",
                "invested",
                "magical"
            ]
        },
        "usage": {
            "value": "worneyepiece"
        },
        "weight": {
            "value": "L"
        }
    },
    "effects": [],
    "flags": {},
    "img": "systems/pf2e/icons/default-icons/equipment.svg",
    "name": "Glasses of Sociability",
    "type": "equipment"
}
