{
    "_id": "sO3b9FRLFY43YQUc",
    "data": {
        "baseItem": null,
        "brokenThreshold": {
            "value": 0
        },
        "containerId": "null",
        "description": {
            "value": "<p>This enchanted long, red envelope is decorated with beautiful illustrations in gold ink. The hongbao holds twelve slips safely within.</p>\n<p><strong>Activate</strong> <span class=\"pf2-icon\">1</span> Interact;</p>\n<p><strong>Effect</strong> You draw a randomly selected slip from the hongbao, which transforms permanently into a useful item. Until you draw another item, the illustration on the outside of the hongbao changes to one of twelve animals, matching the item pulled. Each slip can be drawn only once; after the last slip is gone, the hongbao becomes a non-magical red envelope that retains the illustration of the final slip drawn. The effects of each slip are as follows:</p>\n<ol>\n<li>[[/r 3d4 #Firecrackers]] small firecracker pellets that let out a loud squeak when thrown against a hard surface.</li>\n<li>Embroidered @Compendium[pf2e.equipment-srd.Leather Armor]{Leather Armor} made from oxhide.</li>\n<li>A @Compendium[pf2e.equipment-srd.Healing Potion (Lesser)]{Healing Potion (Lesser)}, except it is applied as a balm instead of drunk.</li>\n<li>A stuffed bunny dressed in red robes.</li>\n<li>50 feet of coiled silk @Compendium[pf2e.equipment-srd.Rope]{Rope}.</li>\n<li>A bottle of snake wine.</li>\n<li>A wooden, horse-drawn @Compendium[pf2e.vehicles.Wagon]{Wagon}.</li>\n<li>A musical @Compendium[pf2e.equipment-srd.Musical Instrument (Handheld)]{Musical Instrument (Handheld)} made out of a ram's horn.</li>\n<li>A collapsible metal-banded bo @Compendium[pf2e.equipment-srd.Staff]{Staff}.</li>\n<li>An ornate jeweled egg.</li>\n<li>A small, jade, statuette of a guardian lion dog.</li>\n<li>6 delicious pork buns that function as emergency @Compendium[pf2e.equipment-srd.Rations]{Rations}.</li>\n</ol>"
        },
        "equippedBulk": {
            "value": ""
        },
        "hardness": 0,
        "hp": {
            "brokenThreshold": 0,
            "max": 0,
            "value": 0
        },
        "identification": {
            "misidentified": {},
            "status": "identified",
            "unidentified": {
                "data": {
                    "description": {
                        "value": ""
                    }
                },
                "img": "",
                "name": ""
            }
        },
        "level": {
            "value": 5
        },
        "negateBulk": {
            "value": "0"
        },
        "preciousMaterial": {
            "value": null
        },
        "preciousMaterialGrade": {
            "value": null
        },
        "price": {
            "value": "0 gp"
        },
        "quantity": 1,
        "rules": [],
        "size": "med",
        "source": {
            "value": "Pathfinder Blog"
        },
        "stackGroup": null,
        "traits": {
            "custom": "",
            "rarity": "common",
            "value": [
                "conjuration",
                "magical"
            ]
        },
        "usage": {
            "value": "held-in-one-hand"
        },
        "weight": {
            "value": "L"
        }
    },
    "effects": [],
    "flags": {},
    "img": "systems/pf2e/icons/default-icons/equipment.svg",
    "name": "Hongbao of Many Things",
    "type": "equipment"
}
