{
    "_id": "C3vAFRWoeGbMQTAH",
    "data": {
        "MAP": {
            "value": ""
        },
        "baseItem": "shortsword",
        "bonus": {
            "value": 3
        },
        "bonusDamage": {
            "value": 0
        },
        "brokenThreshold": {
            "value": 0
        },
        "category": "martial",
        "containerId": null,
        "damage": {
            "damageType": "piercing",
            "dice": 1,
            "die": "d6",
            "value": ""
        },
        "description": {
            "value": "<p>Luck and good fortune bless the wielder of this +3 greater striking shortsword. Luck blades are crafted in a variety of styles, but their hilts or blades always incorporate symbols of luck, such as clovers, horseshoes, fish, ladybugs, or other symbols.</p>\n<p><strong>Activate</strong> <span class=\"pf2-icon\">R</span> envision</p>\n<p><strong>Frequency</strong> once per day</p>\n<p><strong>Trigger</strong> You miss on a Strike with the luck blade</p>\n<p><strong>Effect</strong> Reroll the triggering attack roll and use the new result. This is a fortune effect.</p>\n<p>Some luck blades contain one <em>@Compendium[pf2e.spells-srd.Wish]{Wish}</em> when crafted. You can cast this spell as an <a class=\"btn-inform2\" tabindex=\"0\" title=\"\" role=\"button\" data-trigger=\"focus\" data-toggle=\"popover\" data-boundary=\"window\" data-placement=\"auto\" data-html=\"true\" data-content=\"<p><em>Arcane</em> spellcasters use logic and rationality to categorize the magic inherent in the world around them. Because of its far-reaching approach, the <em>arcane</em> tradition has the broadest spell list, though it's generally poor at affecting the spirit or the soul. Wizards are the most iconic <em>arcane</em> spellcasters, poring over tomes and grimoires, though <em>arcane</em> sorcerers study the secrets of their blood to unlock the power within themselves.</p>\" data-original-title=\"<strong>magical tradition: arcane</strong>\">arcane</a> innate spell while wielding the <em>luck blade</em>, expending the spell. A spellcaster who can cast wish can place another wish into the blade by spending 8,000 gp and 4 days of downtime. A wishing <em>luck blade</em> can hold no more than one wish at a time.</p>\n<hr />\n<p><strong>Craft Requirements</strong> Supply a casting of <em>wish</em></p>"
        },
        "equippedBulk": {
            "value": ""
        },
        "group": "sword",
        "hardness": 0,
        "hp": {
            "brokenThreshold": 0,
            "max": 0,
            "value": 0
        },
        "identification": {
            "misidentified": {},
            "status": "identified",
            "unidentified": {
                "data": {
                    "description": {
                        "value": ""
                    }
                },
                "img": "",
                "name": ""
            }
        },
        "level": {
            "value": 19
        },
        "negateBulk": {
            "value": "0"
        },
        "potencyRune": {
            "value": 3
        },
        "preciousMaterial": {
            "value": ""
        },
        "preciousMaterialGrade": {
            "value": ""
        },
        "price": {
            "value": "30,000 gp"
        },
        "property1": {
            "critDamage": "",
            "critDamageType": "",
            "critDice": null,
            "critDie": "",
            "criticalConditionType": "",
            "criticalConditionValue": null,
            "damageType": "",
            "dice": null,
            "die": "",
            "strikeConditionType": "",
            "strikeConditionValue": null,
            "value": ""
        },
        "propertyRune1": {
            "value": ""
        },
        "propertyRune2": {
            "value": ""
        },
        "propertyRune3": {
            "value": ""
        },
        "propertyRune4": {
            "value": ""
        },
        "quantity": 1,
        "range": null,
        "reload": {
            "value": ""
        },
        "rules": [],
        "size": "med",
        "source": {
            "value": "Pathfinder Core Rulebook"
        },
        "splashDamage": {
            "value": null
        },
        "stackGroup": null,
        "strikingRune": {
            "value": "greaterStriking"
        },
        "traits": {
            "custom": "",
            "rarity": "rare",
            "value": [
                "agile",
                "divination",
                "finesse",
                "fortune",
                "magical",
                "versatile-s"
            ]
        },
        "usage": {
            "value": "held-in-one-hand"
        },
        "weight": {
            "value": "L"
        }
    },
    "effects": [],
    "flags": {},
    "img": "systems/pf2e/icons/equipment/weapons/specific-magic-weapons/luck-blade.webp",
    "name": "Luck Blade (Wishing)",
    "type": "weapon"
}
