{
    "_id": "Z5eDsW2Lka2cLTVR",
    "data": {
        "baseItem": null,
        "brokenThreshold": {
            "value": 0
        },
        "containerId": "null",
        "description": {
            "value": "<p>Thousands of small, reflective, mirrored glass shards have been carefully stitched down this long silk duster.</p>\n<hr />\n<p><strong>Activate</strong> <span class=\"pf2-icon\">1</span> Interact</p>\n<p><strong>Requirements</strong> The mirror robe was last activated to draw attention toward you, or you haven't used the mirror robe today</p>\n<p><strong>Effect</strong> The mirror robe Creates a Diversion for you with a [[/r {1d20+9} #Mirror Robe Deception]]{+9} Deception modifier.</p>\n<hr />\n<p><strong>Activate</strong> <span class=\"pf2-icon\">1</span> Interact (visual)</p>\n<p><strong>Requirements</strong> The mirror robe was last activated to divert attention away from you and you are @Compendium[pf2e.conditionitems.Hidden]{Hidden} or @Compendium[pf2e.conditionitems.Undetected]{Undetected} by at least one foe</p>\n<p><strong>Effect</strong> You draw attention toward yourself. Choose one foe to which you were hidden or undetected. You reveal yourself to all, becoming observed. The foe you chose diverts its attention to you, becoming @Compendium[pf2e.conditionitems.Flat-Footed]{Flat-Footed} to your allies until the beginning of your next turn. If you are @Compendium[pf2e.conditionitems.Invisible]{Invisible} or otherwise can't become @Compendium[pf2e.conditionitems.Observed]{Observed}, you can't use this activation.</p>"
        },
        "equippedBulk": {
            "value": ""
        },
        "hardness": 0,
        "hp": {
            "brokenThreshold": 0,
            "max": 0,
            "value": 0
        },
        "identification": {
            "misidentified": {},
            "status": "identified",
            "unidentified": {
                "data": {
                    "description": {
                        "value": ""
                    }
                },
                "img": "",
                "name": ""
            }
        },
        "level": {
            "value": 3
        },
        "negateBulk": {
            "value": "0"
        },
        "preciousMaterial": {
            "value": null
        },
        "preciousMaterialGrade": {
            "value": null
        },
        "price": {
            "value": "55 gp"
        },
        "quantity": 1,
        "rules": [],
        "size": "med",
        "source": {
            "value": "Pathfinder Lost Omens: The Grand Bazaar"
        },
        "stackGroup": null,
        "traits": {
            "custom": "",
            "rarity": "uncommon",
            "value": [
                "illusion",
                "invested",
                "magical"
            ]
        },
        "usage": {
            "value": "wornclothing"
        },
        "weight": {
            "value": "L"
        }
    },
    "effects": [],
    "flags": {},
    "img": "systems/pf2e/icons/default-icons/equipment.svg",
    "name": "Mirror Robe",
    "type": "equipment"
}
