{
    "_id": "sLuU3V5Hv9bYrl2a",
    "data": {
        "MAP": {
            "value": ""
        },
        "baseItem": "war-flail",
        "bonus": {
            "value": 0
        },
        "bonusDamage": {
            "value": 0
        },
        "brokenThreshold": {
            "value": 0
        },
        "category": "martial",
        "containerId": "null",
        "damage": {
            "damageType": "bludgeoning",
            "dice": 1,
            "die": "d10",
            "value": ""
        },
        "description": {
            "value": "<p>You can easily expand and contract the chain of this <em>+3 greater striking greater extending war flail</em>. It magically grows new links when extended and loses them when contracted.</p>\n<hr />\n<p><strong>Activate</strong> <span class=\"pf2-icon\">r</span> command</p>\n<p><strong>Frequency</strong> once per hour</p>\n<p><strong>Trigger</strong> You successfully Strike with the flail while activating its extending rune</p>\n<p><strong>Effect</strong> The head of the flail wraps around the target of the triggering Strike and drags it in your direction. The target must succeed at a @Check[type:fortitude|dc:37|name:Ouroboros Flail Pull] save or be pulled adjacent to you. A creature pulled in is then @Compendium[pf2e.conditionitems.Grabbed]{Grabbed} by the flail until the end of your next turn unless you move, your target Escapes (DC 37), or you use the flail.</p>\n<hr />\n<p><strong>Activate</strong> <span class=\"pf2-icon\">3</span> Interact</p>\n<p><strong>Effect</strong> You extend the flail's chain, then wrap it across itself and strike two links together. This severs a usable 120-foot loop of chain from the flail, which instantly returns to its normal length. If you use this activation again, any previous chain you created with it disappears after 1 round. As with most obviously magical and temporary constructs, the chain cannot be sold.</p>"
        },
        "equippedBulk": {
            "value": ""
        },
        "group": "flail",
        "hardness": 0,
        "hp": {
            "brokenThreshold": 0,
            "max": 0,
            "value": 0
        },
        "identification": {
            "misidentified": {},
            "status": "identified",
            "unidentified": {
                "data": {
                    "description": {
                        "value": ""
                    }
                },
                "img": "",
                "name": ""
            }
        },
        "level": {
            "value": 17
        },
        "negateBulk": {
            "value": "0"
        },
        "potencyRune": {
            "value": 3
        },
        "preciousMaterial": {
            "value": null
        },
        "preciousMaterialGrade": {
            "value": null
        },
        "price": {
            "value": "15000 gp"
        },
        "property1": {
            "critDamage": "",
            "critDamageType": "",
            "critDice": 0,
            "critDie": "",
            "criticalConditionType": "",
            "criticalConditionValue": null,
            "damageType": "",
            "dice": 0,
            "die": "",
            "strikeConditionType": "",
            "strikeConditionValue": null,
            "value": ""
        },
        "propertyRune1": {
            "value": "greaterExtending"
        },
        "propertyRune2": {
            "value": null
        },
        "propertyRune3": {
            "value": null
        },
        "propertyRune4": {
            "value": null
        },
        "quantity": 1,
        "range": null,
        "reload": {
            "value": ""
        },
        "rules": [],
        "size": "med",
        "source": {
            "value": "Pathfinder Secrets of Magic"
        },
        "specific": {
            "material": null,
            "runes": {
                "potency": 2,
                "striking": "greaterStriking"
            },
            "value": true
        },
        "splashDamage": {
            "value": 0
        },
        "stackGroup": null,
        "strikingRune": {
            "value": "greaterStriking"
        },
        "traits": {
            "custom": "",
            "rarity": "common",
            "value": [
                "disarm",
                "magical",
                "sweep",
                "transmutation",
                "trip"
            ]
        },
        "usage": {
            "value": "held-in-two-hands"
        },
        "weight": {
            "value": "2"
        }
    },
    "effects": [],
    "flags": {},
    "img": "systems/pf2e/icons/default-icons/weapon.svg",
    "name": "Ouroboros Flail (Greater)",
    "type": "weapon"
}
