{
    "_id": "ChLxhFpo4WSAKgLh",
    "data": {
        "MAP": {
            "value": ""
        },
        "baseItem": "double-barreled-musket",
        "bonus": {
            "value": 0
        },
        "bonusDamage": {
            "value": 0
        },
        "brokenThreshold": {
            "value": 0
        },
        "category": "martial",
        "containerId": "null",
        "damage": {
            "damageType": "piercing",
            "dice": 1,
            "die": "d6",
            "value": ""
        },
        "description": {
            "value": "<p>Built from the taxidermic body of a basilisk, a <em>petrification cannon</em> functions as a <em>+2 greater striking double-barreled musket</em>. A <em>petrification cannon</em> can be activated to fire a beam of energy that transforms flesh into stone.</p>\n<hr />\n<p><strong>Activate</strong> <span class=\"pf2-icon\">1</span> Interact (magical, transmutation)</p>\n<p><strong>Frequency</strong> once per hour</p>\n<p><strong>Effect</strong> A beam of coiling energy leaps from the <em>petrification cannon</em> at a target within 60 feet. The target must attempt a @Check[type:fortitude|dc:34] save against DC 34 with the effects of <em>@Compendium[pf2e.spells-srd.Flesh to Stone]{Flesh to Stone}</em>.</p>\n<hr />\n<p><strong>Craft Requirements</strong> The initial raw materials must include the body of a basilisk.</p>"
        },
        "equippedBulk": {
            "value": ""
        },
        "group": "firearm",
        "hardness": 0,
        "hp": {
            "brokenThreshold": 0,
            "max": 0,
            "value": 0
        },
        "identification": {
            "misidentified": {},
            "status": "identified",
            "unidentified": {
                "data": {
                    "description": {
                        "value": ""
                    }
                },
                "img": "",
                "name": ""
            }
        },
        "level": {
            "value": 15
        },
        "negateBulk": {
            "value": "0"
        },
        "potencyRune": {
            "value": 0
        },
        "preciousMaterial": {
            "value": null
        },
        "preciousMaterialGrade": {
            "value": null
        },
        "price": {
            "value": "6500 gp"
        },
        "property1": {
            "critDamage": "",
            "critDamageType": "",
            "critDice": 0,
            "critDie": "",
            "criticalConditionType": "",
            "criticalConditionValue": null,
            "damageType": "",
            "dice": 0,
            "die": "",
            "strikeConditionType": "",
            "strikeConditionValue": null,
            "value": ""
        },
        "propertyRune1": {
            "value": null
        },
        "propertyRune2": {
            "value": null
        },
        "propertyRune3": {
            "value": null
        },
        "propertyRune4": {
            "value": null
        },
        "quantity": 1,
        "range": 60,
        "reload": {
            "value": "1"
        },
        "rules": [],
        "size": "med",
        "source": {
            "value": "Pathfinder Guns & Gears"
        },
        "specific": {
            "value": false
        },
        "splashDamage": {
            "value": 0
        },
        "stackGroup": null,
        "strikingRune": {
            "value": ""
        },
        "traits": {
            "custom": "",
            "rarity": "uncommon",
            "value": [
                "concussive",
                "double-barrel",
                "fatal-d10",
                "magical",
                "transmutation"
            ]
        },
        "usage": {
            "value": "held-in-two-hands"
        },
        "weight": {
            "value": "1"
        }
    },
    "effects": [],
    "flags": {},
    "img": "systems/pf2e/icons/equipment/weapons/double-barreled-musket.webp",
    "name": "Petrification Cannon",
    "type": "weapon"
}
