{
    "_id": "HB7VTopmeRZQGc0z",
    "data": {
        "baseItem": null,
        "brokenThreshold": {
            "value": 0
        },
        "containerId": "null",
        "description": {
            "value": "<p>This surcoat is made of thick fabric and light chain, designed to protect vital areas. When you are critically hit by an attack, you gain physical resistance equal to 2 + the value of the armor's potency rune against the attack's damage. If the armor is in the chain armor group and you have its armor specialization effect, you instead increase the physical resistance from the chain armor specialization by 2. This can't reduce the damage to less than the damage rolled for the hit before doubling for a critical hit. However, the reinforced surcoat increases the Speed penalty of your armor by 5 feet.</p>"
        },
        "equippedBulk": {
            "value": ""
        },
        "hardness": 0,
        "hp": {
            "brokenThreshold": 0,
            "max": 0,
            "value": 0
        },
        "identification": {
            "misidentified": {},
            "status": "identified",
            "unidentified": {
                "data": {
                    "description": {
                        "value": ""
                    }
                },
                "img": "",
                "name": ""
            }
        },
        "level": {
            "value": 0
        },
        "negateBulk": {
            "value": "0"
        },
        "preciousMaterial": {
            "value": null
        },
        "preciousMaterialGrade": {
            "value": null
        },
        "price": {
            "value": "2 gp"
        },
        "quantity": 1,
        "rules": [],
        "size": "med",
        "source": {
            "value": "Pathfinder Lost Omens: The Grand Bazaar"
        },
        "stackGroup": null,
        "traits": {
            "custom": "",
            "rarity": "uncommon",
            "value": [
                "adjustment"
            ]
        },
        "usage": {
            "value": "applied-to-medium-or-heavy-armor"
        },
        "weight": {
            "value": "L"
        }
    },
    "effects": [],
    "flags": {},
    "img": "systems/pf2e/icons/default-icons/equipment.svg",
    "name": "Reinforced Surcoat",
    "type": "equipment"
}
