{
    "_id": "aR0tsZ3xi1iwr53u",
    "data": {
        "baseItem": null,
        "brokenThreshold": {
            "value": 0
        },
        "containerId": null,
        "description": {
            "value": "<p>This ornate, compact shovel has a golden handle wrapped with beautiful crimson bulette leather. Its silver head never gets dirty or worn no matter how much you use it. Its true magic, however, is in its ability to dig on its own.</p>\n<p><strong>Activate</strong> <span class=\"pf2-icon\">D</span> command, envision</p>\n<p><strong>Frequency</strong> once per day</p>\n<p><strong>Effect</strong> You place the shovel in a starting position and specify the dimensions and direction to dig (such as \"Dig down 8 feet in a rectangle sized 30 feet by 40 feet\" or \"Dig straight ahead for 30 feet\"). The shovel then animates and digs on its own at a rate of one 5-foot cube per 10 minutes until the task is complete or it is picked up. It can dig through dirt, gravel, sand, snow, or similar loose material, but the shovel stops digging (or digs around, if commanded) if it strikes stone or another solid material. A <em>shoony shovel</em> can sense if its digging path will cause a building to collapse, harm a creature, or otherwise create significant problems, in which case it automatically stops digging.</p>"
        },
        "equippedBulk": {
            "value": ""
        },
        "hardness": 0,
        "hp": {
            "brokenThreshold": 0,
            "max": 0,
            "value": 0
        },
        "identification": {
            "misidentified": {},
            "status": "identified",
            "unidentified": {
                "data": {
                    "description": {
                        "value": ""
                    }
                },
                "img": "",
                "name": ""
            }
        },
        "level": {
            "value": 9
        },
        "negateBulk": {
            "value": ""
        },
        "preciousMaterial": {
            "value": ""
        },
        "preciousMaterialGrade": {
            "value": ""
        },
        "price": {
            "value": "600 gp"
        },
        "quantity": 1,
        "rules": [],
        "size": "med",
        "source": {
            "value": "Pathfinder #153: Life's Long Shadows"
        },
        "stackGroup": null,
        "traits": {
            "custom": "",
            "rarity": "rare",
            "value": [
                "earth",
                "magical"
            ]
        },
        "usage": {
            "value": "held-in-one-hand"
        },
        "weight": {
            "value": "2"
        }
    },
    "effects": [],
    "flags": {},
    "img": "systems/pf2e/icons/equipment/held-items/shoony-shovel.webp",
    "name": "Shoony Shovel",
    "type": "equipment"
}
