{
    "_id": "FPDe2DQv8HbkN4tz",
    "data": {
        "baseItem": null,
        "brokenThreshold": {
            "value": 0
        },
        "containerId": "null",
        "description": {
            "value": "<p>Colorful, beaded till masks are most commonly found on the distant continent of Arcadia, but trade between the two regions means that they can be found in the Mwangi Expanse as curiosities. These masks usually bear floral patterns and attune your senses to plants of all varieties.</p>\n<hr />\n<p><strong>Activate</strong> <span class=\"pf2-icon\">1</span> envision</p>\n<p><strong>Frequency</strong> once per day</p>\n<p><strong>Effect</strong> Your vision up to 60 feet sees through small amounts of living plant matter as though it were transparent. While this effect is active, creatures can't be @Compendium[pf2e.conditionitems.Concealed]{Concealed} from you due to living plants, such as small trees, vines, and grass. This also prevents them from Hiding or Sneaking past you using only living plants for concealment or cover. Other than the inability to use the cover to Hide or Sneak, this ability doesn't prevent plants from providing cover to creatures or blocking line of effect. It also doesn't allow you to see through dead plant matter, such as the wooden walls of a building, or thick plant matter, such as the walls of a dungeon built entirely inside an enormous living tree.</p>\n<p>The effect lasts for 10 minutes.</p>"
        },
        "equippedBulk": {
            "value": ""
        },
        "hardness": 0,
        "hp": {
            "brokenThreshold": 0,
            "max": 0,
            "value": 0
        },
        "identification": {
            "misidentified": {},
            "status": "identified",
            "unidentified": {
                "data": {
                    "description": {
                        "value": ""
                    }
                },
                "img": "",
                "name": ""
            }
        },
        "level": {
            "value": 9
        },
        "negateBulk": {
            "value": "0"
        },
        "preciousMaterial": {
            "value": null
        },
        "preciousMaterialGrade": {
            "value": null
        },
        "price": {
            "value": "240 gp"
        },
        "quantity": 1,
        "rules": [],
        "size": "med",
        "source": {
            "value": "Pathfinder #169: Kindled Magic"
        },
        "stackGroup": null,
        "traits": {
            "custom": "",
            "rarity": "uncommon",
            "value": [
                "invested",
                "magical",
                "transmutation"
            ]
        },
        "usage": {
            "value": "wornmask"
        },
        "weight": {
            "value": "L"
        }
    },
    "effects": [],
    "flags": {},
    "img": "systems/pf2e/icons/default-icons/equipment.svg",
    "name": "Tlil Mask (Greater)",
    "type": "equipment"
}
