{
    "_id": "Ix5w4UNElK0ncBm2",
    "data": {
        "MAP": {
            "value": ""
        },
        "activations": {
            "dg6w0n8zlzwl38an": {
                "actionCost": {
                    "type": "action",
                    "value": 1
                },
                "components": {
                    "cast": false,
                    "command": false,
                    "envision": false,
                    "interact": false
                },
                "description": {
                    "value": ""
                },
                "frequency": {
                    "duration": null,
                    "max": 0,
                    "value": 0
                },
                "id": "dg6w0n8zlzwl38an",
                "traits": {
                    "custom": "",
                    "value": []
                }
            }
        },
        "baseItem": "alchemical-bomb",
        "bonus": {
            "value": 1
        },
        "bonusDamage": {
            "value": 0
        },
        "brokenThreshold": {
            "value": 0
        },
        "category": "martial",
        "containerId": "null",
        "damage": {
            "damageType": "piercing",
            "dice": 2,
            "die": "d6",
            "value": ""
        },
        "description": {
            "value": "<p><strong>Activate</strong> <span class=\"pf2-icon\">1</span> Strike</p>\n<p>Sharp, flexible brambles poke from this sack made of intricately intertwined plant fibers. The sack's contents creak under the strain of the tightly compressed bundle.</p>\n<p>When thrown, a twigjack sack bursts open, spraying brambles in all directions that gouge and slash nearby creatures. A twigjack sack deals the listed piercing damage, persistent bleed damage, and splash damage.</p>\n<p>You gain a +1 item bonus to attack rolls. The bomb deals 2d6 piercing damage, 3 persistent bleed damage, and 2 piercing splash damage.</p>"
        },
        "equippedBulk": {
            "value": ""
        },
        "group": "bomb",
        "hardness": 0,
        "hp": {
            "brokenThreshold": 0,
            "max": 0,
            "value": 0
        },
        "identification": {
            "misidentified": {},
            "status": "identified",
            "unidentified": {
                "data": {
                    "description": {
                        "value": ""
                    }
                },
                "img": "",
                "name": ""
            }
        },
        "level": {
            "value": 3
        },
        "negateBulk": {
            "value": "0"
        },
        "potencyRune": {
            "value": 0
        },
        "preciousMaterial": {
            "value": null
        },
        "preciousMaterialGrade": {
            "value": null
        },
        "price": {
            "value": "10 gp"
        },
        "property1": {
            "critDamage": "",
            "critDamageType": "",
            "critDice": 0,
            "critDie": "",
            "criticalConditionType": "",
            "criticalConditionValue": null,
            "damageType": "",
            "dice": 0,
            "die": "",
            "strikeConditionType": "",
            "strikeConditionValue": null,
            "value": ""
        },
        "propertyRune1": {
            "value": null
        },
        "propertyRune2": {
            "value": null
        },
        "propertyRune3": {
            "value": null
        },
        "propertyRune4": {
            "value": null
        },
        "quantity": 1,
        "range": 20,
        "reload": {
            "value": ""
        },
        "rules": [
            {
                "key": "Note",
                "outcome": [
                    "success"
                ],
                "selector": "{item|_id}-damage",
                "text": "<p class='compact-text'>@Localize[PF2E.BombNotes.TwigjackSack.Moderate.success]</p>"
            },
            {
                "key": "Note",
                "outcome": [
                    "criticalSuccess"
                ],
                "selector": "{item|_id}-damage",
                "text": "<p class='compact-text'>@Localize[PF2E.BombNotes.TwigjackSack.Moderate.criticalSuccess]</p>"
            }
        ],
        "size": "med",
        "source": {
            "value": "Pathfinder #175: Broken Tusk Moon"
        },
        "specific": {
            "value": false
        },
        "splashDamage": {
            "value": 2
        },
        "stackGroup": null,
        "strikingRune": {
            "value": ""
        },
        "traits": {
            "custom": "",
            "rarity": "uncommon",
            "value": [
                "alchemical",
                "bomb",
                "consumable",
                "splash"
            ]
        },
        "usage": {
            "value": "held-in-one-hand"
        },
        "weight": {
            "value": "L"
        }
    },
    "effects": [],
    "flags": {},
    "img": "systems/pf2e/icons/default-icons/weapon.svg",
    "name": "Twigjack Sack (Moderate)",
    "type": "weapon"
}
