{
    "_id": "XLTPZ592Z9MXXBlA",
    "data": {
        "attributes": {
            "ac": {
                "value": 19
            },
            "hardness": 0,
            "hasHealth": true,
            "hp": {
                "details": "",
                "max": 50,
                "temp": 0,
                "tempmax": 0,
                "value": 50
            },
            "stealth": {
                "details": "<p>(expert)</p>",
                "value": 23
            }
        },
        "creatureType": "",
        "details": {
            "description": "<p>A bloody image of Belcorra arises, emits a soul‑draining light, then inhales blood from living creatures in the room.</p>",
            "disable": "<p>@Check[type:thievery|dc:22|name:Wipe Away Blood] (trained) to wipe away enough of the bloodstain to disrupt the haunt's necromantic energies, or @Check[type:religion|dc:20|name:Excorcise Haunt] (trained) to exorcise the haunt</p>",
            "isComplex": true,
            "level": {
                "value": 3
            },
            "reset": "<p>If the haunt is disabled or destroyed through damage, the bloody phantom of Belcorra sprays upward in a spiral, dousing the trap door leading to area <strong>A25</strong> before draining upward through the keyhole, which reduces the Thievery DC to @Compendium[pf2e.actionspf2e.Pick a Lock]{Pick the Lock} to @Check[type:thievery|dc:20|name:Pick Trap Door|traits:action:pick-a-lock,skill,manipulate].</p>\n<p>At the next sunrise, the blood drains back down to this room and the haunt resets. The haunt is destroyed permanently once Lasda Venkervale is rescued from area <strong>D9</strong>.</p>",
            "routine": "<p>(1 action) The bloody image opens its mouth and appears to inhale, drawing blood from the body of one creature in its line of sight within 90 feet from the center of area <strong>A11</strong>. The creature targeted must attempt a @Check[type:fortitude|dc:20|traits:damaging-effect] save.</p>\n<hr />\n<p><strong>Critical Success</strong> The creature is unaffected.</p>\n<p><strong>Success</strong> The creature takes [[/r {1d10}[persistent,bleed]]] @Compendium[pf2e.conditionitems.Persistent Damage]{Persistent Bleed Damage}.</p>\n<p><strong>Failure</strong> The creature takes [[/r {1d10+6}[persistent,bleed]]] @Compendium[pf2e.conditionitems.Persistent Damage]{Persistent Bleed Damage}.</p>\n<p><strong>Critical Failure</strong> The creature takes [[/r {2d10+6}[persistent,bleed]]] @Compendium[pf2e.conditionitems.Persistent Damage]{Persistent Bleed Damage} and is @Compendium[pf2e.conditionitems.Enfeebled]{Enfeebled 2} as long as it's bleeding.</p>"
        },
        "saves": {
            "fortitude": {
                "saveDetail": "",
                "value": 6
            },
            "reflex": {
                "saveDetail": "",
                "value": 9
            },
            "will": {
                "saveDetail": "",
                "value": 12
            }
        },
        "source": {
            "value": "Pathfinder #163: Ruins of Gauntlight"
        },
        "statusEffects": [],
        "traits": {
            "ci": [],
            "di": {
                "custom": "",
                "selected": {},
                "value": [
                    "critical-hits",
                    "object-immunities",
                    "precision"
                ]
            },
            "dr": [
                {
                    "exceptions": "except ghost touch",
                    "type": "physical",
                    "value": 5
                }
            ],
            "dv": [
                {
                    "type": "positive",
                    "value": 5
                }
            ],
            "rarity": "common",
            "size": {
                "value": "med"
            },
            "traits": {
                "custom": "",
                "value": [
                    "haunt"
                ]
            }
        }
    },
    "effects": [],
    "flags": {},
    "img": "systems/pf2e/icons/default-icons/hazard.svg",
    "items": [
        {
            "_id": "Q4ib52AxEVe6nHUx",
            "data": {
                "actionCategory": {
                    "value": "offensive"
                },
                "actionType": {
                    "value": "reaction"
                },
                "actions": {
                    "value": null
                },
                "description": {
                    "value": "<p data-visibility=\"gm\"><strong>Trigger</strong> A living creature ends its turn in area <strong>A11</strong> at night</p>\n<p><strong>Effect</strong> A ghastly image of Belcorra, seemingly composed of fresh blood, rises from the bloodstain on the floor and rotates in place like a lighthouse. Beams of cold blue light shine from Belcorra's eyes and open mouth, causing blisters and decay to spread across flesh. Living creatures within a @Template[type:burst|distance:30] from the center of area <strong>A11</strong> must attempt a @Check[type:fortitude|dc:20|traits:damaging-effect] save.</p>\n<p>The haunt then rolls initiative.</p>\n<div data-visibility=\"gm\"><hr />\n<p><strong>Critical Success</strong> The creature is unaffected.</p>\n<p><strong>Success</strong> The creature takes [[/r {1d8}[negative]]]{1d8 negative damage}.</p>\n<p><strong>Failure</strong> The creature takes [[/r {1d8+6}[negative]]]{1d8+6 negative damage} and is @Compendium[pf2e.conditionitems.Dazzled]{Dazzled} for 1 round.</p>\n<p><strong>Critical Failure</strong> The creature takes [[/r {2d8+6}[negative]]]{2d8+6 negative damage} and is @Compendium[pf2e.conditionitems.Blinded]{Blinded} for 1 round then dazzled for 1 round.</p>\n</div>"
                },
                "requirements": {
                    "value": ""
                },
                "rules": [],
                "slug": null,
                "source": {
                    "value": ""
                },
                "traits": {
                    "custom": "",
                    "rarity": "common",
                    "value": [
                        "light",
                        "necromancy"
                    ]
                },
                "trigger": {
                    "value": ""
                },
                "weapon": {
                    "value": ""
                }
            },
            "effects": [],
            "flags": {},
            "img": "systems/pf2e/icons/actions/Reaction.webp",
            "name": "Gauntlight Beam",
            "sort": 100000,
            "type": "action"
        }
    ],
    "name": "Blood of Belcorra",
    "token": {
        "disposition": 0,
        "height": 1,
        "img": "systems/pf2e/icons/default-icons/hazard.svg",
        "name": "Blood of Belcorra",
        "width": 1
    },
    "type": "hazard"
}
