{
    "_id": "fNX8O2z4d3peG5zJ",
    "data": {
        "attributes": {
            "ac": {
                "value": 18
            },
            "hardness": 10,
            "hasHealth": true,
            "hp": {
                "details": "",
                "max": 44,
                "temp": 0,
                "value": 44
            },
            "stealth": {
                "details": "",
                "value": 13
            }
        },
        "creatureType": "",
        "details": {
            "description": "<p>Daemonic curses slither and crawl through malevolent runes carved in four stone pillars. HP is per-pillar.</p>",
            "disable": "<p>@Check[type:thievery|dc:20|name:Disable Thievery] (trained) to scratch out a pillar's runes, <em>@Compendium[pf2e.spells-srd.Dispel Magic]{Dispel Magic}</em> (2nd level; counteract DC 18) to counteract a pillar's magic, or @Check[type:athletics|dc:21|name:Disable Athletics|traits:action:force-open]{Athletics (Force Open)} to push a pillar over. Disabling a pillar requires two actions. Disabling all four pillars or slaying Sezruth disables the trap</p>",
            "isComplex": true,
            "level": {
                "value": 3
            },
            "reset": "",
            "routine": "<p><strong>Routine (4 actions)</strong> The trap loses 1 action each turn for each disabled pillar. On its initiative, the trap uses each action to afflict a different non-evil creature in the room with thirst. The creature must attempt a @Check[type:fortitude|dc:20|name:Foretold Ruin|traits:damaging-effect] save.</p>\n<hr />\n<p><strong>Critical Success</strong> The creature is temporarily immune to additional negative effects from the <em>foretold ruin</em> hazard's reaction for 24 hours. The hazard has no awareness of this immunity and continues to target this creature.</p>\n<p><strong>Success</strong> The creature is unaffected.</p>\n<p><strong>Failure</strong> The creature is @Compendium[pf2e.conditionitems.Fatigued]{Fatigued} until they drink water. If the creature was already fatigued, they take [[/r 1d6 #nonlethal mental]]{1d6 nonlethal mental damage}.</p>\n<p><strong>Critical Failure</strong> The creature is fatigued until they drink water and takes [[/r 1d6 #nonlethal mental]]{1d6 nonlethal mental damage}. If the creature was already fatigued, they instead take [[/r 2d6 #nonlethal mental]]{2d6 nonlethal mental damage}.</p>"
        },
        "saves": {
            "fortitude": {
                "saveDetail": "",
                "value": 12
            },
            "reflex": {
                "saveDetail": "",
                "value": 6
            },
            "will": {
                "saveDetail": "",
                "value": 0
            }
        },
        "source": {
            "value": "Pathfinder Society Scenario 2-21: In Pursuit of Water"
        },
        "statusEffects": [],
        "traits": {
            "ci": [],
            "di": {
                "custom": "",
                "selected": {},
                "value": [
                    "precision",
                    "critical-hits",
                    "object-immunities"
                ]
            },
            "dr": [],
            "dv": [],
            "rarity": "uncommon",
            "size": {
                "value": "med"
            },
            "traits": {
                "custom": "",
                "value": [
                    "magical",
                    "trap"
                ]
            }
        }
    },
    "effects": [],
    "flags": {},
    "img": "systems/pf2e/icons/default-icons/hazard.svg",
    "items": [
        {
            "_id": "9IJ8tkod9DJIHiAj",
            "data": {
                "actionCategory": {
                    "value": ""
                },
                "actionType": {
                    "value": "reaction"
                },
                "actions": {
                    "value": 1
                },
                "description": {
                    "value": "<p data-visibility=\"gm\"><strong>Trigger</strong> A non-evil creature enters the room.</p>\n<p><strong>Effect</strong> The trap casts <em>@Compendium[pf2e.spells-srd.Phantom Pain]{Phantom Pain}</em> on the creature, and then rolls initiative.</p>\n<p>@Check[type:will|dc:23|name:Phantom Pain|traits:mental,nonlethal] save</p>"
                },
                "requirements": {
                    "value": ""
                },
                "rules": [],
                "slug": null,
                "source": {
                    "value": ""
                },
                "traits": {
                    "custom": "",
                    "rarity": "common",
                    "value": []
                },
                "trigger": {
                    "value": ""
                },
                "weapon": {
                    "value": ""
                }
            },
            "effects": [],
            "flags": {},
            "img": "systems/pf2e/icons/actions/Reaction.webp",
            "name": "Spite",
            "sort": 0,
            "type": "action"
        }
    ],
    "name": "Foretold Ruin (3-4)",
    "token": {
        "disposition": 0,
        "height": 1,
        "img": "systems/pf2e/icons/default-icons/hazard.svg",
        "name": "Foretold Ruin",
        "width": 1
    },
    "type": "hazard"
}
