{
    "_id": "vJAPvmWCjVGKr06E",
    "data": {
        "abilities": {
            "cha": {
                "mod": 4
            },
            "con": {
                "mod": 5
            },
            "dex": {
                "mod": -1
            },
            "int": {
                "mod": 4
            },
            "str": {
                "mod": 7
            },
            "wis": {
                "mod": 7
            }
        },
        "attributes": {
            "ac": {
                "details": "",
                "value": 33
            },
            "allSaves": {
                "value": null
            },
            "hp": {
                "details": "axe vulnerability",
                "max": 230,
                "temp": 0,
                "value": 230
            },
            "initiative": {
                "ability": "perception"
            },
            "perception": {
                "value": 25
            },
            "speed": {
                "otherSpeeds": [],
                "value": "25"
            }
        },
        "details": {
            "alignment": {
                "value": "NG"
            },
            "blurb": "",
            "creatureType": "",
            "level": {
                "value": 12
            },
            "privateNotes": "",
            "publicNotes": "<p>Arboreal archives are solitary beings typically found in the remote wilderness. These ancient monoliths hold the memories of their vast territories, keeping mental records of the passing seasons of the world around them. Their knowledge of humanoid affairs varies, as they find quickly shifting political situations difficult to comprehend, but through fungal networks, reports from arboreal wardens, and other woodland chatter, arboreal archives learn of each storm, drought, or logging threat encountered throughout their long years. They primarily observe and record rather than interfere, but they willingly offer wisdom to those who respectfully seek them out. Arboreal regents call upon archives for advice in times of strife, conferring on the best course of action to protect their realms.</p>\n<p>It is rare for there to be more than one arboreal archive in a given region. When an archive senses they're nearing the end of their lengthy lifespan, a grove of regents gathers to nominate the wisest among them to become the next archive. After four seasons' deliberation, all arboreals in the area congregate to witness the succession ritual, during which the elder arboreal archive transfers their collected wisdom to the elected replacement before retiring.</p>",
            "source": {
                "value": "Pathfinder Bestiary 3"
            }
        },
        "resources": {
            "focus": {
                "max": 0,
                "value": 0
            }
        },
        "saves": {
            "fortitude": {
                "saveDetail": "",
                "value": 23
            },
            "reflex": {
                "saveDetail": "",
                "value": 17
            },
            "will": {
                "saveDetail": "",
                "value": 27
            }
        },
        "traits": {
            "attitude": {
                "value": "hostile"
            },
            "ci": [],
            "di": {
                "custom": "",
                "value": []
            },
            "dr": [
                {
                    "exceptions": "",
                    "label": "Bludgeoning",
                    "type": "bludgeoning",
                    "value": 10
                },
                {
                    "exceptions": "",
                    "label": "Piercing",
                    "type": "piercing",
                    "value": 10
                }
            ],
            "dv": [
                {
                    "exceptions": "",
                    "label": "Fire",
                    "type": "fire",
                    "value": "15"
                }
            ],
            "languages": {
                "custom": "Speak With Plants",
                "selected": [],
                "value": [
                    "arboreal",
                    "common",
                    "sylvan"
                ]
            },
            "rarity": "common",
            "senses": {
                "value": "low-light vision, tremorsense (imprecise) 60 feet"
            },
            "size": {
                "value": "huge"
            },
            "traits": {
                "custom": "",
                "value": [
                    "plant"
                ]
            }
        }
    },
    "effects": [],
    "flags": {},
    "img": "systems/pf2e/icons/default-icons/npc.svg",
    "items": [
        {
            "_id": "K9yix7846e3CPs7u",
            "data": {
                "autoHeightenLevel": {
                    "value": null
                },
                "description": {
                    "value": ""
                },
                "displayLevels": {},
                "prepared": {
                    "flexible": false,
                    "value": "innate"
                },
                "proficiency": {
                    "value": 0
                },
                "rules": [],
                "showSlotlessLevels": {
                    "value": true
                },
                "showUnpreparedSpells": {
                    "value": false
                },
                "signatureSpells": {
                    "value": []
                },
                "slots": {
                    "slot0": {
                        "max": 0,
                        "prepared": {},
                        "value": 0
                    },
                    "slot1": {
                        "max": 0,
                        "prepared": {},
                        "value": 0
                    },
                    "slot10": {
                        "max": 0,
                        "prepared": {},
                        "value": 0
                    },
                    "slot11": {
                        "max": 0,
                        "prepared": {},
                        "value": 0
                    },
                    "slot2": {
                        "max": 1,
                        "prepared": {
                            "0": {
                                "id": "C5IC9uPjxcj0nof7"
                            }
                        },
                        "value": 1
                    },
                    "slot3": {
                        "max": 1,
                        "prepared": {},
                        "value": 1
                    },
                    "slot4": {
                        "max": 1,
                        "prepared": {
                            "0": {
                                "id": "kSrttwUyIkHEib3e"
                            }
                        },
                        "value": 1
                    },
                    "slot5": {
                        "max": 0,
                        "prepared": {},
                        "value": 0
                    },
                    "slot6": {
                        "max": 1,
                        "prepared": {
                            "0": {
                                "id": "bspsSBwiIjCFzRKr"
                            }
                        },
                        "value": 1
                    },
                    "slot7": {
                        "max": 0,
                        "prepared": {},
                        "value": 0
                    },
                    "slot8": {
                        "max": 0,
                        "prepared": {},
                        "value": 0
                    },
                    "slot9": {
                        "max": 0,
                        "prepared": {},
                        "value": 0
                    }
                },
                "slug": null,
                "source": {
                    "value": ""
                },
                "spelldc": {
                    "dc": 32,
                    "item": 0,
                    "mod": 0,
                    "value": 24
                },
                "tradition": {
                    "value": "divine"
                },
                "traits": {
                    "custom": "",
                    "rarity": "common",
                    "value": []
                }
            },
            "effects": [],
            "flags": {},
            "img": "systems/pf2e/icons/default-icons/spellcastingEntry.svg",
            "name": "Primal Innate Spells",
            "sort": 100000,
            "type": "spellcastingEntry"
        },
        {
            "_id": "bspsSBwiIjCFzRKr",
            "data": {
                "ability": {
                    "value": ""
                },
                "area": {
                    "areaType": "burst",
                    "value": "40"
                },
                "areasize": {
                    "value": "40-foot burst"
                },
                "autoHeightenLevel": {
                    "value": null
                },
                "category": {
                    "value": "spell"
                },
                "components": {
                    "focus": false,
                    "material": true,
                    "somatic": true,
                    "verbal": true
                },
                "cost": {
                    "value": ""
                },
                "damage": {
                    "value": {}
                },
                "description": {
                    "value": "<p>Dense, twitching creepers sprout from every surface and fill any bodies of water in the area. Any creature moving on the land, or Climbing or Swimming within the creepers, takes a -10- foot circumstance penalty to its Speeds while in the area. Once per round, you can make a vine lash out from any square within the expanse of creepers by using a single action, which has the concentrate trait. This vine has a 15-foot reach and makes a makes a melee spell attack roll against the target. If the attack succeeds, the vine pulls the target into the creepers and makes it @Compendium[pf2e.conditionitems.Immobilized]{Immobilized} for 1 round or until the creature Escapes (against your spell DC), whichever comes first.</p>"
                },
                "duration": {
                    "value": "10 minutes"
                },
                "hasCounteractCheck": {
                    "value": false
                },
                "level": {
                    "value": 6
                },
                "location": {
                    "value": "K9yix7846e3CPs7u"
                },
                "materials": {
                    "value": ""
                },
                "prepared": {
                    "value": ""
                },
                "primarycheck": {
                    "value": ""
                },
                "range": {
                    "value": "500 feet"
                },
                "rules": [],
                "save": {
                    "basic": "",
                    "value": ""
                },
                "school": {
                    "value": "conjuration"
                },
                "secondarycasters": {
                    "value": ""
                },
                "secondarycheck": {
                    "value": ""
                },
                "slug": "tangling-creepers",
                "source": {
                    "value": ""
                },
                "spellType": {
                    "value": "utility"
                },
                "sustained": {
                    "value": false
                },
                "target": {
                    "value": ""
                },
                "time": {
                    "value": "3"
                },
                "traditions": {
                    "value": [
                        "primal"
                    ]
                },
                "traits": {
                    "custom": "",
                    "rarity": "common",
                    "value": [
                        "plant"
                    ]
                }
            },
            "effects": [],
            "flags": {
                "core": {
                    "sourceId": "Compendium.pf2e.spells-srd.JbAcSLu62TU1OgNF"
                }
            },
            "img": "systems/pf2e/icons/spells/tangling-creepers.webp",
            "name": "Tangling Creepers",
            "sort": 200000,
            "type": "spell"
        },
        {
            "_id": "kSrttwUyIkHEib3e",
            "data": {
                "ability": {
                    "value": ""
                },
                "area": {
                    "areaType": "",
                    "value": null
                },
                "areasize": {
                    "value": ""
                },
                "autoHeightenLevel": {
                    "value": null
                },
                "category": {
                    "value": "spell"
                },
                "components": {
                    "focus": false,
                    "material": false,
                    "somatic": true,
                    "verbal": true
                },
                "cost": {
                    "value": ""
                },
                "damage": {
                    "value": {}
                },
                "description": {
                    "value": "<p>You can ask questions of and receive answers from plants, but the spell doesn't make them more friendly or intelligent than normal. Most normal plants have a distinctive view of the world around them, so they don't recognize details about creatures or know anything about the world beyond their immediate vicinity. Cunning plant monsters are likely to be terse and evasive, while less intelligent ones often make inane comments.</p>"
                },
                "duration": {
                    "value": "10 minutes"
                },
                "hasCounteractCheck": {
                    "value": false
                },
                "level": {
                    "value": 4
                },
                "location": {
                    "value": "K9yix7846e3CPs7u"
                },
                "materials": {
                    "value": ""
                },
                "prepared": {
                    "value": ""
                },
                "primarycheck": {
                    "value": ""
                },
                "range": {
                    "value": ""
                },
                "rules": [],
                "save": {
                    "basic": "",
                    "value": ""
                },
                "school": {
                    "value": "divination"
                },
                "secondarycasters": {
                    "value": ""
                },
                "secondarycheck": {
                    "value": ""
                },
                "slug": "speak-with-plants",
                "source": {
                    "value": ""
                },
                "spellType": {
                    "value": "utility"
                },
                "sustained": {
                    "value": false
                },
                "target": {
                    "value": ""
                },
                "time": {
                    "value": "2"
                },
                "traditions": {
                    "value": [
                        "primal"
                    ]
                },
                "traits": {
                    "custom": "",
                    "rarity": "common",
                    "value": [
                        "plant"
                    ]
                }
            },
            "effects": [],
            "flags": {
                "core": {
                    "sourceId": "Compendium.pf2e.spells-srd.qvwIwJ9QBihy8R0t"
                }
            },
            "img": "systems/pf2e/icons/spells/speak-with-plants.webp",
            "name": "Speak with Plants (Constant)",
            "sort": 300000,
            "type": "spell"
        },
        {
            "_id": "n41gtNhuJ4FaozqY",
            "data": {
                "ability": {
                    "value": ""
                },
                "area": {
                    "areaType": "",
                    "value": null
                },
                "areasize": {
                    "value": ""
                },
                "autoHeightenLevel": {
                    "value": null
                },
                "category": {
                    "value": "spell"
                },
                "components": {
                    "focus": false,
                    "material": false,
                    "somatic": true,
                    "verbal": true
                },
                "cost": {
                    "value": ""
                },
                "damage": {
                    "value": {}
                },
                "description": {
                    "value": "<p>Using the weight of earth, you hamper a target's flight, with effects based on its Fortitude save. If the creature reaches the ground safely, it doesn't take falling damage.</p>\n<hr /><strong>Critical Success</strong> The target is unaffected.\n<p><strong>Success</strong> The target falls safely up to 120 feet.</p>\n<p><strong>Failure</strong> The target falls safely up to 120 feet. If it hits the ground, it can't Fly, levitate, or otherwise leave the ground for 1 round.</p>\n<p><strong>Critical Failure</strong> The target falls safely up to 120 feet. If it hits the ground, it can't Fly, levitate, or otherwise leave the ground for 1 minute.</p>"
                },
                "duration": {
                    "value": "varies"
                },
                "hasCounteractCheck": {
                    "value": false
                },
                "level": {
                    "value": 3
                },
                "location": {
                    "value": "K9yix7846e3CPs7u"
                },
                "materials": {
                    "value": ""
                },
                "prepared": {
                    "value": ""
                },
                "primarycheck": {
                    "value": ""
                },
                "range": {
                    "value": "120 feet"
                },
                "rules": [],
                "save": {
                    "basic": "",
                    "value": "fortitude"
                },
                "school": {
                    "value": "transmutation"
                },
                "secondarycasters": {
                    "value": ""
                },
                "secondarycheck": {
                    "value": ""
                },
                "slug": "earthbind",
                "source": {
                    "value": ""
                },
                "spellType": {
                    "value": "save"
                },
                "sustained": {
                    "value": false
                },
                "target": {
                    "value": "1 flying creature"
                },
                "time": {
                    "value": "2"
                },
                "traditions": {
                    "value": [
                        "arcane",
                        "primal"
                    ]
                },
                "traits": {
                    "custom": "",
                    "rarity": "common",
                    "value": []
                }
            },
            "effects": [],
            "flags": {
                "core": {
                    "sourceId": "Compendium.pf2e.spells-srd.gPvtmKMRpg9I9D7H"
                }
            },
            "img": "systems/pf2e/icons/spells/earthbind.webp",
            "name": "Earthbind (At Will)",
            "sort": 400000,
            "type": "spell"
        },
        {
            "_id": "C5IC9uPjxcj0nof7",
            "data": {
                "ability": {
                    "value": ""
                },
                "area": {
                    "areaType": "burst",
                    "value": 20
                },
                "areasize": {
                    "value": "all squares in a 20-foot-radius burst that contain plants"
                },
                "autoHeightenLevel": {
                    "value": null
                },
                "category": {
                    "value": "spell"
                },
                "components": {
                    "focus": false,
                    "material": false,
                    "somatic": true,
                    "verbal": true
                },
                "cost": {
                    "value": ""
                },
                "damage": {
                    "value": {}
                },
                "description": {
                    "value": "<p>Plants in the area entangle creatures. The area counts as difficult terrain. Each round that a creature starts its turn in the area, it must attempt a Reflex save. On a failure, it takes a -10-foot circumstance penalty to its Speeds until it leaves the area, and on a critical failure, it is also @Compendium[pf2e.conditionitems.Immobilized]{Immobilized} for 1 round. Creatures can attempt to Escape at entangle's DC to remove these effects.</p>"
                },
                "duration": {
                    "value": "1 minute"
                },
                "hasCounteractCheck": {
                    "value": false
                },
                "level": {
                    "value": 2
                },
                "location": {
                    "value": "K9yix7846e3CPs7u"
                },
                "materials": {
                    "value": ""
                },
                "prepared": {
                    "value": ""
                },
                "primarycheck": {
                    "value": ""
                },
                "range": {
                    "value": "120 feet"
                },
                "rules": [],
                "save": {
                    "basic": "",
                    "value": "reflex"
                },
                "school": {
                    "value": "transmutation"
                },
                "secondarycasters": {
                    "value": ""
                },
                "secondarycheck": {
                    "value": ""
                },
                "slug": "entangle",
                "source": {
                    "value": ""
                },
                "spellType": {
                    "value": "save"
                },
                "sustained": {
                    "value": false
                },
                "target": {
                    "value": ""
                },
                "time": {
                    "value": "2"
                },
                "traditions": {
                    "value": [
                        "primal"
                    ]
                },
                "traits": {
                    "custom": "",
                    "rarity": "common",
                    "value": [
                        "plant"
                    ]
                }
            },
            "effects": [],
            "flags": {
                "core": {
                    "sourceId": "Compendium.pf2e.spells-srd.J6vNvrUT3b1hx2iA"
                }
            },
            "img": "systems/pf2e/icons/spells/entangle.webp",
            "name": "Entangle",
            "sort": 500000,
            "type": "spell"
        },
        {
            "_id": "QyBhco1VMbstqt4y",
            "data": {
                "attack": {
                    "value": ""
                },
                "attackEffects": {
                    "custom": "",
                    "value": [
                        "improved-knockdown"
                    ]
                },
                "bonus": {
                    "value": 25
                },
                "damageRolls": {
                    "0": {
                        "damage": "3d10+10",
                        "damageType": "bludgeoning"
                    }
                },
                "description": {
                    "value": ""
                },
                "rules": [],
                "slug": null,
                "source": {
                    "value": ""
                },
                "traits": {
                    "custom": "",
                    "rarity": "common",
                    "value": [
                        "reach-15"
                    ]
                },
                "weaponType": {
                    "value": "melee"
                }
            },
            "effects": [],
            "flags": {},
            "img": "systems/pf2e/icons/default-icons/melee.svg",
            "name": "Branch",
            "sort": 600000,
            "type": "melee"
        },
        {
            "_id": "1pvDIJGkdLBfQqHI",
            "data": {
                "actionCategory": {
                    "value": "interaction"
                },
                "actionType": {
                    "value": "passive"
                },
                "actions": {
                    "value": null
                },
                "description": {
                    "value": "<p>@Localize[PF2E.NPC.Abilities.Glossary.LowLightVision]</p>"
                },
                "requirements": {
                    "value": ""
                },
                "rules": [],
                "slug": "low-light-vision",
                "source": {
                    "value": ""
                },
                "traits": {
                    "custom": "",
                    "rarity": "common",
                    "value": []
                },
                "trigger": {
                    "value": ""
                },
                "weapon": {
                    "value": ""
                }
            },
            "effects": [],
            "flags": {
                "core": {
                    "sourceId": "Compendium.pf2e.bestiary-ability-glossary-srd.fFu2sZz4KB01fVRc"
                }
            },
            "img": "systems/pf2e/icons/actions/Passive.webp",
            "name": "Low-Light Vision",
            "sort": 700000,
            "type": "action"
        },
        {
            "_id": "UCfN3V1AIADUiNel",
            "data": {
                "actionCategory": {
                    "value": "interaction"
                },
                "actionType": {
                    "value": "passive"
                },
                "actions": {
                    "value": null
                },
                "description": {
                    "value": "<p>@Localize[PF2E.NPC.Abilities.Glossary.Tremorsense]</p>"
                },
                "requirements": {
                    "value": ""
                },
                "rules": [],
                "slug": "tremorsense",
                "source": {
                    "value": ""
                },
                "traits": {
                    "custom": "",
                    "rarity": "common",
                    "value": []
                },
                "trigger": {
                    "value": ""
                },
                "weapon": {
                    "value": ""
                }
            },
            "effects": [],
            "flags": {
                "core": {
                    "sourceId": "Compendium.pf2e.bestiary-ability-glossary-srd.j2wsK6IsW5yMW1jW"
                }
            },
            "img": "systems/pf2e/icons/actions/Passive.webp",
            "name": "Tremorsense (Imprecise) 60 feet",
            "sort": 800000,
            "type": "action"
        },
        {
            "_id": "CChXCrOyQxz6h0X9",
            "data": {
                "actionCategory": {
                    "value": "defensive"
                },
                "actionType": {
                    "value": "passive"
                },
                "actions": {
                    "value": null
                },
                "description": {
                    "value": "<p>If an arboreal archive dies unexpectedly before passing on their knowledge in a succession ritual, the amassed lore within their roots and boughs explodes out in a shock wave that deals [[/r {8d10}[mental]]]{8d10 mental damage} to creatures within 30 feet (@Check[type:will|dc:32|basic:true] save) before dissipating; those who fail also fall @Compendium[pf2e.conditionitems.Prone]{Prone}.</p>"
                },
                "requirements": {
                    "value": ""
                },
                "rules": [],
                "slug": null,
                "source": {
                    "value": ""
                },
                "traits": {
                    "custom": "",
                    "rarity": "common",
                    "value": []
                },
                "trigger": {
                    "value": ""
                },
                "weapon": {
                    "value": ""
                }
            },
            "effects": [],
            "flags": {},
            "img": "systems/pf2e/icons/actions/Passive.webp",
            "name": "Abeyance Rift",
            "sort": 900000,
            "type": "action"
        },
        {
            "_id": "g4OWJGRw7uHmBmrk",
            "data": {
                "actionCategory": {
                    "value": "defensive"
                },
                "actionType": {
                    "value": "passive"
                },
                "actions": {
                    "value": null
                },
                "description": {
                    "value": "<p>An arboreal archive takes 10 additional damage from axes.</p>"
                },
                "requirements": {
                    "value": ""
                },
                "rules": [],
                "slug": null,
                "source": {
                    "value": ""
                },
                "traits": {
                    "custom": "",
                    "rarity": "common",
                    "value": []
                },
                "trigger": {
                    "value": ""
                },
                "weapon": {
                    "value": ""
                }
            },
            "effects": [],
            "flags": {},
            "img": "systems/pf2e/icons/actions/Passive.webp",
            "name": "Axe Vulnerability",
            "sort": 1000000,
            "type": "action"
        },
        {
            "_id": "ndQeCjr03ZZsI5o1",
            "data": {
                "actionCategory": {
                    "value": "offensive"
                },
                "actionType": {
                    "value": "action"
                },
                "actions": {
                    "value": 3
                },
                "description": {
                    "value": "<p>The arboreal archive tries to overwhelm foes with a surge of information it has absorbed over its long life. This surge deals [[/r {5d6}[mental]]]{5d6 mental damage} to each enemy within 40 feet, who must attempt a @Check[type:will|dc:32|traits:damaging-effect] save.</p>\n<hr />\n<p><strong>Critical Success</strong> The creature maintains its composure, takes no damage, and is temporarily immune to Memory Maelstrom for 1 minute.</p>\n<p><strong>Success</strong> The creature is @Compendium[pf2e.conditionitems.Stunned]{Stunned 1} and takes half damage.</p>\n<p><strong>Failure</strong> The creature takes full damage and is @Compendium[pf2e.conditionitems.Stunned]{Stunned 3}.</p>\n<p><strong>Critical Failure</strong> The creature takes double damage, is @Compendium[pf2e.conditionitems.Confused]{Confused} for [[/br 2d4 #rounds]]{2d4 rounds}, and is @Compendium[pf2e.conditionitems.Stunned]{Stunned 3}.</p>"
                },
                "requirements": {
                    "value": ""
                },
                "rules": [],
                "slug": null,
                "source": {
                    "value": ""
                },
                "traits": {
                    "custom": "",
                    "rarity": "common",
                    "value": [
                        "concentrate",
                        "incapacitation",
                        "mental",
                        "nonlethal",
                        "primal"
                    ]
                },
                "trigger": {
                    "value": ""
                },
                "weapon": {
                    "value": ""
                }
            },
            "effects": [],
            "flags": {},
            "img": "systems/pf2e/icons/actions/ThreeActions.webp",
            "name": "Memory Maelstrom",
            "sort": 1100000,
            "type": "action"
        },
        {
            "_id": "rwY8lCJ2IEJlLbhC",
            "data": {
                "actionCategory": {
                    "value": "offensive"
                },
                "actionType": {
                    "value": "free"
                },
                "actions": {
                    "value": null
                },
                "description": {
                    "value": "<p>@Localize[PF2E.NPC.Abilities.Glossary.ImprovedKnockdown]</p>"
                },
                "requirements": {
                    "value": ""
                },
                "rules": [],
                "slug": "improved-knockdown",
                "source": {
                    "value": ""
                },
                "traits": {
                    "custom": "",
                    "rarity": "common",
                    "value": []
                },
                "trigger": {
                    "value": ""
                },
                "weapon": {
                    "value": ""
                }
            },
            "effects": [],
            "flags": {
                "core": {
                    "sourceId": "Compendium.pf2e.bestiary-ability-glossary-srd.LbnsT8yXchHMQT3t"
                }
            },
            "img": "systems/pf2e/icons/actions/FreeAction.webp",
            "name": "Improved Knockdown",
            "sort": 1200000,
            "type": "action"
        },
        {
            "_id": "wFLbEgSqYtWXX7ah",
            "data": {
                "description": {
                    "value": ""
                },
                "mod": {
                    "value": 23
                },
                "proficient": {
                    "value": 0
                },
                "rules": [],
                "slug": null,
                "source": {
                    "value": ""
                },
                "traits": {
                    "custom": "",
                    "rarity": "common",
                    "value": []
                }
            },
            "effects": [],
            "flags": {},
            "img": "systems/pf2e/icons/default-icons/lore.svg",
            "name": "Athletics",
            "sort": 1300000,
            "type": "lore"
        },
        {
            "_id": "8olEKY1crDvr6lpd",
            "data": {
                "description": {
                    "value": ""
                },
                "mod": {
                    "value": 22
                },
                "proficient": {
                    "value": 0
                },
                "rules": [],
                "slug": null,
                "source": {
                    "value": ""
                },
                "traits": {
                    "custom": "",
                    "rarity": "common",
                    "value": []
                }
            },
            "effects": [],
            "flags": {},
            "img": "systems/pf2e/icons/default-icons/lore.svg",
            "name": "Diplomacy",
            "sort": 1400000,
            "type": "lore"
        },
        {
            "_id": "2LqNyl4yrY4R0XPU",
            "data": {
                "description": {
                    "value": ""
                },
                "mod": {
                    "value": 28
                },
                "proficient": {
                    "value": 0
                },
                "rules": [],
                "slug": null,
                "source": {
                    "value": ""
                },
                "traits": {
                    "custom": "",
                    "rarity": "common",
                    "value": []
                }
            },
            "effects": [],
            "flags": {},
            "img": "systems/pf2e/icons/default-icons/lore.svg",
            "name": "Forest Lore (Arboreal Archive's Territory Only)",
            "sort": 1500000,
            "type": "lore"
        },
        {
            "_id": "8nhEgguSsgIANgpC",
            "data": {
                "description": {
                    "value": ""
                },
                "mod": {
                    "value": 25
                },
                "proficient": {
                    "value": 0
                },
                "rules": [],
                "slug": null,
                "source": {
                    "value": ""
                },
                "traits": {
                    "custom": "",
                    "rarity": "common",
                    "value": []
                }
            },
            "effects": [],
            "flags": {},
            "img": "systems/pf2e/icons/default-icons/lore.svg",
            "name": "Nature",
            "sort": 1600000,
            "type": "lore"
        },
        {
            "_id": "6kF88w6XCeKwvBaF",
            "data": {
                "description": {
                    "value": ""
                },
                "mod": {
                    "value": 19
                },
                "proficient": {
                    "value": 0
                },
                "rules": [
                    {
                        "key": "FlatModifier",
                        "label": "PF2E.SkillVariant.Forests",
                        "predicate": {
                            "all": [
                                "terrain:forest"
                            ]
                        },
                        "selector": "stealth",
                        "value": 4
                    }
                ],
                "slug": null,
                "source": {
                    "value": ""
                },
                "traits": {
                    "custom": "",
                    "rarity": "common",
                    "value": []
                },
                "variants": {
                    "0": {
                        "label": "+23 in forests",
                        "options": "terrain:forest"
                    }
                }
            },
            "effects": [],
            "flags": {},
            "img": "systems/pf2e/icons/default-icons/lore.svg",
            "name": "Stealth",
            "sort": 1700000,
            "type": "lore"
        }
    ],
    "name": "Arboreal Archive",
    "token": {
        "disposition": -1,
        "height": 3,
        "img": "systems/pf2e/icons/default-icons/npc.svg",
        "name": "Arboreal Archive",
        "width": 3
    },
    "type": "npc"
}
