{
    "_id": "hA6HsM4i4yPfEsDH",
    "data": {
        "actionCategory": {
            "value": "offensive"
        },
        "actionType": {
            "value": "passive"
        },
        "actions": {
            "value": null
        },
        "description": {
            "value": "<p><strong>Saving Throw</strong> @Check[type:fortitude|dc:]</p>\n<hr />\n<p><strong>Stage 1</strong> carrier with no ill effect (1 day)</p>\n<p><strong>Stage 2</strong> [[/r {3d8}[negative]]]{3d8 negative damage} and regains half as many Hit Points from all healing (1 day)</p>\n<p><strong>Stage 3</strong> as stage 2 (1 day)</p>\n<p><strong>Stage 4</strong> [[/r {3d8}[negative]]]{3d8 negative damage} and gains no benefit from healing (1 day)</p>\n<p><strong>Stage 5</strong> as stage 4 (1 day)</p>\n<p><strong>Stage 6</strong> dead, and rises as a @Compendium[pf2e.pathfinder-bestiary.Ghast]{Ghast} the next midnight</p>"
        },
        "requirements": {
            "value": ""
        },
        "rules": [],
        "source": {
            "value": "Pathfinder Bestiary"
        },
        "traits": {
            "custom": "",
            "rarity": "common",
            "value": [
                "disease"
            ]
        },
        "trigger": {
            "value": ""
        },
        "weapon": {
            "value": ""
        }
    },
    "effects": [],
    "flags": {},
    "img": "systems/pf2e/icons/actions/Passive.webp",
    "name": "(Ghast) Ghast Fever",
    "type": "action"
}
