{
    "_id": "0K3vhX14UEPftqu8",
    "data": {
        "actionCategory": {
            "value": "offensive"
        },
        "actionType": {
            "value": "action"
        },
        "actions": {
            "value": 2
        },
        "description": {
            "value": "<p>The ghost cries out in pain and anguish as small objects and debris fly about in a @Template[type:emanation|distance:30]. Creatures in this area take [[/r {1d6}[bludgeoning]]]{1d6 bludgeoning damage} + 1d6 per 2 levels, subject to a @Check[type:reflex|dc:|basic:true] save.</p>"
        },
        "requirements": {
            "value": "Pathfinder Bestiary"
        },
        "rules": [],
        "source": {
            "value": ""
        },
        "traits": {
            "custom": "",
            "rarity": "common",
            "value": [
                "divine",
                "evocation"
            ]
        },
        "trigger": {
            "value": ""
        },
        "weapon": {
            "value": ""
        }
    },
    "effects": [],
    "flags": {},
    "img": "systems/pf2e/icons/actions/TwoActions.webp",
    "name": "(Ghost) Telekinetic Assault",
    "type": "action"
}
