{
    "_id": "4p06ewIsPnWZwuwc",
    "data": {
        "actionCategory": {
            "value": "interaction"
        },
        "actionType": {
            "value": "passive"
        },
        "actions": {
            "value": null
        },
        "description": {
            "value": "<p>The ghost extends some of its nature to one or more undead of equal or lower level, who are connected to the ghost's story and unfinished business.</p>\n<p>These undead gain the ghost's @Compendium[pf2e.bestiary-family-ability-glossary.(Ghost) Rejuvenation]{Rejuvenation} ability and can't be permanently destroyed so long as the ghost exists. If the ghost is laid to rest, all linked undead are likewise instantly destroyed.</p>\n<p>Linked undead often, but not always, share the ghost's @Compendium[pf2e.bestiary-family-ability-glossary.(Ghost) Site Bound]{Site Bound} ability as well. The ghost doesn't have any control over such undead, and indeed the ghost and their partners in eternity may be unremittingly hostile to one another.</p>"
        },
        "requirements": {
            "value": ""
        },
        "rules": [],
        "source": {
            "value": "Pathfinder #165: Eyes of Empty Death"
        },
        "traits": {
            "custom": "",
            "rarity": "common",
            "value": [
                "divine",
                "necromancy"
            ]
        },
        "trigger": {
            "value": ""
        }
    },
    "effects": [],
    "flags": {},
    "img": "systems/pf2e/icons/actions/Passive.webp",
    "name": "(Ghost) Lynchpin",
    "type": "action"
}
