{
    "_id": "oD1cA9uXYQ8evT8f",
    "data": {
        "actionCategory": {
            "value": "offensive"
        },
        "actionType": {
            "value": "reaction"
        },
        "actions": {
            "value": null
        },
        "description": {
            "value": "<p data-visibility=\"gm\"><strong>Trigger</strong> The Melfesh Monster ends its movement next to or takes damage from an adjacent creature</p>\n<p><strong>Effect</strong> Rifts in the Melfesh Monster's body spew burning gas. The triggering creature must succeed at a @Check[type:reflex|dc:21|name:Vent Flames|traits:damaging-effect] save or inhale spores which remain in its body for 1 minute, take [[/r {2d6}[fire]]]{2d6 fire damage}, and become @Compendium[pf2e.conditionitems.Sickened]{Sickened 1} (on a critical failure, double damage and @Compendium[pf2e.conditionitems.Sickened]{Sickened 2}). This ability replaces Reactive Growth.</p>"
        },
        "requirements": {
            "value": ""
        },
        "rules": [],
        "source": {
            "value": "Pathfinder Lost Omens: Monsters of Myth"
        },
        "traits": {
            "custom": "",
            "rarity": "common",
            "value": []
        },
        "trigger": {
            "value": ""
        }
    },
    "effects": [],
    "flags": {},
    "img": "systems/pf2e/icons/actions/Reaction.webp",
    "name": "(Melfesh Monster) Vent Flames",
    "type": "action"
}
