{
    "_id": "pw2NFqvkDm54lsbt",
    "data": {
        "attributes": {
            "ac": {
                "value": 15
            },
            "hardness": 6,
            "hasHealth": true,
            "hp": {
                "details": "",
                "max": 24,
                "temp": 0,
                "value": 24
            },
            "stealth": {
                "details": "",
                "value": 7
            }
        },
        "creatureType": "",
        "details": {
            "description": "<p>A spring-loaded, poisoned spine is hidden near the keyhole of a lock. @Compendium[pf2e.actionspf2e.Disable Device]{Disabling} or breaking the trap doesn't disable or break the lock.</p>",
            "disable": "<p>@Check[type:thievery|dc:17|traits:hazard] on the spring mechanism</p>",
            "isComplex": false,
            "level": {
                "value": 1
            },
            "reset": "",
            "routine": ""
        },
        "saves": {
            "fortitude": {
                "saveDetail": "",
                "value": 8
            },
            "reflex": {
                "saveDetail": "",
                "value": 4
            },
            "will": {
                "saveDetail": "",
                "value": 0
            }
        },
        "source": {
            "value": "Pathfinder Beginners Box"
        },
        "statusEffects": [],
        "traits": {
            "ci": [],
            "di": {
                "custom": "Sneak Attack",
                "selected": {},
                "value": [
                    "critical-hits"
                ]
            },
            "dr": [],
            "dv": [],
            "rarity": "common",
            "size": {
                "value": "med"
            },
            "traits": {
                "custom": "",
                "value": [
                    "mechanical",
                    "trap"
                ]
            }
        }
    },
    "effects": [],
    "flags": {},
    "img": "systems/pf2e/icons/default-icons/hazard.svg",
    "items": [
        {
            "_id": "3w5kvSRp3MF3snpw",
            "data": {
                "actionCategory": {
                    "value": "offensive"
                },
                "actionType": {
                    "value": "reaction"
                },
                "actions": {
                    "value": null
                },
                "description": {
                    "value": "<p data-visibility=\"gm\"><strong>Trigger</strong> When a creature tries to unlock or @Compendium[pf2e.actionspf2e.Pick a Lock]{Pick the Lock},</p>\n<p><strong>Effect</strong> A spine extends to attack that creature. The trap makes a melee attack with +13 to its attack roll. On a hit, it deals [[/r {1}[piercing]]]{1 piercing Damage} and [[/r {1d6}[persistent,poison]]] @Compendium[pf2e.conditionitems.Persistent Damage]{Persistent Poison Damage} (on a critical hit, [[/r {2}[piercing]]]{2 piercing Damage} and [[/r {2d6}[persistent,poison]]] @Compendium[pf2e.conditionitems.Persistent Damage]{Persistent Poison Damage}).</p>"
                },
                "requirements": {
                    "value": ""
                },
                "rules": [],
                "slug": null,
                "source": {
                    "value": ""
                },
                "traits": {
                    "custom": "",
                    "rarity": "common",
                    "value": [
                        "attack"
                    ]
                },
                "trigger": {
                    "value": ""
                },
                "weapon": {
                    "value": ""
                }
            },
            "effects": [],
            "flags": {},
            "img": "systems/pf2e/icons/actions/Reaction.webp",
            "name": "Spring",
            "sort": 0,
            "type": "action"
        },
        {
            "_id": "VDL4WflLI1gxDylZ",
            "data": {
                "attack": {
                    "value": ""
                },
                "attackEffects": {
                    "value": []
                },
                "bonus": {
                    "value": 13
                },
                "damageRolls": {
                    "g84susx7cqppozhijhdu": {
                        "damage": "1",
                        "damageType": "piercing"
                    }
                },
                "description": {
                    "value": "<p>[[/r {1d6}[persistent,poison]]] @Compendium[pf2e.conditionitems.Persistent Damage]{Persistent Poison Damage} ([[/r {2d6}[persistent,poison]]] @Compendium[pf2e.conditionitems.Persistent Damage]{Persistent Poison Damage} on a critical success.)</p>"
                },
                "rules": [],
                "slug": null,
                "source": {
                    "value": ""
                },
                "traits": {
                    "custom": "",
                    "rarity": "common",
                    "value": []
                },
                "weaponType": {
                    "value": "melee"
                }
            },
            "effects": [],
            "flags": {},
            "img": "systems/pf2e/icons/default-icons/melee.svg",
            "name": "Spine",
            "sort": 0,
            "type": "melee"
        }
    ],
    "name": "Envenomed Lock",
    "token": {
        "disposition": 0,
        "height": 1,
        "img": "systems/pf2e/icons/default-icons/hazard.svg",
        "name": "Envenomed Lock",
        "width": 1
    },
    "type": "hazard"
}
