{
    "_id": "KC6o1cvbr45xnMei",
    "data": {
        "actionCategory": {
            "value": "interaction"
        },
        "actionType": {
            "value": "action"
        },
        "actions": {
            "value": 1
        },
        "description": {
            "value": "<p><strong>Frequency</strong> once per round</p>\n<p><strong>Effect</strong> You conjure an ordinary level-0 bolt or bullet out of thin air and then immediately Interact to load it into your weapon. If the bolt or bullet isn't fired before the end of your turn, the effect is wasted.</p>"
        },
        "requirements": {
            "value": ""
        },
        "rules": [],
        "source": {
            "value": ""
        },
        "traits": {
            "custom": "",
            "rarity": "common",
            "value": [
                "conjuration",
                "magical"
            ]
        },
        "trigger": {
            "value": ""
        }
    },
    "effects": [],
    "flags": {},
    "img": "systems/pf2e/icons/actions/OneAction.webp",
    "name": "Conjure Bullet",
    "type": "action"
}
