{
    "_id": "VQ5OxaDKE0lCj8Mr",
    "data": {
        "actionCategory": {
            "value": ""
        },
        "actionType": {
            "value": "action"
        },
        "actions": {
            "value": 1
        },
        "description": {
            "value": "<p><strong>Requirements</strong> The familiar is in dim light or darkness.</p>\n<p><strong>Effect</strong> The familiar teleports itself up to 30 feet. The destination must be in dim light or darkness and must be within your familiar's line of sight and line of effect.</p>\n<p>This action has the trait matching your tradition of magic, or occult if you aren't a spellcaster.</p>"
        },
        "requirements": {
            "value": ""
        },
        "rules": [],
        "source": {
            "value": "Pathfinder Secrets of Magic"
        },
        "traits": {
            "custom": "",
            "rarity": "common",
            "value": [
                "conjuration",
                "shadow",
                "teleportation"
            ]
        },
        "trigger": {
            "value": ""
        }
    },
    "effects": [],
    "flags": {},
    "img": "systems/pf2e/icons/actions/OneAction.webp",
    "name": "Shadow Step",
    "type": "action"
}
