{
    "_id": "hV9wXLvgH2LBaBwk",
    "data": {
        "actionCategory": {
            "value": ""
        },
        "actionType": {
            "value": "action"
        },
        "actions": {
            "value": null
        },
        "description": {
            "value": "<p><strong>Frequency</strong> once per round</p>\n<p><strong>Effect</strong> You Interact to draw a @Compendium[pf2e.equipment-srd.Hand Crossbow]{Hand Crossbow} and Strike with it, or you Strike with a loaded hand crossbow you're already holding and then Interact to stow it.</p>"
        },
        "requirements": {
            "value": ""
        },
        "rules": [],
        "source": {
            "value": ""
        },
        "traits": {
            "custom": "",
            "rarity": "common",
            "value": []
        },
        "trigger": {
            "value": ""
        },
        "weapon": {
            "value": ""
        }
    },
    "effects": [],
    "flags": {},
    "img": "systems/pf2e/icons/actions/OneAction.webp",
    "name": "Shootist's Draw",
    "type": "action"
}
