{
    "_id": "H29JukjrSpHe5DXR",
    "data": {
        "badge": null,
        "description": {
            "value": "<p>For 10 minutes after the meal, you gain a +2 item bonus to your Deception checks to Impersonate, as well as to Lie to convince others that you possess knowledge about the type of item that the cake resembles.</p>"
        },
        "duration": {
            "expiry": "turn-end",
            "sustained": false,
            "unit": "minutes",
            "value": 10
        },
        "level": {
            "value": 3
        },
        "rules": [
            {
                "key": "FlatModifier",
                "label": "Impossible Cake",
                "predicate": {
                    "any": [
                        "action:Impersonate",
                        "action:lie"
                    ]
                },
                "selector": "deception",
                "type": "item",
                "value": 2
            }
        ],
        "source": {
            "value": ""
        },
        "start": {
            "initiative": null,
            "value": 0
        },
        "target": null,
        "tokenIcon": {
            "show": true
        },
        "traits": {
            "custom": "",
            "rarity": "common",
            "value": []
        }
    },
    "effects": [],
    "flags": {},
    "img": "systems/pf2e/icons/equipment/alchemical-items/alchemical-tapas/impossible-cake.webp",
    "name": "Effect: Impossible Cake",
    "type": "effect"
}
