{
    "_id": "csA4UAD2tQq7RjT8",
    "data": {
        "description": {
            "value": "<p>Granted by activating @Compendium[pf2e.equipment-srd.Tanglefoot Bag (Greater)]{Tanglefoot Bag (Greater)}.</p>\n<hr />\n<p>A tanglefoot bag is filled with sticky substances. When you hit a creature with a tanglefoot bag, that creature takes a -15-foot status penalty to its Speeds for 1 minute. The Escape DC is 28.</p>"
        },
        "duration": {
            "expiry": "turn-start",
            "sustained": false,
            "unit": "minutes",
            "value": 1
        },
        "level": {
            "value": 11
        },
        "rules": [
            {
                "key": "FlatModifier",
                "label": "Tanglefoot Bag (Moderate)",
                "selector": "speed",
                "type": "status",
                "value": -15
            }
        ],
        "source": {
            "value": ""
        },
        "start": {
            "initiative": null,
            "value": 0
        },
        "target": null,
        "tokenIcon": {
            "show": true
        },
        "traits": {
            "custom": "",
            "rarity": "common",
            "value": []
        }
    },
    "effects": [],
    "flags": {},
    "img": "systems/pf2e/icons/conditions-2/clumsy.webp",
    "name": "Effect: Tanglefoot Bag (Greater)",
    "type": "effect"
}
