{
    "_id": "4aSqtBgvQr2TI3XT",
    "data": {
        "badge": null,
        "description": {
            "value": "<p>The creature gains a +1 item bonus to Athletics, Crafting, and Performance checks, -2 item penalty to Perception checks.</p>"
        },
        "duration": {
            "expiry": "turn-start",
            "sustained": false,
            "unit": "hours",
            "value": 1
        },
        "level": {
            "value": 1
        },
        "rules": [
            {
                "key": "FlatModifier",
                "selector": "athletics",
                "type": "item",
                "value": 1
            },
            {
                "key": "FlatModifier",
                "selector": "crafting",
                "type": "item",
                "value": 1
            },
            {
                "key": "FlatModifier",
                "selector": "performance",
                "type": "item",
                "value": 1
            },
            {
                "key": "FlatModifier",
                "selector": "perception",
                "type": "item",
                "value": -2
            }
        ],
        "source": {
            "value": ""
        },
        "start": {
            "initiative": null,
            "value": 0
        },
        "target": null,
        "tokenIcon": {
            "show": true
        },
        "traits": {
            "custom": "",
            "rarity": "common",
            "value": []
        }
    },
    "effects": [],
    "flags": {},
    "img": "systems/pf2e/icons/equipment/alchemical-items/drugs/grit.webp",
    "name": "Effect: Grit (Stage 2)",
    "type": "effect"
}
