{
    "_id": "jlVYoiPVRRVGBj5G",
    "data": {
        "badge": null,
        "description": {
            "value": "<p>The plating grants the wearer of the armor the 5 Hit Points for 1 minute or until lost. Removing the plating early destroys it.</p>"
        },
        "duration": {
            "expiry": "turn-start",
            "sustained": false,
            "unit": "minutes",
            "value": 1
        },
        "level": {
            "value": 1
        },
        "rules": [
            {
                "key": "TempHP",
                "value": 5
            }
        ],
        "source": {
            "value": "Pathfinder Guns & Gears"
        },
        "start": {
            "initiative": null,
            "value": 0
        },
        "target": null,
        "tokenIcon": {
            "show": true
        },
        "traits": {
            "custom": "",
            "rarity": "common",
            "value": []
        }
    },
    "effects": [],
    "flags": {},
    "img": "systems/pf2e/icons/equipment/consumables/other-consumables/ablative-armor-plating.webp",
    "name": "Effect: Ablative Armor Plating (Lesser)",
    "type": "effect"
}
