{
    "_id": "zZsdex5orF5Odpus",
    "data": {
        "description": {
            "value": ""
        },
        "duration": {
            "expiry": "turn-start",
            "sustained": false,
            "unit": "rounds",
            "value": 1
        },
        "level": {
            "value": 1
        },
        "rules": [
            {
                "key": "FlatModifier",
                "selector": "deception",
                "type": "status",
                "value": 4
            },
            {
                "key": "FlatModifier",
                "selector": "diplomacy",
                "type": "status",
                "value": 4
            },
            {
                "key": "FlatModifier",
                "selector": "intimidation",
                "type": "status",
                "value": 4
            },
            {
                "key": "FlatModifier",
                "selector": "performance",
                "type": "status",
                "value": 4
            }
        ],
        "source": {
            "value": ""
        },
        "start": {
            "initiative": null,
            "value": 0
        },
        "target": null,
        "tokenIcon": {
            "show": true
        },
        "traits": {
            "custom": "",
            "rarity": "common",
            "value": []
        }
    },
    "effects": [],
    "flags": {},
    "img": "systems/pf2e/icons/default-icons/effect.svg",
    "name": "Equipment Effect: Mask of Allure",
    "type": "effect"
}
