{
    "_id": "ZP9Uq4PVTgzJ3wEi",
    "data": {
        "description": {
            "value": "<p>You gain a +1 item bonus to Acrobatics checks and resistance 5 to falling damage.</p>"
        },
        "duration": {
            "expiry": "turn-start",
            "sustained": false,
            "unit": "unlimited",
            "value": -1
        },
        "level": {
            "value": 4
        },
        "rules": [
            {
                "key": "FlatModifier",
                "selector": "acrobatics",
                "type": "item",
                "value": 1
            }
        ],
        "source": {
            "value": ""
        },
        "start": {
            "initiative": null,
            "value": 0
        },
        "target": null,
        "tokenIcon": {
            "show": true
        },
        "traits": {
            "custom": "",
            "rarity": "common",
            "value": []
        }
    },
    "effects": [],
    "flags": {},
    "img": "systems/pf2e/icons/default-icons/effect.svg",
    "name": "Equipment Effect: Greater Five-Feather Wreath",
    "type": "effect"
}
