{
    "_id": "0B7h7yvceKuI2SFJ",
    "data": {
        "attributes": {
            "ac": {
                "value": 0
            },
            "hardness": 0,
            "hasHealth": true,
            "hp": {
                "details": "",
                "max": 0,
                "temp": 0,
                "value": 0
            },
            "stealth": {
                "details": "<p>(trained)</p>",
                "value": 10
            }
        },
        "creatureType": "",
        "details": {
            "description": "<p>The fanged skull rune begins speaking in sweet, honeyed tones about eternal life.</p>",
            "disable": "<p>@Check[type:religion|dc:20|name:Exorcise Spirit|traits:complex,haunt] (trained) to exorcise the spirit, @Check[type:religion|dc:21|name:Sever Spiritual Connection|traits:complex,haunt] or @Check[type:occultism|dc:21|name:Sever Spiritual Connection|traits:complex,haunt] (trained) to sever the connection between <em>Hunger's Call</em> and the temple, or @Check[type:athletics|dc:21|name:Crack the Wall|traits:complex,haunt] to crack the wall in several places; three total successes are required to disable the haunt.</p>",
            "isComplex": true,
            "level": {
                "value": 3
            },
            "reset": "<p>The mosaic ceases its routine 2 rounds after all living creatures are out of sight of the stairs. After 6 hours the haunt is ready to trigger again.</p>",
            "routine": "<p><span class=\"pf2-icon\">3</span> A pulsing red ball of energy flies from the wall and explodes in negative energy in the room. Anyone in the room takes [[/r {1d10+4}[negative]]]{1d10+4 negative damage} (@Check[type:reflex|dc:20|basic:true|name:Avoid the Energy|traits:complex,haunt,negative] save).</p>"
        },
        "saves": {
            "fortitude": {
                "saveDetail": "",
                "value": 0
            },
            "reflex": {
                "saveDetail": "",
                "value": 0
            },
            "will": {
                "saveDetail": "",
                "value": 0
            }
        },
        "source": {
            "value": ""
        },
        "statusEffects": [],
        "traits": {
            "ci": [],
            "di": {
                "custom": "",
                "selected": {},
                "value": []
            },
            "dr": [],
            "dv": [],
            "rarity": "common",
            "size": {
                "value": "med"
            },
            "traits": {
                "custom": "",
                "value": [
                    "haunt"
                ]
            }
        }
    },
    "effects": [],
    "flags": {},
    "img": "systems/pf2e/icons/default-icons/hazard.svg",
    "items": [
        {
            "_id": "7I3VRoq3OcchxAAS",
            "data": {
                "actionCategory": {
                    "value": "offensive"
                },
                "actionType": {
                    "value": "reaction"
                },
                "actions": {
                    "value": null
                },
                "description": {
                    "value": "<p data-visibility=\"gm\"><strong>Trigger</strong> A living creature bearing <em>Hunger's Call</em> moves within 30 feet of the exit stairs</p>\n<p><strong>Effect</strong> The creature's mind becomes hazy and foggy as an unseen voice says to drop the relic and walk away. The creature must attempt a @Check[type:will|dc:20|name:Resist Hunger's Possession|traits:haunt,complex] save, and the haunt then rolls initiative.</p>\n<div data-visibility=\"gm\"><hr />\n<p><strong>Critical Success</strong> The target is unaffected.</p>\n<p><strong>Success</strong> The target is @Compendium[pf2e.conditionitems.Dazzled]{Dazzled} for 1 round.</p>\n<p><strong>Failure</strong> The target is dazzled for 1 minute.</p>\n<p><strong>Critical Failure</strong> The target loses control of their mind and on their next round must set <em>Hunger's Call</em> on the floor and move their speed in a direction away from the relic; this causes the relic to teleport itself back to area D1. If they have any actions remaining, the target loses those actions. At the end of their turn, the target regains control of their mind.</p>\n</div>"
                },
                "requirements": {
                    "value": ""
                },
                "rules": [],
                "slug": null,
                "source": {
                    "value": ""
                },
                "traits": {
                    "custom": "",
                    "rarity": "common",
                    "value": [
                        "mental",
                        "occult"
                    ]
                },
                "trigger": {
                    "value": ""
                }
            },
            "effects": [],
            "flags": {},
            "img": "systems/pf2e/icons/actions/Reaction.webp",
            "name": "Hunger's Possession",
            "sort": 0,
            "type": "action"
        }
    ],
    "name": "Befuddled Thoughts",
    "token": {
        "disposition": 0,
        "height": 1,
        "img": "systems/pf2e/icons/default-icons/hazard.svg",
        "name": "Befuddled Thoughts",
        "width": 1
    },
    "type": "hazard"
}
