{
    "_id": "Ik5g8rEoSnJSf1NC",
    "data": {
        "attributes": {
            "ac": {
                "value": 0
            },
            "hardness": 0,
            "hasHealth": true,
            "hp": {
                "details": "",
                "max": 0,
                "temp": 0,
                "value": 0
            },
            "stealth": {
                "details": "<p>(trained)</p>",
                "value": 10
            }
        },
        "creatureType": "",
        "details": {
            "description": "<p>A cheerful, wordless tune fills the room, compelling everyone to get to work.</p>",
            "disable": "<p>@Check[type:religion|dc:20|name:Exorcise Spirits|traits:complex,haunt] (trained) to exorcise the spirits, or @Check[type:intimidation|dc:21|name:Take a Break|traits:complex,haunt] to convince the spirits it is time to take a break; three total successes are required to disable the haunt.</p>",
            "isComplex": false,
            "level": {
                "value": 3
            },
            "reset": "<p>The ghostly workers cease their routine 2 rounds after all living creatures leave the room and reset after 6 hours.</p>",
            "routine": "<p><span class=\"pf2-icon\">3</span> Ghostly workers appear in the room and begin abrading, scrubbing, and splashing cleaning chemicals on anyone in the area. Each creature in the room takes [[/r {1d4+2}[slashing]]]{1d4+2 slashing} and [[/r {1d4+2}[acid]]]{1d4+2 acid damage} (@Check[type:reflex|dc:20|basic:true|name:Avoid Workers|traits:haunt,complex] save; roll once for both).</p>"
        },
        "saves": {
            "fortitude": {
                "saveDetail": "",
                "value": 0
            },
            "reflex": {
                "saveDetail": "",
                "value": 0
            },
            "will": {
                "saveDetail": "",
                "value": 0
            }
        },
        "source": {
            "value": ""
        },
        "statusEffects": [],
        "traits": {
            "ci": [],
            "di": {
                "custom": "",
                "selected": {},
                "value": []
            },
            "dr": [],
            "dv": [],
            "rarity": "common",
            "size": {
                "value": "med"
            },
            "traits": {
                "custom": "",
                "value": [
                    "haunt"
                ]
            }
        }
    },
    "effects": [],
    "flags": {},
    "img": "systems/pf2e/icons/default-icons/hazard.svg",
    "items": [
        {
            "_id": "0kWS6tRTbUUXlA6N",
            "data": {
                "actionCategory": {
                    "value": "offensive"
                },
                "actionType": {
                    "value": "reaction"
                },
                "actions": {
                    "value": null
                },
                "description": {
                    "value": "<p data-visibility=\"gm\"><strong>Trigger</strong> A living creature approaches within 10 feet of the smiling face in the center of the north wall</p>\n<p><strong>Effect</strong> The whistling rises in volume to a painful pitch and deals [[/r {1d8+4}[sonic]]]{1d8+4 sonic damage}. The affected creature must attempt a @Check[type:will|dc:20|traits:damaging-effect] save, and the haunt then rolls initiative.</p>\n<div data-visibility=\"gm\"><hr />\n<p><strong>Critical Success</strong> The target takes no damage.</p>\n<p><strong>Success</strong> The creature takes half damage.</p>\n<p><strong>Failure</strong> The creature takes full damage and is @Compendium[pf2e.conditionitems.Deafened]{Deafened} for 1 minute.</p>\n<p><strong>Critical Failure</strong> The creature takes double damage, is @Compendium[pf2e.conditionitems.Frightened]{Frightened 1}, and is deafened for 2 minutes.</p>\n</div>"
                },
                "requirements": {
                    "value": ""
                },
                "rules": [],
                "slug": null,
                "source": {
                    "value": ""
                },
                "traits": {
                    "custom": "",
                    "rarity": "common",
                    "value": [
                        "fear",
                        "mental",
                        "occult"
                    ]
                },
                "trigger": {
                    "value": ""
                }
            },
            "effects": [],
            "flags": {},
            "img": "systems/pf2e/icons/actions/Reaction.webp",
            "name": "Nose to the Grindstone",
            "sort": 0,
            "type": "action"
        }
    ],
    "name": "Cheerful Tune",
    "token": {
        "disposition": 0,
        "height": 1,
        "img": "systems/pf2e/icons/default-icons/hazard.svg",
        "name": "Cheerful Tune",
        "width": 1
    },
    "type": "hazard"
}
