{
    "_id": "EvjouBfTEIzjfRwk",
    "data": {
        "ancestry": {
            "name": "Kobold",
            "uuid": "Compendium.pf2e.ancestries.7oQxL6wgsokD3QXG"
        },
        "description": {
            "value": "<p>Your scales are especially colorful, possessing some of the same resistance a dragon possesses. You gain electricity resistance equal to half your level (minimum 1). Double this resistance against dragons' Breath Weapons.</p>"
        },
        "rules": [
            {
                "key": "Resistance",
                "type": "electricity",
                "value": "max(1,floor(@actor.level/2))"
            }
        ],
        "source": {
            "value": "Pathfinder Advanced Player's Guide"
        },
        "traits": {
            "custom": "",
            "rarity": "common",
            "value": []
        }
    },
    "effects": [],
    "flags": {},
    "img": "systems/pf2e/icons/features/ancestry/dragonscaled-kobold.webp",
    "name": "Dragonscaled Kobold (Blue)",
    "type": "heritage"
}
