{
    "_id": "1lv7RMp7t5iqeUFT",
    "data": {
        "ancestry": {
            "name": "Catfolk",
            "uuid": "Compendium.pf2e.ancestries.972EkpJOPv9KkQIW"
        },
        "description": {
            "value": "<p>You come from a long line of skilled hunters and trackers and have a particularly keen sense of smell.</p>\n<p>You gain imprecise scent with a range of 30 feet. This means you can use your sense of smell to determine a creature's location. The GM will usually double the range if you're downwind from the creature or halve the range if you're upwind.</p>\n<p>In addition, you gain a +2 circumstance bonus to @Compendium[pf2e.actionspf2e.Track]{Track} a creature or object if you've smelled it before.</p>"
        },
        "rules": [
            {
                "key": "FlatModifier",
                "label": "Hunting Catfolk (Track smelled creatures)",
                "predicate": {
                    "all": [
                        "action:track",
                        "target:previously-smelled"
                    ]
                },
                "selector": "survival",
                "type": "circumstance",
                "value": 2
            },
            {
                "acuity": "imprecise",
                "key": "Sense",
                "label": "PF2E.SensesScent",
                "range": 30,
                "selector": "scent"
            }
        ],
        "source": {
            "value": ""
        },
        "traits": {
            "custom": "",
            "rarity": "common",
            "value": []
        }
    },
    "effects": [],
    "flags": {},
    "img": "systems/pf2e/icons/features/ancestry/hunting-catfolk.webp",
    "name": "Hunting Catfolk",
    "type": "heritage"
}
