{
    "_id": "cnbwtbDmlD0KoLqY",
    "data": {
        "ancestry": {
            "name": "Goloma",
            "uuid": "Compendium.pf2e.ancestries.c4secsSNG2AO7I5i"
        },
        "description": {
            "value": "<p>You've learned to watch for telltale signs of dangerous sentiments to help you avoid trouble. You gain a +1 circumstance bonus to your Perception DC against attempts to Lie to you and your Perception checks to Sense Motive.</p>"
        },
        "rules": [
            {
                "key": "FlatModifier",
                "label": "Insightful Goloma",
                "predicate": {
                    "all": [
                        "action:sense-motive"
                    ]
                },
                "selector": "perception",
                "type": "circumstance",
                "value": 1
            }
        ],
        "source": {
            "value": ""
        },
        "traits": {
            "custom": "",
            "rarity": "common",
            "value": []
        }
    },
    "effects": [],
    "flags": {},
    "img": "systems/pf2e/icons/default-icons/heritage.svg",
    "name": "Insightful Goloma",
    "type": "heritage"
}
