{
    "_id": "cwOUw7kofcAiY01I",
    "data": {
        "ancestry": {
            "name": "Anadi",
            "uuid": "Compendium.pf2e.ancestries.TQEqWqc7BYiadUdY"
        },
        "description": {
            "value": "<p>You were hatched with hooked fangs that give you an edge when hunting in your true form. Your fangs attack gains the grapple and trip traits.</p>"
        },
        "rules": [],
        "source": {
            "value": ""
        },
        "traits": {
            "custom": "",
            "rarity": "common",
            "value": []
        }
    },
    "effects": [],
    "flags": {},
    "img": "systems/pf2e/icons/default-icons/heritage.svg",
    "name": "Snaring Anadi",
    "type": "heritage"
}
