{
    "_id": "qM566kCXljkOpocA",
    "data": {
        "ancestry": {
            "name": "Tengu",
            "uuid": "Compendium.pf2e.ancestries.18xDKYPDBLEv2myX"
        },
        "description": {
            "value": "<p>Your talons are every bit as sharp and strong as your beak. You gain a talon unarmed attack that deals [[/r {1d4}[slashing]]]{1d4 slashing damage}. Your talons are in the brawling group, and have the agile, finesse, unarmed and versatile piercing traits.</p>"
        },
        "rules": [
            {
                "category": "unarmed",
                "damage": {
                    "base": {
                        "damageType": "slashing",
                        "dice": 1,
                        "die": "d4"
                    }
                },
                "group": "brawling",
                "img": "systems/pf2e/icons/unarmed-attacks/talon.webp",
                "key": "Strike",
                "label": "PF2E.BattleForm.Attack.Talon",
                "range": null,
                "traits": [
                    "agile",
                    "finesse",
                    "unarmed",
                    "versatile-p"
                ]
            }
        ],
        "source": {
            "value": ""
        },
        "traits": {
            "custom": "",
            "rarity": "common",
            "value": []
        }
    },
    "effects": [],
    "flags": {},
    "img": "systems/pf2e/icons/features/ancestry/taloned-tengu.webp",
    "name": "Taloned Tengu",
    "type": "heritage"
}
