{
    "_id": "m9rrlchS10xHFA2G",
    "data": {
        "ancestry": {
            "name": "Kobold",
            "uuid": "Compendium.pf2e.ancestries.7oQxL6wgsokD3QXG"
        },
        "description": {
            "value": "<p>A vestigial spur in your tail secretes one dose of deadly</p>\n<p>venom each day. You gain the @Compendium[pf2e.actionspf2e.Tail Toxin]{Tail Toxin} action.</p>"
        },
        "rules": [
            {
                "key": "GrantItem",
                "uuid": "Compendium.pf2e.actionspf2e.Tail Toxin"
            }
        ],
        "source": {
            "value": ""
        },
        "traits": {
            "custom": "",
            "rarity": "common",
            "value": []
        }
    },
    "effects": [],
    "flags": {},
    "img": "systems/pf2e/icons/features/ancestry/venomtail-kobold.webp",
    "name": "Venomtail Kobold",
    "type": "heritage"
}
