{
    "_id": "Amzezp93MZckBYRZ",
    "data": {
        "badge": null,
        "description": {
            "value": "<p>Your familiar can sense vibrations in the water. It gains imprecise wavesense with a range of 30 feet.</p>"
        },
        "duration": {
            "expiry": "turn-start",
            "sustained": false,
            "unit": "unlimited",
            "value": -1
        },
        "level": {
            "value": 1
        },
        "rules": [],
        "source": {
            "value": "Pathfinder Lost Omens: The Grand Bazaar"
        },
        "start": {
            "initiative": null,
            "value": 0
        },
        "target": null,
        "tokenIcon": {
            "show": false
        },
        "traits": {
            "custom": "",
            "rarity": "common",
            "value": []
        }
    },
    "effects": [],
    "flags": {},
    "img": "systems/pf2e/icons/actions/Passive.webp",
    "name": "Wavesense",
    "type": "effect"
}
