{
    "_id": "mi4Md1fB2XThCand",
    "data": {
        "description": {
            "value": "<p>Granted by @Compendium[pf2e.equipment-srd.Antidote (Moderate)]{Antidote (Moderate)}</p>\n<p>Implemented effects:</p>\n<ul>\n<li>+3 item bonus to Fortitude saves against poisons</li>\n</ul>"
        },
        "duration": {
            "expiry": "turn-start",
            "sustained": false,
            "unit": "hours",
            "value": 6
        },
        "level": {
            "value": 6
        },
        "rules": [
            {
                "key": "FlatModifier",
                "label": "Antidote Moderate (vs. poison)",
                "predicate": {
                    "all": [
                        "poison"
                    ]
                },
                "selector": "fortitude",
                "type": "item",
                "value": 3
            }
        ],
        "source": {
            "value": ""
        },
        "start": {
            "initiative": null,
            "value": 0
        },
        "target": null,
        "tokenIcon": {
            "show": true
        },
        "traits": {
            "custom": "",
            "rarity": "common",
            "value": []
        }
    },
    "effects": [],
    "flags": {},
    "img": "systems/pf2e/icons/equipment/alchemical-items/alchemical-elixirs/antidote.webp",
    "name": "Effect: Antidote (Moderate)",
    "type": "effect"
}
