{
    "_id": "yiKle2URZ43KYVKQ",
    "content": "<h1>Chamidu (The Roar of the Storm) [N]</h1><p>Chamidu is a Vudran goddess with an affinity for the beasts of the world. She is sometimes represented as a six-armed woman with four faces (one looking in each cardinal direction) and may ride a tiger with human hands for paws. She sometimes wields numerous weapons simultaneously.</p>\n<p><strong>Edicts</strong> Destroy aberrant creatures and fiends, live free of social or materialistic chains, cause destruction when angered</p>\n<p><strong>Anathema</strong> Harm a child, pollute the wilds, refuse to treat an illness</p>\n<p><strong>Follower Alignments</strong> NG, N, NE</p><h2>Devotee Benefits</h2><div><div><strong>Divine Ability</strong> Strength or Constitution</div><div><strong>Divine Font</strong> harm or heal</div><div><strong>Divine Skill</strong> Medicine</div><div><strong>Favored Weapon</strong> spear</div><div><strong>Domains</strong> healing, lightning, nature, nightmares</div><div><strong>Cleric Spells</strong> 1st: summon animal, 3rd: lightning bolt, 5th: moon frenzy</div></div>",
    "flags": {},
    "name": "Chamidu",
    "permission": {
        "default": 0
    }
}
