{
    "_id": "dcbf3pBSNa2q1Kkq",
    "content": "<h1>Dhalavei (The Unsuspected Rot) [LE]</h1><p><strong>Edicts</strong> Infiltrate righteous organizations and governments, destroy trust, perform human sacrifices</p>\n<p><strong>Anathema</strong> Betray a fellow servant of Dhalavei, harm those under Dhalavei's protection</p>\n<p><strong>Follower Alignments</strong> LE, NE</p><h2>Devotee Benefits</h2><div><div><strong>Divine Ability</strong> Strength or Charisma</div><div><strong>Divine Font</strong> harm or heal</div><div><strong>Divine Skill</strong> Deception</div><div><strong>Favored Weapon</strong> temple sword</div><div><strong>Domains</strong> destruction, knowledge, secrecy, trickery</div><div><strong>Cleric Spells</strong> 1st: fear, 4th: glibness, 6th: mislead</div></div>",
    "flags": {},
    "name": "Dhalavei",
    "permission": {
        "default": 0
    }
}
