{
    "_id": "ItYptsfjV8XvfhOV",
    "content": "<h1>Lahkgya (Patron of Monkeys) [CE]</h1><p><strong>Edicts</strong> Steal luxuries for yourself, destroy property for fun, demand bribes to spare creatures from your torments</p>\n<p><strong>Anathema</strong> Work honestly for something you could steal instead, kill a monkey</p>\n<p><strong>Follower Alignments</strong> CE</p><h2>Devotee Benefits</h2><div><div><strong>Divine Ability</strong> Dexterity or Intelligence</div><div><strong>Divine Font</strong> harm</div><div><strong>Divine Skill</strong> Thievery</div><div><strong>Favored Weapon</strong> jaws or battle axe</div><div><strong>Domains</strong> indulgence, nature, swarm, trickery</div><div><strong>Cleric Spells</strong> 1st: fleet step, 3rd: abyssal plague (mad monkeys), 4th: confusion</div></div>",
    "flags": {},
    "name": "Lahkgya",
    "permission": {
        "default": 0
    }
}
