{
    "_id": "ywn4ODaUt382Z3Nz",
    "content": "<p><strong>Deities</strong> @Compendium[pf2e.deities.Casandalee]{Casandalee}, @Compendium[pf2e.deities.Cernunnos]{Cernunnos}, @Compendium[pf2e.deities.Chamidu]{Chamidu}, @Compendium[pf2e.deities.Gozreh]{Gozreh}, @Compendium[pf2e.deities.Hei Feng]{Hei Feng}, @Compendium[pf2e.deities.Ranginori]{Ranginori}</p>\n<p><strong>Domain Spell</strong> <em>@Compendium[pf2e.spells-srd.Charged Javelin]{Charged Javelin}</em>; <strong>Advanced Domain Spell</strong> <em>@Compendium[pf2e.spells-srd.Bottle the Storm]{Bottle the Storm}</em></p>\n<p>You control electricity, thunder, and storms.</p>",
    "flags": {},
    "name": "Lightning Domain",
    "permission": {
        "default": 0
    }
}
