{
    "_id": "udASTZy5jJWFCt5w",
    "content": "<p><strong>Deities</strong> @Compendium[pf2e.deities.Alseta]{Alseta}, @Compendium[pf2e.deities.Brigh]{Brigh}, @Compendium[pf2e.deities.Pharasma]{Pharasma}, @Compendium[pf2e.deities.Pillars of Knowledge]{Pillars of Knowledge}, @Compendium[pf2e.deities.Ra]{Ra}, @Compendium[pf2e.deities.Shyka]{Shyka}, @Compendium[pf2e.deities.Yog-Sothoth]{Yog-Sothoth}</p>\n<p><strong>Domain Spell</strong> <em>@Compendium[pf2e.spells-srd.Delay Consequence]{Delay Consequence}</em>; <strong>Advanced Domain Spell</strong> <em>@Compendium[pf2e.spells-srd.Stasis]{Stasis}</em></p>\n<p>You reign over the flow of time.</p>",
    "flags": {},
    "name": "Time Domain",
    "permission": {
        "default": 0
    }
}
