{
    "_id": "PncXj46fgSwTWRl6",
    "data": {
        "actionCategory": {
            "value": ""
        },
        "actionType": {
            "value": "reaction"
        },
        "actions": {
            "value": null
        },
        "description": {
            "value": "<p><strong>Trigger</strong> A foe gives you the @Compendium[pf2e.conditionitems.Grabbed]{Grabbed} or @Compendium[pf2e.conditionitems.Restrained]{Restrained} condition using a part of its body.</p>\n<hr />\n<p>Whenever someone grabs onto you, you instinctively bite down hard. Sometimes that makes them let go, and sometimes it just makes them angrier, but either way, it's both satisfying and tasty. Make a jaws Strike against the triggering foe. On a critical hit, you are no longer grabbed. This Strike doesn't count toward your multiple attack penalty, and your multiple attack penalty doesn't apply to this Strike.</p>"
        },
        "featType": {
            "value": "ancestry"
        },
        "level": {
            "value": 5
        },
        "prerequisites": {
            "value": [
                {
                    "value": "Fang Sharpener or razortooth goblin heritage"
                }
            ]
        },
        "rules": [],
        "source": {
            "value": "Pathfinder Lost Omens: Character Guide"
        },
        "traits": {
            "custom": "",
            "rarity": "common",
            "value": [
                "goblin"
            ]
        }
    },
    "effects": [],
    "flags": {},
    "img": "systems/pf2e/icons/features/feats/feats.webp",
    "name": "Ankle Bite",
    "type": "feat"
}
