{
    "_id": "jwcNyPDVw313KXZU",
    "data": {
        "actionCategory": {
            "value": ""
        },
        "actionType": {
            "value": "reaction"
        },
        "actions": {
            "value": null
        },
        "description": {
            "value": "<p><strong>Trigger</strong> An adjacent foe critically fails an attack roll to Strike you with a melee weapon or unarmed attack.</p>\n<p><strong>Requirements</strong> You are wearing medium armor or heavier.</p>\n<hr />\n<p>You rebuff puny attacks with your armor, knocking back your foe. Attempt an Athletics check to @Compendium[pf2e.actionspf2e.Shove]{Shove} the triggering foe, even if you don't have a hand free. If you succeed, you can't Stride to follow the foe, as you're knocking the foe back with the rebounded attack, not by physically moving towards them.</p>"
        },
        "featType": {
            "value": "archetype"
        },
        "level": {
            "value": 8
        },
        "prerequisites": {
            "value": [
                {
                    "value": "Sentinel Dedication"
                }
            ]
        },
        "rules": [],
        "source": {
            "value": "Pathfinder Advanced Player's Guide"
        },
        "traits": {
            "custom": "",
            "rarity": "common",
            "value": [
                "archetype"
            ]
        }
    },
    "effects": [],
    "flags": {},
    "img": "systems/pf2e/icons/features/feats/feats.webp",
    "name": "Armored Rebuff",
    "type": "feat"
}
