{
    "_id": "WVU0c8rgcpGSRqSi",
    "data": {
        "actionCategory": {
            "value": ""
        },
        "actionType": {
            "value": "passive"
        },
        "actions": {
            "value": null
        },
        "description": {
            "value": "<p>You become trained in Athletics; if you were already trained in Athletics, you instead become trained in a skill of your choice. You become trained in barbarian class DC. You can use the @Compendium[pf2e.actionspf2e.Rage]{Rage} action. Choose an @Compendium[pf2e.classfeatures.Instinct]{Instinct} as you would if you were a barbarian. You have that instinct for all purposes and become bound by its anathema, but you don't gain any of the other abilities it grants.</p>\n<hr />\n<p><strong>Special</strong> You cannot select another dedication feat until you have gained two other feats from the barbarian archetype.</p>"
        },
        "featType": {
            "value": "archetype"
        },
        "level": {
            "value": 2
        },
        "location": "",
        "prerequisites": {
            "value": [
                {
                    "value": "Strength 14"
                },
                {
                    "value": "Constitution 14"
                }
            ]
        },
        "rules": [
            {
                "key": "ActiveEffectLike",
                "mode": "add",
                "path": "data.custom.modifiers.barbarian-dedication-count",
                "value": 1
            },
            {
                "key": "FlatModifier",
                "label": "PF2E.TraitRage",
                "predicate": {
                    "all": [
                        "rage"
                    ]
                },
                "selector": "ac",
                "slug": "dedication-rage",
                "value": -1
            },
            {
                "key": "FlatModifier",
                "label": "PF2E.TraitRage",
                "predicate": {
                    "all": [
                        "rage"
                    ],
                    "not": [
                        "agile",
                        "ranged",
                        "instinct-ability"
                    ]
                },
                "selector": "strike-damage",
                "slug": "dedication-rage",
                "value": 2
            },
            {
                "key": "FlatModifier",
                "label": "PF2E.TraitRage",
                "predicate": {
                    "all": [
                        "rage",
                        "agile"
                    ],
                    "not": [
                        "ranged",
                        "instinct-ability"
                    ]
                },
                "selector": "strike-damage",
                "slug": "dedication-rage-agile",
                "value": 1
            },
            {
                "key": "ActiveEffectLike",
                "mode": "upgrade",
                "path": "flags.pf2e.rollOptions.all.barbarian-dedication",
                "value": 1
            },
            {
                "key": "GrantItem",
                "uuid": "Compendium.pf2e.classfeatures.Instinct"
            },
            {
                "key": "GrantItem",
                "uuid": "Compendium.pf2e.actionspf2e.Rage"
            }
        ],
        "source": {
            "value": "Pathfinder Core Rulebook"
        },
        "traits": {
            "custom": "",
            "rarity": "common",
            "value": [
                "archetype",
                "dedication",
                "multiclass"
            ]
        }
    },
    "effects": [],
    "flags": {},
    "img": "systems/pf2e/icons/features/feats/feats.webp",
    "name": "Barbarian Dedication",
    "type": "feat"
}
