{
    "_id": "lgEihn7deZwHczGE",
    "data": {
        "actionCategory": {
            "value": "offensive"
        },
        "actionType": {
            "value": "action"
        },
        "actions": {
            "value": 1
        },
        "description": {
            "value": "<p>You transform into a ferocious Large dragon, gaining the effects of 6th-level <em>@Compendium[pf2e.spells-srd.Dragon Form]{Dragon Form}</em> except that you use your own AC and attack modifier, you apply your extra damage from Rage, and the Breath Weapon uses your class DC. The action to Dismiss the transformation gains the rage trait.</p>\n<p>At 18th level, you gain a +20-foot status bonus to your fly Speed, your damage bonus with dragon Strikes increases to +12, and you gain a +14 status bonus to your breath weapon damage.</p>"
        },
        "featType": {
            "value": "class"
        },
        "level": {
            "value": 16
        },
        "location": "",
        "prerequisites": {
            "value": [
                {
                    "value": "dragon instinct"
                },
                {
                    "value": "Dragon's Rage Wings"
                }
            ]
        },
        "rules": [],
        "source": {
            "value": "Pathfinder Core Rulebook"
        },
        "traits": {
            "custom": "",
            "rarity": "common",
            "value": [
                "barbarian",
                "concentrate",
                "polymorph",
                "primal",
                "rage",
                "transmutation"
            ]
        }
    },
    "effects": [],
    "flags": {},
    "img": "systems/pf2e/icons/default-icons/feats.webp",
    "name": "Dragon Transformation",
    "type": "feat"
}
