{
    "_id": "AMbYEv9rUt2fcR7F",
    "data": {
        "actionCategory": {
            "value": ""
        },
        "actionType": {
            "value": "passive"
        },
        "actions": {
            "value": null
        },
        "description": {
            "value": "<p>You can channel your core's power through the magical gem that serves as your eye. You gain an energy beam ranged unarmed attack that deals [[/r {1d4}[fire]]]{1d4 fire damage}. The energy beam has a range increment of 20 feet. On a critical hit, the target takes persistent fire damage equal to the number of weapon damage dice. Your eye beam does not add critical specialization effects.</p>\n<p><strong>Enhancement</strong> You channel greater power. Increase the damage die of your energy beam by one step, from 1d4 to 1d6.</p>"
        },
        "featType": {
            "value": "ancestry"
        },
        "level": {
            "value": 1
        },
        "location": "",
        "prerequisites": {
            "value": []
        },
        "rules": [],
        "source": {
            "value": ""
        },
        "traits": {
            "custom": "",
            "rarity": "common",
            "value": [
                "automaton"
            ]
        }
    },
    "effects": [],
    "flags": {},
    "img": "systems/pf2e/icons/default-icons/feats.webp",
    "name": "Energy Beam",
    "type": "feat"
}
