{
    "_id": "qr1E37Tla555tvIO",
    "data": {
        "actionCategory": {
            "value": ""
        },
        "actionType": {
            "value": "passive"
        },
        "actions": {
            "value": null
        },
        "description": {
            "value": "<p>Your ability to blend into the background allows you to fade away entirely or appear innocuous even to magical effects. You gain <em>@Compendium[pf2e.spells-srd.Invisibility]{Invisibility}</em> and <em>@Compendium[pf2e.spells-srd.Misdirection]{Misdirection}</em> as 2nd-level innate occult spells. You can target only yourself with <em>invisibility</em>, and you must be the primary target of <em>misdirection</em>. You can cast each spell once per day.</p>"
        },
        "featType": {
            "value": "ancestry"
        },
        "level": {
            "value": 9
        },
        "prerequisites": {
            "value": [
                {
                    "value": "Easily Dismissed"
                }
            ]
        },
        "rules": [],
        "source": {
            "value": "Pathfinder Lost Omens: Character Guide"
        },
        "traits": {
            "custom": "",
            "rarity": "common",
            "value": [
                "halfling"
            ]
        }
    },
    "effects": [],
    "flags": {},
    "img": "systems/pf2e/icons/features/feats/feats.webp",
    "name": "Fade Away",
    "type": "feat"
}
