{
    "_id": "9bgl6qYWKHzqWZj0",
    "data": {
        "actionCategory": {
            "value": ""
        },
        "actionType": {
            "value": "passive"
        },
        "actions": {
            "value": null
        },
        "description": {
            "value": "<p>You've collected a cross-section of information on various disciplines you can refer to when preparing for various tasks. During your daily preparations, you can cram on a certain subject to become temporarily trained in one skill of your choice. This proficiency lasts until you prepare again. As this proficiency increase is temporary, you can't use it as a prerequisite for a skill increase or permanent character option like a feat.</p>"
        },
        "featType": {
            "value": "class"
        },
        "level": {
            "value": 1
        },
        "prerequisites": {
            "value": []
        },
        "rules": [],
        "source": {
            "value": "Pathfinder Advanced Player's Guide"
        },
        "traits": {
            "custom": "",
            "rarity": "common",
            "value": [
                "investigator"
            ]
        }
    },
    "effects": [],
    "flags": {},
    "img": "systems/pf2e/icons/features/feats/feats.webp",
    "name": "Flexible Studies",
    "type": "feat"
}
