{
    "_id": "0qL4a3CarG1e0pfB",
    "data": {
        "actionCategory": {
            "value": ""
        },
        "actionType": {
            "value": "action"
        },
        "actions": {
            "value": 1
        },
        "description": {
            "value": "<p>Your ranged attacks push your foes away from your allies. Make a ranged Strike, adding the following effects in addition to the normal effects of the Strike.</p>\n<hr />\n<p><strong>Critical Success</strong> The target is pushed 10 feet away from you.</p>\n<p><strong>Success</strong> The target is pushed 5 feet away from you.</p>\n<p><strong>Failure</strong> The target is @Compendium[pf2e.conditionitems.Flat-Footed]{Flat-Footed} for 1 round.</p>"
        },
        "featType": {
            "value": "archetype"
        },
        "level": {
            "value": 14
        },
        "prerequisites": {
            "value": [
                {
                    "value": "Swordmaster Dedication"
                }
            ]
        },
        "rules": [],
        "source": {
            "value": "Pathfinder Lost Omens: Pathfinder Society Guide"
        },
        "traits": {
            "custom": "",
            "rarity": "common",
            "value": [
                "archetype",
                "attack",
                "press"
            ]
        }
    },
    "effects": [],
    "flags": {},
    "img": "systems/pf2e/icons/features/feats/feats.webp",
    "name": "Forceful Shot",
    "type": "feat"
}
