{
    "_id": "LhpE0NsfNwYP6MOz",
    "data": {
        "actionCategory": {
            "value": ""
        },
        "actionType": {
            "value": "action"
        },
        "actions": {
            "value": 1
        },
        "description": {
            "value": "<p>You are no rime hag or Jadwiga, but the magic of the north has still left a mark on you. Frigid ice runs through your veins, and you can expel frost from your body to freeze your foes. Attempt an Athletics check against the Fortitude DC of an adjacent foe. If you have master proficiency in Athletics, you can affect up to two adjacent foes, rolling one Athletics check against each foe.</p>\n<hr />\n<p><strong>Critical Success</strong> The target becomes clumsy 2 for 1 round.</p>\n<p><strong>Success</strong> The target becomes clumsy 1 for 1 round.</p>\n<p><strong>Critical Failure</strong> The target is temporarily immune for 1 minute.</p>"
        },
        "featType": {
            "value": "ancestry"
        },
        "level": {
            "value": 9
        },
        "prerequisites": {
            "value": [
                {
                    "value": "snow goblin heritage"
                }
            ]
        },
        "rules": [],
        "source": {
            "value": "Pathfinder Lost Omens: Character Guide"
        },
        "traits": {
            "custom": "",
            "rarity": "common",
            "value": [
                "goblin"
            ]
        }
    },
    "effects": [],
    "flags": {},
    "img": "systems/pf2e/icons/features/feats/feats.webp",
    "name": "Freeze It!",
    "type": "feat"
}
