{
    "_id": "t6GBBIwX7hvvxYyV",
    "data": {
        "actionCategory": {
            "value": ""
        },
        "actionType": {
            "value": "passive"
        },
        "actions": {
            "value": null
        },
        "description": {
            "value": "<p>Through your heritage, you can replicate some of a hag's magic. Choose one common spell of 4th level or lower from those available to a coven, including the spells contributed to a coven by a hag of your mother's type. You can cast this spell once per day as a 4th-level occult innate spell.</p>\n<p>Spells available to all covens are <em>@Compendium[pf2e.spells-srd.Augury]{Augury}</em>, <em>@Compendium[pf2e.spells-srd.Charm]{Charm}</em>, <em>@Compendium[pf2e.spells-srd.Clairaudience]{Clairaudience}</em>, <em>@Compendium[pf2e.spells-srd.Clairvoyance]{Clairvoyance}</em>, <em>@Compendium[pf2e.spells-srd.Dream Message]{Dream Message}</em>, and <em>@Compendium[pf2e.spells-srd.Illusory Disguise]{Illusory Disguise}</em>.</p>\n<p>The eligible spells granted by the most prominent types of hag are:</p>\n<ul>\n<li><strong>Sea Hag</strong> <em>@Compendium[pf2e.spells-srd.Acid Arrow]{Acid Arrow}</em>, <em>@Compendium[pf2e.spells-srd.Water Walk]{Water Walk}</em></li>\n<li><strong>Green Hag</strong> <em>@Compendium[pf2e.spells-srd.Entangle]{Entangle}</em>, <em>@Compendium[pf2e.spells-srd.Outcast's Curse]{Outcast's Curse}</em>, <em>@Compendium[pf2e.spells-srd.Wall of Thorns]{Wall of Thorns}</em></li>\n<li><strong>Annis Hag</strong> <em>@Compendium[pf2e.spells-srd.Earthbind]{Earthbind}</em></li>\n<li><strong>Night Hag</strong> <em>@Compendium[pf2e.spells-srd.Nightmare]{Nightmare}</em></li>\n</ul>"
        },
        "featType": {
            "value": "ancestry"
        },
        "level": {
            "value": 13
        },
        "prerequisites": {
            "value": []
        },
        "rules": [],
        "source": {
            "value": "Pathfinder Advanced Player's Guide"
        },
        "traits": {
            "custom": "",
            "rarity": "common",
            "value": [
                "changeling"
            ]
        }
    },
    "effects": [],
    "flags": {},
    "img": "systems/pf2e/icons/features/feats/feats.webp",
    "name": "Hag Magic",
    "type": "feat"
}
