{
    "_id": "2ebcYbg68pCZfAFQ",
    "data": {
        "actionCategory": {
            "value": ""
        },
        "actionType": {
            "value": "passive"
        },
        "actions": {
            "value": null
        },
        "description": {
            "value": "<p>You favor traditional halfling weapons, so you've learned how to use them more effectively. You have the trained proficiency with the @Compendium[pf2e.equipment-srd.Sling]{Sling}, @Compendium[pf2e.equipment-srd.Halfling Sling Staff]{Halfling Sling Staff}, and @Compendium[pf2e.equipment-srd.Shortsword]{Shortsword}.</p>\n<p>You gain access to all uncommon halfling weapons. For the purpose of determining your proficiency, martial halfling weapons are simple weapons and advanced halfling weapons are martial weapons.</p>"
        },
        "featType": {
            "value": "ancestry"
        },
        "level": {
            "value": 1
        },
        "location": "",
        "prerequisites": {
            "value": []
        },
        "rules": [
            {
                "key": "ActiveEffectLike",
                "mode": "upgrade",
                "path": "data.martial.weapon-base-sling.rank",
                "value": 1
            },
            {
                "key": "ActiveEffectLike",
                "mode": "upgrade",
                "path": "data.martial.weapon-base-halfling-sling-staff.rank",
                "value": 1
            },
            {
                "key": "ActiveEffectLike",
                "mode": "upgrade",
                "path": "data.martial.weapon-base-shortsword.rank",
                "value": 1
            },
            {
                "definition": {
                    "all": [
                        "weapon:trait:halfling",
                        "weapon:category:advanced"
                    ]
                },
                "key": "MartialProficiency",
                "label": "PF2E.SpecificRule.MartialProficiency.AdvancedHalflingWeapons",
                "sameAs": "martial",
                "slug": "advanced-halfling-weapons"
            },
            {
                "definition": {
                    "all": [
                        "weapon:trait:halfling",
                        "weapon:category:martial"
                    ]
                },
                "key": "MartialProficiency",
                "label": "PF2E.SpecificRule.MartialProficiency.MartialHalflingWeapons",
                "sameAs": "simple",
                "slug": "martial-halfling-weapons"
            }
        ],
        "source": {
            "value": "Pathfinder Core Rulebook"
        },
        "traits": {
            "custom": "",
            "rarity": "common",
            "value": [
                "halfling"
            ]
        }
    },
    "effects": [],
    "flags": {},
    "img": "systems/pf2e/icons/features/feats/feats.webp",
    "name": "Halfling Weapon Familiarity",
    "type": "feat"
}
