{
    "_id": "JlkkYedPyWLShuka",
    "data": {
        "actionCategory": {
            "value": ""
        },
        "actionType": {
            "value": "passive"
        },
        "actions": {
            "value": null
        },
        "description": {
            "value": "<p>Your tails show your magical mastery. During your daily preparations, choose <em>@Compendium[pf2e.spells-srd.Confusion]{Confusion}</em>, <em>@Compendium[pf2e.spells-srd.Death Ward]{Death Ward}</em>, or <em>@Compendium[pf2e.spells-srd.Illusory Scene]{Illusory Scene}</em>. You can Cast this Spell as a 5th-level divine innate spell once that day. You become an expert in divine spell DCs and divine spell attack rolls.</p>"
        },
        "featType": {
            "value": "ancestry"
        },
        "level": {
            "value": 13
        },
        "location": "",
        "prerequisites": {
            "value": [
                {
                    "value": "Kitsune Spell Mysteries"
                }
            ]
        },
        "rules": [],
        "source": {
            "value": "Pathfinder Lost Omens: Ancestry Guide"
        },
        "traits": {
            "custom": "",
            "rarity": "common",
            "value": [
                "kitsune"
            ]
        }
    },
    "effects": [],
    "flags": {},
    "img": "systems/pf2e/icons/features/feats/feats.webp",
    "name": "Kitsune Spell Expertise",
    "type": "feat"
}
