{
    "_id": "R7EaZPYtsy5H8lwn",
    "data": {
        "actionCategory": {
            "value": ""
        },
        "actionType": {
            "value": "passive"
        },
        "actions": {
            "value": null
        },
        "description": {
            "value": "<p><strong>Requirements</strong> Your eidolon hit the same enemy with two consecutive Strikes with its secondary attack this turn and dealt slashing damage with both.</p>\n<p>Your eidolon rends its foes. It automatically deals the damage from its secondary attack to the enemy.</p>"
        },
        "featType": {
            "value": "class"
        },
        "level": {
            "value": 10
        },
        "location": "",
        "prerequisites": {
            "value": []
        },
        "rules": [],
        "source": {
            "value": ""
        },
        "traits": {
            "custom": "",
            "rarity": "common",
            "value": []
        }
    },
    "effects": [],
    "flags": {},
    "img": "systems/pf2e/icons/features/feats/feats.webp",
    "name": "Merciless Rend",
    "type": "feat"
}
