{
    "_id": "CAk1NNG4aO0VuHnZ",
    "data": {
        "actionCategory": {
            "value": ""
        },
        "actionType": {
            "value": "passive"
        },
        "actions": {
            "value": null
        },
        "description": {
            "value": "<p>You're constantly studying small aspects of everyone's movements, even if you don't have a stratagem in place ahead of time.</p>\n<p>On any Strike for which you didn't @Compendium[pf2e.actionspf2e.Devise a Stratagem]{Devise a Strategem}, you still deal precision damage equal to your number of strategic strike damage dice so long as the weapon or unarmed attack you used is one that would have let you use your Intelligence modifier had you Devised a Stratagem.</p>"
        },
        "featType": {
            "value": "class"
        },
        "level": {
            "value": 10
        },
        "location": "",
        "prerequisites": {
            "value": [
                {
                    "value": "strategic strike"
                }
            ]
        },
        "rules": [
            {
                "damageType": "precision",
                "key": "FlatModifier",
                "predicate": {
                    "any": [
                        "agile",
                        "finesse",
                        "ranged",
                        "takedown-expert"
                    ],
                    "not": [
                        "devise-a-stratagem"
                    ]
                },
                "selector": "strike-damage",
                "value": {
                    "brackets": [
                        {
                            "end": 4,
                            "value": 1
                        },
                        {
                            "end": 8,
                            "start": 5,
                            "value": 2
                        },
                        {
                            "end": 12,
                            "start": 9,
                            "value": 3
                        },
                        {
                            "end": 16,
                            "start": 13,
                            "value": 4
                        },
                        {
                            "start": 17,
                            "value": 5
                        }
                    ]
                }
            }
        ],
        "source": {
            "value": "Pathfinder Advanced Player's Guide"
        },
        "traits": {
            "custom": "",
            "rarity": "common",
            "value": [
                "investigator"
            ]
        }
    },
    "effects": [],
    "flags": {},
    "img": "systems/pf2e/icons/features/feats/feats.webp",
    "name": "Ongoing Strategy",
    "type": "feat"
}
