{
    "_id": "BVHDkBa4JMmmj5Sn",
    "data": {
        "actionCategory": {
            "value": ""
        },
        "actionType": {
            "value": "reaction"
        },
        "actions": {
            "value": null
        },
        "description": {
            "value": "<p><strong>Requirements</strong> Your prey is within your reach, you have at</p>\n<p>least one free hand, and your target is no more than one</p>\n<p>size larger than you.</p>\n<p><strong>Trigger</strong> Your prey critically fails on a melee @Compendium[pf2e.actionspf2e.Strike]{Strike's} attack roll against you.</p>\n<hr />\n<p>You attempt an Athletics check to @Compendium[pf2e.actionspf2e.Grapple]{Grapple} your prey.</p>"
        },
        "featType": {
            "value": "archetype"
        },
        "level": {
            "value": 8
        },
        "prerequisites": {
            "value": []
        },
        "rules": [],
        "source": {
            "value": "Pathfinder Advanced Player's Guide"
        },
        "traits": {
            "custom": "",
            "rarity": "common",
            "value": [
                "archetype"
            ]
        }
    },
    "effects": [],
    "flags": {},
    "img": "systems/pf2e/icons/features/feats/feats.webp",
    "name": "Opportunistic Grapple",
    "type": "feat"
}
