{
    "_id": "95PmHIS041KiYIks",
    "data": {
        "actionCategory": {
            "value": "interaction"
        },
        "actionType": {
            "value": "reaction"
        },
        "actions": {
            "value": null
        },
        "description": {
            "value": "<p><strong>Trigger</strong> An ally within 30 feet gains the frightened condition.</p>\n<hr />\n<p>You serve as an anchor to your close companions, calming them in times of stress. Decrease the value of the triggering ally's @Compendium[pf2e.conditionitems.Frightened]{Frightened} condition by 1. The ally is then temporarily immune to your Reassuring Presence for 1 hour.</p>"
        },
        "featType": {
            "value": "ancestry"
        },
        "level": {
            "value": 1
        },
        "location": "",
        "prerequisites": {
            "value": []
        },
        "rules": [],
        "source": {
            "value": "Pathfinder Lost Omens: The Mwangi Expanse"
        },
        "traits": {
            "custom": "",
            "rarity": "common",
            "value": [
                "anadi",
                "auditory",
                "visual"
            ]
        }
    },
    "effects": [],
    "flags": {},
    "img": "systems/pf2e/icons/default-icons/feats.webp",
    "name": "Reassuring Presence",
    "type": "feat"
}
