{
    "_id": "irDFSzKCaF4ux3bx",
    "data": {
        "actionCategory": {
            "value": ""
        },
        "actionType": {
            "value": "passive"
        },
        "actions": {
            "value": null
        },
        "description": {
            "value": "<p><strong>Requirements</strong> The item or thrown weapon is of a Bulk you can Juggle. If the trigger was a thrown weapon attack targeting you, you can't be flat-footed to the attack. If you were already Juggling, you can't be Juggling your maximum number of items.</p>\n<p><strong>Trigger</strong> An item falls within your reach or an attacker fails an attack roll to hit you or a creature within your reach with a thrown weapon.</p>\n<hr />\n<p>You grab the triggering item. If you are Juggling, you can immediately add the item to the objects you're Juggling as a free action, which has the concentrate and manipulate traits.</p>"
        },
        "featType": {
            "value": "archetype"
        },
        "level": {
            "value": 4
        },
        "prerequisites": {
            "value": [
                {
                    "value": "expert in Acrobatics"
                },
                {
                    "value": "Juggler Dedication"
                }
            ]
        },
        "rules": [],
        "source": {
            "value": "Pathfinder #151: The Show Must Go On"
        },
        "traits": {
            "custom": "",
            "rarity": "uncommon",
            "value": [
                "archetype",
                "concentrate",
                "manipulate"
            ]
        }
    },
    "effects": [],
    "flags": {},
    "img": "systems/pf2e/icons/features/feats/feats.webp",
    "name": "Reflexive Catch",
    "type": "feat"
}
