{
    "_id": "U9SrWgLJ8JoAKIy0",
    "data": {
        "actionCategory": {
            "value": "offensive"
        },
        "actionType": {
            "value": "action"
        },
        "actions": {
            "value": 1
        },
        "description": {
            "value": "<p>You enhance your spell with elemental earth, causing chunks of stone to litter the ground.</p>\n<p>If the next action you use is to Cast a non-cantrip Spell that affects an area, a number of 5-foot squares in the area equal to the spell level become difficult terrain for 1 round. These squares must be on the ground, and the entire area of difficult terrain must be contiguous.</p>\n<p>The spell gains the earth trait.</p>"
        },
        "featType": {
            "value": "archetype"
        },
        "level": {
            "value": 10
        },
        "location": "",
        "prerequisites": {
            "value": [
                {
                    "value": "Elementalist Dedication"
                }
            ]
        },
        "rules": [],
        "source": {
            "value": ""
        },
        "traits": {
            "custom": "",
            "rarity": "common",
            "value": [
                "archetype",
                "earth",
                "metamagic"
            ]
        }
    },
    "effects": [],
    "flags": {},
    "img": "systems/pf2e/icons/features/feats/feats.webp",
    "name": "Rockslide Spell",
    "type": "feat"
}
