{
    "_id": "meQJfsKVar9tm6c9",
    "data": {
        "actionCategory": {
            "value": "interaction"
        },
        "actionType": {
            "value": "action"
        },
        "actions": {
            "value": 1
        },
        "description": {
            "value": "<p>You can reload your weapon on the move. You Stride, @Compendium[pf2e.actionspf2e.Step]{Step}, or @Compendium[pf2e.actionspf2e.Sneak]{Sneak}, then @Compendium[pf2e.actionspf2e.Interact]{Interact}to reload.</p>"
        },
        "featType": {
            "value": "class"
        },
        "level": {
            "value": 4
        },
        "location": "",
        "prerequisites": {
            "value": []
        },
        "rules": [],
        "source": {
            "value": ""
        },
        "traits": {
            "custom": "",
            "rarity": "common",
            "value": [
                "gunslinger",
                "ranger"
            ]
        }
    },
    "effects": [],
    "flags": {},
    "img": "systems/pf2e/icons/default-icons/feats.webp",
    "name": "Running Reload",
    "type": "feat"
}
