{
    "_id": "gxzTEt37M0z1WY1M",
    "data": {
        "actionCategory": {
            "value": "offensive"
        },
        "actionType": {
            "value": "action"
        },
        "actions": {
            "value": 1
        },
        "description": {
            "value": "<p><strong>Requirements</strong> You have a creature @Compendium[pf2e.conditionitems.Grabbed]{Grabbed} or @Compendium[pf2e.conditionitems.Restrained]{Restrained}.</p>\n<hr />\n<p>You squeeze your opponent in a vicious bear hug, putting intense pressure on their nerves, joints, or other pain points. Attempt an Athletics check to Grapple the creature you have grabbed or restrained, with the following effects instead of the usual effects.</p>\n<hr />\n<p><strong>Critical Success</strong> The target is @Compendium[pf2e.conditionitems.Clumsy]{Clumsy 2} until the end of its next turn and @Compendium[pf2e.conditionitems.Clumsy]{Clumsy 1} for 1 minute.</p>\n<p><strong>Success</strong> The target is clumsy 1 until the end of its next turn.</p>"
        },
        "featType": {
            "value": "archetype"
        },
        "level": {
            "value": 10
        },
        "location": "",
        "prerequisites": {
            "value": [
                {
                    "value": "Wrestler Dedication"
                }
            ]
        },
        "rules": [],
        "source": {
            "value": ""
        },
        "traits": {
            "custom": "",
            "rarity": "common",
            "value": [
                "archetype"
            ]
        }
    },
    "effects": [],
    "flags": {},
    "img": "systems/pf2e/icons/default-icons/feats.webp",
    "name": "Spinebreaker",
    "type": "feat"
}
