{
    "_id": "TRC4DgVq07cZO65B",
    "data": {
        "actionCategory": {
            "value": ""
        },
        "actionType": {
            "value": "passive"
        },
        "actions": {
            "value": null
        },
        "description": {
            "value": "<p>When your seedpods strike a felling blow, they burst into viciously thorny vines. When you critically succeed at a seedpod Strike, vines twist and stab your foe, dealing [[/r {1d4}[persistent,piercing]]] @Compendium[pf2e.conditionitems.Persistent Damage]{Persistent Piercing Damage}.</p>"
        },
        "featType": {
            "value": "ancestry"
        },
        "level": {
            "value": 9
        },
        "location": "",
        "prerequisites": {
            "value": [
                {
                    "value": "Seedpod"
                }
            ]
        },
        "rules": [],
        "source": {
            "value": "Pathfinder Lost Omens: Ancestry Guide"
        },
        "traits": {
            "custom": "",
            "rarity": "common",
            "value": [
                "leshy"
            ]
        }
    },
    "effects": [],
    "flags": {},
    "img": "systems/pf2e/icons/features/feats/feats.webp",
    "name": "Thorned Seedpod",
    "type": "feat"
}
