{
    "_id": "6Hv4kpHj8IexNUey",
    "data": {
        "actionCategory": {
            "value": ""
        },
        "actionType": {
            "value": "passive"
        },
        "actions": {
            "value": null
        },
        "description": {
            "value": "<p>You can use the Aid reaction to help a member of your crop even if you haven't prepared to do so.a</p>"
        },
        "featType": {
            "value": "archetype"
        },
        "level": {
            "value": 10
        },
        "prerequisites": {
            "value": [
                {
                    "value": "Bellflower Dedication"
                }
            ]
        },
        "rules": [],
        "source": {
            "value": "Pathfinder #147: Tomorrow Must Burn"
        },
        "traits": {
            "custom": "",
            "rarity": "common",
            "value": [
                "archetype"
            ]
        }
    },
    "effects": [],
    "flags": {},
    "img": "systems/pf2e/icons/features/feats/feats.webp",
    "name": "Tiller's Aid",
    "type": "feat"
}
