{
    "_id": "UOL44Qm1rOVD5TFg",
    "data": {
        "actionCategory": {
            "value": ""
        },
        "actionType": {
            "value": "passive"
        },
        "actions": {
            "value": null
        },
        "description": {
            "value": "<p>You can cast <em>@Compendium[pf2e.spells-srd.Volcanic Eruption]{Volcanic Eruption}</em> as a 7th-level primal innate spell once per day, except that you can only evoke the volcano on the floor of a body of water, and the effects that normally happen to flying creatures happen to swimming creatures instead.</p>"
        },
        "featType": {
            "value": "ancestry"
        },
        "level": {
            "value": 17
        },
        "location": "",
        "prerequisites": {
            "value": []
        },
        "rules": [],
        "source": {
            "value": "Pathfinder Lost Omens: Ancestry Guide"
        },
        "traits": {
            "custom": "",
            "rarity": "common",
            "value": [
                "azarketi"
            ]
        }
    },
    "effects": [],
    "flags": {},
    "img": "systems/pf2e/icons/default-icons/feats.webp",
    "name": "Underwater Volcano",
    "type": "feat"
}
