{
    "_id": "YeVDITJplindA27l",
    "data": {
        "actionCategory": {
            "value": ""
        },
        "actionType": {
            "value": "reaction"
        },
        "actions": {
            "value": null
        },
        "description": {
            "value": "<p><strong>Trigger</strong> You bring a foe to 0 Hit Points</p>\n<hr />\n<p>Your victories in battle fill you with pride and imbue you with the energy to fight a bit longer despite your wounds. You gain temporary Hit Points equal to your Constitution modifier until the end of your next turn.</p>"
        },
        "featType": {
            "value": "ancestry"
        },
        "level": {
            "value": 5
        },
        "prerequisites": {
            "value": []
        },
        "rules": [],
        "source": {
            "value": "Pathfinder Core Rulebook"
        },
        "traits": {
            "custom": "",
            "rarity": "common",
            "value": [
                "orc"
            ]
        }
    },
    "effects": [],
    "flags": {},
    "img": "systems/pf2e/icons/features/feats/feats.webp",
    "name": "Victorious Vigor",
    "type": "feat"
}
