{
    "_id": "rS8uNb0C5GBHnKHH",
    "data": {
        "actionCategory": {
            "value": ""
        },
        "actionType": {
            "value": "passive"
        },
        "actions": {
            "value": null
        },
        "description": {
            "value": "<p>You are even more skilled in the weapons of your people. You gain the critical specialization effects of the @Compendium[pf2e.equipment-srd.Battle Axe]{Battle Axe}, @Compendium[pf2e.equipment-srd.Hatchet]{Hatchet}, @Compendium[pf2e.equipment-srd.Longsword]{Longsword}, and @Compendium[pf2e.equipment-srd.Shortsword]{Shortsword}.</p>\n<p>Whenever you gain a class feature that grants you expert or greater proficiency in certain weapons, you also gain that proficiency rank in the above four weapons.</p>"
        },
        "featType": {
            "value": "archetype"
        },
        "level": {
            "value": 6
        },
        "prerequisites": {
            "value": [
                {
                    "value": "Viking Weapon Familiarity"
                }
            ]
        },
        "rules": [],
        "source": {
            "value": "Pathfinder Advanced Player's Guide"
        },
        "traits": {
            "custom": "",
            "rarity": "common",
            "value": [
                "archetype"
            ]
        }
    },
    "effects": [],
    "flags": {},
    "img": "systems/pf2e/icons/features/feats/feats.webp",
    "name": "Viking Weapon Specialist",
    "type": "feat"
}
