{
    "_id": "PqImBJ2JrPo5oFxc",
    "data": {
        "actionCategory": {
            "value": ""
        },
        "actionType": {
            "value": "passive"
        },
        "actions": {
            "value": null
        },
        "description": {
            "value": "<p>You combine unholy might with negative energy to damage angels, archons, and other self-righteous denizens of the Outer Planes. When you cast a <em>@Compendium[pf2e.spells-srd.Harm]{Harm}</em> spell, you can change the damage you deal to celestial creatures to evil damage instead of negative damage.</p>"
        },
        "featType": {
            "value": "class"
        },
        "level": {
            "value": 1
        },
        "prerequisites": {
            "value": [
                {
                    "value": "evil alignment"
                }
            ]
        },
        "rules": [],
        "source": {
            "value": "Pathfinder Advanced Player's Guide"
        },
        "traits": {
            "custom": "",
            "rarity": "common",
            "value": [
                "cleric"
            ]
        }
    },
    "effects": [],
    "flags": {},
    "img": "systems/pf2e/icons/features/feats/feats.webp",
    "name": "Vile Desecration",
    "type": "feat"
}
