{
    "_id": "WWtSEJGwKY4bQpUn",
    "data": {
        "badge": null,
        "description": {
            "value": "<p>Granted by <em>@Compendium[pf2e.spells-srd.Vital Beacon]{Vital Beacon}</em><br />Vitality radiates outward from you, allowing others to supplicate and receive healing. Once per round, either you or an ally can use an Interact action to supplicate and lay hands upon you to regain Hit Points. Each time the beacon heals someone, it decreases in strength. It restores 4d10 Hit Points to the first creature, 4d8 Hit Points to the second, 4d6 Hit Points to the third, and 4d4 Hit Points to the fourth, after which the spell ends. You can have only one vital beacon active at a time.<br />[[/r (@item.level)d10[healing]]]{First Activation (d10)}<br />[[/r (@item.level)d8[healing]]]{Second Activation (d8)}<br />[[/r (@item.level)d6[healing]]]{Third Activation (d6)}<br />[[/r (@item.level)d4[healing]]]{Fourth Activation (d4)}</p>"
        },
        "duration": {
            "expiry": "turn-start",
            "sustained": false,
            "unit": "days",
            "value": 1
        },
        "level": {
            "value": 4
        },
        "rules": [],
        "source": {
            "value": "Pathfinder Core Rulebook"
        },
        "start": {
            "initiative": null,
            "value": 0
        },
        "target": null,
        "tokenIcon": {
            "show": true
        },
        "traits": {
            "custom": "",
            "rarity": "common",
            "value": []
        }
    },
    "effects": [],
    "flags": {},
    "img": "systems/pf2e/icons/spells/vital-beacon.webp",
    "name": "Spell Effect: Vital Beacon",
    "type": "effect"
}
