{
    "_id": "itmiGioGNuVvt4QE",
    "data": {
        "description": {
            "value": "<p>The target gains a swim Speed equal to its land Speed. If it already had a swim Speed, it gains a +10-foot status bonus to its swim Speed.</p>"
        },
        "duration": {
            "expiry": "turn-start",
            "sustained": false,
            "unit": "hours",
            "value": 1
        },
        "level": {
            "value": 2
        },
        "rules": [
            {
                "key": "FlatModifier",
                "label": "Rapid Adaptation (Aquatic)",
                "selector": "swim-speed",
                "type": "status",
                "value": 10
            }
        ],
        "source": {
            "value": ""
        },
        "start": {
            "initiative": null,
            "value": 0
        },
        "target": null,
        "tokenIcon": {
            "show": true
        },
        "traits": {
            "custom": "",
            "rarity": "common",
            "value": []
        }
    },
    "effects": [],
    "flags": {},
    "img": "systems/pf2e/icons/spells/rapid-adaptation.webp",
    "name": "Spell Effect: Rapid Adaptation (Aquatic Speed Bonus)",
    "type": "effect"
}
