{
    "_id": "14m4s0FeRSqRlHwL",
    "data": {
        "description": {
            "value": "<p>Granted by casting <em>@Compendium[pf2e.spells-srd.Arcane Countermeasure]{Arcane Countermeasure}</em></p>"
        },
        "duration": {
            "expiry": "turn-end",
            "sustained": false,
            "unit": "rounds",
            "value": 0
        },
        "level": {
            "value": 5
        },
        "rules": [
            {
                "key": "FlatModifier",
                "label": "Arcane Countermeasure (vs. target spell)",
                "selector": "saving-throw",
                "type": "status",
                "value": 2
            },
            {
                "key": "FlatModifier",
                "label": "Arcane Countermeasure (vs. target spell)",
                "selector": "skill-check",
                "type": "status",
                "value": 2
            },
            {
                "key": "FlatModifier",
                "label": "Arcane Countermeasure (vs. target spell)",
                "selector": "ac",
                "type": "status",
                "value": 2
            }
        ],
        "source": {
            "value": ""
        },
        "start": {
            "initiative": null,
            "value": 0
        },
        "target": null,
        "tokenIcon": {
            "show": true
        },
        "traits": {
            "custom": "",
            "rarity": "common",
            "value": []
        }
    },
    "effects": [],
    "flags": {},
    "img": "systems/pf2e/icons/spells/arcane-countermeasure.webp",
    "name": "Spell Effect: Arcane Countermeasure",
    "type": "effect"
}
