{
    "_id": "JqrTrvwV7pYStMXz",
    "data": {
        "badge": null,
        "description": {
            "value": "<p>Granted by @Compendium[pf2e.spells-srd.Levitate]{Levitate}.</p>\n<p>You take a -2 circumstance penalty to attack rolls while floating in the air. You can spend an Interact action to stabilize yourself and negate this penalty for the remainder of the turn.</p>"
        },
        "duration": {
            "expiry": "turn-start",
            "sustained": false,
            "unit": "minutes",
            "value": 5
        },
        "level": {
            "value": 3
        },
        "rules": [
            {
                "key": "FlatModifier",
                "predicate": {
                    "not": [
                        "stabilized"
                    ]
                },
                "selector": "attack",
                "type": "circumstance",
                "value": -2
            },
            {
                "key": "ToggleProperty",
                "label": "Stabilized this turn",
                "property": "flags.pf2e.rollOptions.all.stabilized"
            }
        ],
        "source": {
            "value": ""
        },
        "start": {
            "initiative": null,
            "value": 0
        },
        "target": null,
        "tokenIcon": {
            "show": true
        },
        "traits": {
            "custom": "",
            "rarity": "common",
            "value": []
        }
    },
    "effects": [],
    "flags": {},
    "img": "systems/pf2e/icons/spells/levitate.webp",
    "name": "Spell Effect: Levitate",
    "type": "effect"
}
