{
    "_id": "8GQ7dq7s9CetOlkg",
    "data": {
        "abilities": {
            "cha": {
                "mod": 0
            },
            "con": {
                "mod": 4
            },
            "dex": {
                "mod": 4
            },
            "int": {
                "mod": 0
            },
            "str": {
                "mod": 4
            },
            "wis": {
                "mod": 2
            }
        },
        "attributes": {
            "ac": {
                "details": "",
                "value": 25
            },
            "allSaves": {
                "value": ""
            },
            "hp": {
                "details": "",
                "max": 125,
                "temp": 0,
                "value": 125
            },
            "initiative": {
                "ability": "perception"
            },
            "perception": {
                "value": 17
            },
            "speed": {
                "otherSpeeds": [],
                "value": "25"
            }
        },
        "details": {
            "alignment": {
                "value": "N"
            },
            "blurb": "",
            "creatureType": "",
            "level": {
                "value": 7
            },
            "privateNotes": "",
            "publicNotes": "",
            "source": {
                "value": "Pathfinder #159: All or Nothing"
            }
        },
        "resources": {},
        "saves": {
            "fortitude": {
                "saveDetail": "",
                "value": 17
            },
            "reflex": {
                "saveDetail": "",
                "value": 16
            },
            "will": {
                "saveDetail": "",
                "value": 13
            }
        },
        "traits": {
            "attitude": {
                "value": "hostile"
            },
            "ci": [],
            "di": {
                "custom": "",
                "value": []
            },
            "dr": [],
            "dv": [],
            "languages": {
                "custom": "",
                "selected": [],
                "value": [
                    "common"
                ]
            },
            "rarity": "uncommon",
            "senses": {
                "value": ""
            },
            "size": {
                "value": "med"
            },
            "traits": {
                "custom": "",
                "value": [
                    "human",
                    "humanoid"
                ]
            }
        }
    },
    "effects": [],
    "flags": {},
    "img": "systems/pf2e/icons/default-icons/npc.svg",
    "items": [
        {
            "_id": "AhneRV8i356zRma8",
            "data": {
                "MAP": {
                    "value": ""
                },
                "baseItem": "morningstar",
                "bonus": {
                    "value": 0
                },
                "bonusDamage": {
                    "value": 0
                },
                "brokenThreshold": {
                    "value": 0
                },
                "category": "simple",
                "containerId": null,
                "damage": {
                    "damageType": "bludgeoning",
                    "dice": 1,
                    "die": "d6",
                    "value": ""
                },
                "description": {
                    "value": "<p>This weapon has a short shaft ending in a metal ball studded with spikes.</p>"
                },
                "equipped": {
                    "carryType": "worn",
                    "handsHeld": 0,
                    "invested": null
                },
                "equippedBulk": {
                    "value": ""
                },
                "group": "club",
                "hardness": 0,
                "hp": {
                    "brokenThreshold": 0,
                    "max": 0,
                    "value": 0
                },
                "identification": {
                    "misidentified": {},
                    "status": "identified",
                    "unidentified": {
                        "data": {
                            "description": {
                                "value": ""
                            }
                        },
                        "img": "",
                        "name": ""
                    }
                },
                "level": {
                    "value": 2
                },
                "negateBulk": {
                    "value": "0"
                },
                "potencyRune": {
                    "value": 1
                },
                "preciousMaterial": {
                    "value": ""
                },
                "preciousMaterialGrade": {
                    "value": ""
                },
                "price": {
                    "value": "35 gp"
                },
                "property1": {
                    "critDamage": "",
                    "critDamageType": "",
                    "critDice": null,
                    "critDie": "",
                    "criticalConditionType": "",
                    "criticalConditionValue": null,
                    "damageType": "",
                    "dice": null,
                    "die": "",
                    "strikeConditionType": "",
                    "strikeConditionValue": null,
                    "value": ""
                },
                "propertyRune1": {
                    "value": ""
                },
                "propertyRune2": {
                    "value": ""
                },
                "propertyRune3": {
                    "value": ""
                },
                "propertyRune4": {
                    "value": ""
                },
                "quantity": 1,
                "range": null,
                "reload": {
                    "value": ""
                },
                "rules": [],
                "size": "med",
                "slug": "morningstar",
                "source": {
                    "value": ""
                },
                "specific": {
                    "value": false
                },
                "splashDamage": {
                    "value": 0
                },
                "stackGroup": null,
                "strikingRune": {
                    "value": ""
                },
                "traits": {
                    "custom": "",
                    "rarity": "common",
                    "value": [
                        "versatile-p"
                    ]
                },
                "usage": {
                    "value": "held-in-one-hand"
                },
                "weight": {
                    "value": "1"
                }
            },
            "effects": [],
            "flags": {
                "core": {
                    "sourceId": "Compendium.pf2e.equipment-srd.5fu6dCtqhdBnHNqh"
                }
            },
            "img": "systems/pf2e/icons/equipment/weapons/morningstar.webp",
            "name": "+1 Morningstar",
            "sort": 100000,
            "type": "weapon"
        },
        {
            "_id": "s7QApXyE5DjGF9aY",
            "data": {
                "attack": {
                    "value": ""
                },
                "attackEffects": {
                    "custom": "",
                    "value": []
                },
                "bonus": {
                    "value": 18
                },
                "damageRolls": {
                    "0": {
                        "damage": "1d6+8",
                        "damageType": "bludgeoning"
                    }
                },
                "description": {
                    "value": ""
                },
                "rules": [],
                "slug": null,
                "source": {
                    "value": ""
                },
                "traits": {
                    "custom": "",
                    "rarity": "common",
                    "value": [
                        "magical",
                        "versatile-p"
                    ]
                },
                "weaponType": {
                    "value": "melee"
                }
            },
            "effects": [],
            "flags": {},
            "img": "systems/pf2e/icons/default-icons/melee.svg",
            "name": "Morningstar",
            "sort": 200000,
            "type": "melee"
        },
        {
            "_id": "ZbNsjTdTl9JRvGxk",
            "data": {
                "actionCategory": {
                    "value": "offensive"
                },
                "actionType": {
                    "value": "passive"
                },
                "actions": {
                    "value": null
                },
                "description": {
                    "value": "<p>Whenever the gang tough makes a successful melee Strike against a frightened creature, the Strike deals an extra weapon die of damage.</p>"
                },
                "requirements": {
                    "value": ""
                },
                "rules": [
                    {
                        "diceNumber": 1,
                        "key": "DamageDice",
                        "predicate": {
                            "any": [
                                "bullyrag-beatdown",
                                "target:frightened"
                            ],
                            "not": [
                                "ranged"
                            ]
                        },
                        "selector": "strike-damage"
                    },
                    {
                        "key": "ToggleProperty",
                        "label": "Target is frightened",
                        "property": "flags.pf2e.rollOptions.all.bullyrag-beatdown"
                    }
                ],
                "slug": null,
                "source": {
                    "value": ""
                },
                "traits": {
                    "custom": "",
                    "rarity": "common",
                    "value": []
                },
                "trigger": {
                    "value": ""
                },
                "weapon": {
                    "value": ""
                }
            },
            "effects": [],
            "flags": {},
            "img": "systems/pf2e/icons/actions/Passive.webp",
            "name": "Bullyrag Beatdown",
            "sort": 300000,
            "type": "action"
        },
        {
            "_id": "aZvRC9a03MwZf7rr",
            "data": {
                "actionCategory": {
                    "value": "offensive"
                },
                "actionType": {
                    "value": "passive"
                },
                "actions": {
                    "value": null
                },
                "description": {
                    "value": "<p>When the gang tough's Strike with a bludgeoning weapon is a critical hit and deals damage, the target becomes @Compendium[pf2e.conditionitems.Frightened]{Frightened 1}.</p>"
                },
                "requirements": {
                    "value": ""
                },
                "rules": [
                    {
                        "key": "Note",
                        "outcome": [
                            "criticalSuccess"
                        ],
                        "selector": "strike-damage",
                        "text": "<p class='compact-text'><strong>{item|name}</strong> When the gang tough's Strike with a bludgeoning weapon is a critical hit and deals damage, the target becomes @Compendium[pf2e.conditionitems.Frightened]{Frightened 1}."
                    }
                ],
                "slug": null,
                "source": {
                    "value": ""
                },
                "traits": {
                    "custom": "",
                    "rarity": "common",
                    "value": []
                },
                "trigger": {
                    "value": ""
                },
                "weapon": {
                    "value": ""
                }
            },
            "effects": [],
            "flags": {},
            "img": "systems/pf2e/icons/actions/Passive.webp",
            "name": "Frightening Critical",
            "sort": 400000,
            "type": "action"
        },
        {
            "_id": "RWjUZA7QUMW9y4CS",
            "data": {
                "description": {
                    "value": ""
                },
                "mod": {
                    "value": 17
                },
                "proficient": {
                    "value": 0
                },
                "rules": [],
                "slug": null,
                "source": {
                    "value": ""
                },
                "traits": {
                    "custom": "",
                    "rarity": "common",
                    "value": []
                }
            },
            "effects": [],
            "flags": {},
            "img": "systems/pf2e/icons/default-icons/lore.svg",
            "name": "Athletics",
            "sort": 500000,
            "type": "lore"
        },
        {
            "_id": "eapXoUtrhnFlcZ2a",
            "data": {
                "description": {
                    "value": ""
                },
                "mod": {
                    "value": 13
                },
                "proficient": {
                    "value": 0
                },
                "rules": [],
                "slug": null,
                "source": {
                    "value": ""
                },
                "traits": {
                    "custom": "",
                    "rarity": "common",
                    "value": []
                }
            },
            "effects": [],
            "flags": {},
            "img": "systems/pf2e/icons/default-icons/lore.svg",
            "name": "Gang Lore",
            "sort": 600000,
            "type": "lore"
        },
        {
            "_id": "8wxz06eYxGgQ9RSz",
            "data": {
                "description": {
                    "value": ""
                },
                "mod": {
                    "value": 13
                },
                "proficient": {
                    "value": 0
                },
                "rules": [],
                "slug": null,
                "source": {
                    "value": ""
                },
                "traits": {
                    "custom": "",
                    "rarity": "common",
                    "value": []
                }
            },
            "effects": [],
            "flags": {},
            "img": "systems/pf2e/icons/default-icons/lore.svg",
            "name": "Intimidation",
            "sort": 700000,
            "type": "lore"
        }
    ],
    "name": "Gang Tough",
    "token": {
        "disposition": -1,
        "height": 1,
        "img": "systems/pf2e/icons/default-icons/npc.svg",
        "name": "Gang Tough",
        "width": 1
    },
    "type": "npc"
}
