{
    "_id": "JJcaVijwRt9dsnac",
    "data": {
        "actionCategory": {
            "value": ""
        },
        "actionType": {
            "value": "passive"
        },
        "actions": {
            "value": null
        },
        "description": {
            "value": "<p>You learn an incredible discovery that advances your understanding of your field.</p>\n<p>When you use @Compendium[pf2e.classfeatures.Quick Alchemy]{Quick Alchemy} to create any type of elixir of life, the creature drinking the elixir gains the maximum Hit Points possible for that elixir, instead of rolling to determine the number of Hit Points regained.</p>"
        },
        "featType": {
            "value": "classfeature"
        },
        "level": {
            "value": 13
        },
        "location": "",
        "prerequisites": {
            "value": []
        },
        "rules": [],
        "source": {
            "value": "Pathfinder Core Rulebook"
        },
        "traits": {
            "custom": "",
            "rarity": "common",
            "value": [
                "alchemist"
            ]
        }
    },
    "effects": [],
    "flags": {},
    "img": "systems/pf2e/icons/features/classes/greater-field-discovery-chirurgeon.webp",
    "name": "Greater Field Discovery (Chirurgeon)",
    "type": "feat"
}
