{
    "_id": "lVdfcITy5bkywW5f",
    "data": {
        "actionCategory": {
            "value": ""
        },
        "actionType": {
            "value": "passive"
        },
        "actions": {
            "value": null
        },
        "description": {
            "value": "<p><strong>Favored Weapons</strong> @Compendium[pf2e.equipment-srd.Longsword]{Longsword}, @Compendium[pf2e.equipment-srd.Whip]{Whip}</p>\n<p>Members of the Order of the Rack seek to eliminate wastefulness throughout the Inner Sea region. They seek to quash pointless dreams, quell rebellions, and destroy dangerous inventions.</p>\n<hr />\n<p><strong>Lesser Benefit</strong> @Compendium[pf2e.feats-srd.Disillusionment]{Disillusionment}</p>\n<p><strong>Greater Benefit</strong> @Compendium[pf2e.feats-srd.Silence Heresy]{Silence Heresy}</p>"
        },
        "featType": {
            "value": "classfeature"
        },
        "level": {
            "value": 0
        },
        "location": "",
        "prerequisites": {
            "value": []
        },
        "rules": [],
        "source": {
            "value": ""
        },
        "traits": {
            "custom": "",
            "rarity": "common",
            "value": []
        }
    },
    "effects": [],
    "flags": {},
    "img": "systems/pf2e/icons/default-icons/feat.svg",
    "name": "Order of the Rack",
    "type": "feat"
}
