{
    "_id": "t01K3DB2qHnbt1q3",
    "data": {
        "actionCategory": {
            "value": ""
        },
        "actionType": {
            "value": "passive"
        },
        "actions": {
            "value": null
        },
        "description": {
            "value": "<p><strong>Favored Weapons</strong> @Compendium[pf2e.equipment-srd.Mace]{Mace}, @Compendium[pf2e.equipment-srd.Scourge]{Scourge}, @Compendium[pf2e.equipment-srd.Whip]{Whip}</p>\n<p>Hellknights of the Order of the Scourge hunt those who pervert the law for their own selfish ends. They seek to destroy corruption and those who hide behind unjust laws and bureaucracy.</p>\n<hr />\n<p><strong>Lesser Benefit</strong> @Compendium[pf2e.feats-srd.Fear No Law, Fear No One]{Fear No Law, Fear No One}</p>\n<p><strong>Greater Benefit</strong> @Compendium[pf2e.feats-srd.Seek Injustice]{Seek Injustice}</p>"
        },
        "featType": {
            "value": "classfeature"
        },
        "level": {
            "value": 0
        },
        "location": "",
        "prerequisites": {
            "value": []
        },
        "rules": [],
        "source": {
            "value": ""
        },
        "traits": {
            "custom": "",
            "rarity": "common",
            "value": []
        }
    },
    "effects": [],
    "flags": {},
    "img": "systems/pf2e/icons/default-icons/feat.svg",
    "name": "Order of the Scourge",
    "type": "feat"
}
