{
    "_id": "pthjQIK9pDxnbER6",
    "data": {
        "actionCategory": {
            "value": ""
        },
        "actionType": {
            "value": "passive"
        },
        "actions": {
            "value": null
        },
        "description": {
            "value": "<p>At 3rd level, 7th level, and 15th level, you gain a skill feat. This feat must be for Acrobatics or the trained skill from your swashbuckler's style</p>"
        },
        "featType": {
            "value": "classfeature"
        },
        "level": {
            "value": 3
        },
        "location": "",
        "prerequisites": {
            "value": []
        },
        "rules": [],
        "source": {
            "value": ""
        },
        "traits": {
            "custom": "",
            "rarity": "common",
            "value": [
                "swashbuckler"
            ]
        }
    },
    "effects": [],
    "flags": {},
    "img": "systems/pf2e/icons/features/classes/stylish-tricks.webp",
    "name": "Stylish Tricks",
    "type": "feat"
}
