{
    "_id": "9aFg4EuOBVz0i3Lb",
    "data": {
        "ability": {
            "value": ""
        },
        "area": {
            "areaType": "",
            "value": ""
        },
        "autoHeightenLevel": {
            "value": null
        },
        "category": {
            "value": "spell"
        },
        "components": {
            "focus": false,
            "material": false,
            "somatic": true,
            "verbal": true
        },
        "cost": {
            "value": ""
        },
        "damage": {
            "value": {}
        },
        "description": {
            "value": "<p>You exhale corrosive gas, and acidic secretions coat your skin as you transform into a being of living acid. You gain acid immunity. Any creature that touches you or damages you with an unarmed melee attack or non-reach melee weapon takes [[/r {3d6}[acid]]]{3d6 acid damage}, and your unarmed attacks deal 1d4 additional acid damage. The first time each round that you deal acid damage to a creature in this way, you gain [[/r 3d6 #Temporary Hit Points]]{3d6 temporary Hit Points} as your body digests the eroded material and transforms it into a protective acid. When the spell ends, any remaining temporary HP expires as well. Your acid spells deal one additional die of acid damage (of the same damage die the spell uses). You can cast acid splash as an innate spell; the splash damage affects all creatures within 15 feet instead of the normal 5 feet.</p>\n<p>@Compendium[pf2e.spell-effects.Spell Effect: Corrosive Body]{Spell Effect: Corrosive Body}</p>\n<hr />\n<p><strong>Heightened (9th)</strong> Creatures touching you take [[/r {4d6}[acid]]]{4d6 acid damage} instead of 3d6, your unarmed attacks deal 2d4 additional acid damage, and you gain [[/r 5d6 #Temporary Hit Points]]{5d6 temporary Hit Points}. @Compendium[pf2e.spell-effects.Spell Effect: Corrosive Body (Heightened 9th)]{Spell Effect: Corrosive Body (Heightened 9th)}</p>"
        },
        "duration": {
            "value": "1 minute"
        },
        "hasCounteractCheck": {
            "value": false
        },
        "level": {
            "value": 7
        },
        "location": {
            "value": ""
        },
        "materials": {
            "value": ""
        },
        "prepared": {
            "value": ""
        },
        "range": {
            "value": ""
        },
        "rules": [],
        "save": {
            "basic": "",
            "value": ""
        },
        "school": {
            "value": "transmutation"
        },
        "source": {
            "value": "Pathfinder Secrets of Magic"
        },
        "spellType": {
            "value": "utility"
        },
        "sustained": {
            "value": false
        },
        "target": {
            "value": ""
        },
        "time": {
            "value": "2"
        },
        "traditions": {
            "custom": "",
            "value": [
                "arcane",
                "primal"
            ]
        },
        "traits": {
            "custom": "",
            "rarity": "common",
            "value": [
                "acid",
                "polymorph"
            ]
        }
    },
    "effects": [],
    "flags": {},
    "img": "systems/pf2e/icons/spells/corrosive-body.webp",
    "name": "Corrosive Body",
    "type": "spell"
}
