{
    "_id": "wjJW9hWY5CkkMvY5",
    "data": {
        "ability": {
            "value": ""
        },
        "area": {
            "areaType": "emanation",
            "value": 15
        },
        "areasize": {
            "value": "15-foot emanation centered on you"
        },
        "category": {
            "value": "focus"
        },
        "components": {
            "material": false,
            "somatic": true,
            "verbal": true
        },
        "cost": {
            "value": ""
        },
        "damage": {
            "value": {
                "0": {
                    "type": {
                        "categories": [],
                        "value": "cold"
                    },
                    "value": "2d6"
                }
            }
        },
        "description": {
            "value": "<p>You supercool the nearby air, forming a cloud of dancing ice crystals in an emanation around you. A creature other than you that enters the area or ends its turn within the area takes 2d6 cold damage. A creature can take this damage only once per turn. The crystals scatter and refract light; if a light effect enters diamond dust's area, any creatures that effect goes on to affect gain a +2 status bonus to AC and saves against it. While the spell persists, you can activate or deactivate this aura by using a single action, which has the concentrate trait. You can Dismiss this spell.</p>\n<hr />\n<p><strong>Heightened (+2)</strong> The damage increases by 1d6.</p>"
        },
        "duration": {
            "value": "1 minute"
        },
        "hasCounteractCheck": {
            "value": false
        },
        "level": {
            "value": 4
        },
        "location": {
            "value": ""
        },
        "materials": {
            "value": ""
        },
        "prepared": {
            "value": ""
        },
        "primarycheck": {
            "value": ""
        },
        "range": {
            "value": ""
        },
        "rules": [
            {
                "key": "ActiveEffectLike",
                "mode": "override",
                "path": "flags.pf2e.rollOptions.all.cold-domain",
                "priority": 10,
                "value": true
            }
        ],
        "save": {
            "basic": "basic",
            "value": "fortitude"
        },
        "scaling": {
            "damage": {
                "0": "1d6"
            },
            "interval": 2
        },
        "school": {
            "value": "evocation"
        },
        "secondarycasters": {
            "value": ""
        },
        "secondarycheck": {
            "value": ""
        },
        "source": {
            "value": "Pathfinder Lost Omens: Gods & Magic"
        },
        "spellType": {
            "value": "save"
        },
        "sustained": {
            "value": false
        },
        "target": {
            "value": ""
        },
        "time": {
            "value": "2"
        },
        "traditions": {
            "custom": "",
            "value": []
        },
        "traits": {
            "custom": "",
            "rarity": "uncommon",
            "value": [
                "cleric",
                "cold"
            ]
        }
    },
    "effects": [],
    "flags": {},
    "img": "systems/pf2e/icons/spells/diamond-dust.webp",
    "name": "Diamond Dust",
    "type": "spell"
}
