{
    "_id": "CLThxp8Qf43IQ3Sb",
    "data": {
        "ability": {
            "value": ""
        },
        "area": {
            "areaType": "",
            "value": ""
        },
        "autoHeightenLevel": {
            "value": null
        },
        "category": {
            "value": "spell"
        },
        "components": {
            "focus": false,
            "material": false,
            "somatic": true,
            "verbal": true
        },
        "cost": {
            "value": ""
        },
        "damage": {
            "value": {}
        },
        "description": {
            "value": "<p>With the lightest touch, you can siphon the poison from an object and save it for your own later use, making an assassin's blade or politician's wine less deadly while you become all the more so. Attempt a counteract check against one poison you're aware of on or in an object you touch. If you successfully counteract the poison, you negate the object's toxicity and transfer the poison into a weapon you are holding, coating the weapon with a simple but powerful poison. On your next successful attack with that weapon before the end of your next turn, you add 1d6 poison damage per level of the poison you counteracted. On a critically failed attack roll, you lose the extracted poison from your weapon as normal.</p>\n<p>@Compendium[pf2e.spell-effects.Spell Effect: Extract Poison]{Spell Effect: Extract Poison}</p>"
        },
        "duration": {
            "value": ""
        },
        "hasCounteractCheck": {
            "value": false
        },
        "level": {
            "value": 2
        },
        "location": {
            "value": ""
        },
        "materials": {
            "value": ""
        },
        "range": {
            "value": "touch"
        },
        "rules": [],
        "save": {
            "basic": "",
            "value": ""
        },
        "school": {
            "value": "abjuration"
        },
        "source": {
            "value": "Pathfinder Secrets of Magic"
        },
        "spellType": {
            "value": "utility"
        },
        "sustained": {
            "value": false
        },
        "target": {
            "value": "1 poison on or in an object"
        },
        "time": {
            "value": "2"
        },
        "traditions": {
            "custom": "",
            "value": [
                "arcane",
                "primal"
            ]
        },
        "traits": {
            "custom": "",
            "rarity": "common",
            "value": []
        }
    },
    "effects": [],
    "flags": {},
    "img": "systems/pf2e/icons/spells/extract-poison.webp",
    "name": "Extract Poison",
    "type": "spell"
}
