{
    "_id": "Qu4IThrk1wpONwjT",
    "data": {
        "ability": {
            "value": ""
        },
        "area": {
            "areaType": "",
            "value": ""
        },
        "autoHeightenLevel": {
            "value": null
        },
        "category": {
            "value": "spell"
        },
        "components": {
            "focus": false,
            "material": false,
            "somatic": true,
            "verbal": true
        },
        "cost": {
            "value": ""
        },
        "damage": {
            "value": {}
        },
        "description": {
            "value": "<p>Channeling the mischievous fey, you transform into a fey battle form, which is Medium unless stated otherwise. When you cast this spell, choose dryad, elananx, naiad, redcap, or unicorn. If you choose unicorn, the battle form is Large and you must have space to expand or the spell is lost. While in this form, you gain the fey trait. Unless you choose elananx or unicorn, you have hands in this battle form and can use manipulate actions. You can Dismiss the spell.</p>\n<p>You gain the following statistics and abilities regardless of the form that you choose:</p>\n<ul>\n<li>AC = 19 + your level. Ignore your armor's check penalty and Speed reduction.</li>\n<li>15 temporary Hit Points and weakness 5 to cold iron.</li>\n<li>Low-light vision.</li>\n<li>One or more unarmed melee attacks specific to the battle form you choose, which are the only attacks you can use. You're trained with them. Your attack modifier is +16, and you use the listed damage. These attacks are Dexterity based. If your attack modifier is higher for the given unarmed attack or weapon, you can use it instead.</li>\n<li>Acrobatics modifiers of +16, unless your own modifier is higher.</li>\n</ul>\n<p>You also gain specific abilities based on the type of fey:</p>\n<ul>\n<li><strong>Dryad</strong> @Compendium[pf2e.spell-effects.Spell Effect: Fey Form (Dryad)]{Spell Effect: Fey Form (Dryad)}\n<ul>\n<li>The temporary HP gained increases to 30;</li>\n<li>Speed 25 feet; weakness 5 to fire;</li>\n<li><strong>Melee</strong> <span class=\"pf2-icon\">1</span> branch, <strong>Damage</strong> 1d12+8 bludgeoning.</li>\n</ul>\n</li>\n<li><strong>Elananx</strong> @Compendium[pf2e.spell-effects.Spell Effect: Fey Form (Elananx)]{Spell Effect: Fey Form (Elananx)}\n<ul>\n<li>Speed 30 feet;</li>\n<li>resistance 5 to fire;</li>\n<li><strong>Melee</strong> <span class=\"pf2-icon\">1</span> jaws, <strong>Damage</strong> 1d6+8 piercing plus 1d6 fire;</li>\n<li><strong>Melee</strong> <span class=\"pf2-icon\">1</span> claw (agile), <strong>Damage</strong> 1d6 slashing.</li>\n</ul>\n</li>\n<li><strong>Naiad</strong> @Compendium[pf2e.spell-effects.Spell Effect: Fey Form (Naiad)]{Spell Effect: Fey Form (Naiad)}\n<ul>\n<li>Speed 25 feet, swim 25 feet;</li>\n<li>resistance 5 to fire;</li>\n<li><strong>Melee</strong> <span class=\"pf2-icon\">1</span> aqueous fist (water),</li>\n<li><strong>Damage</strong> 1d8+8 bludgeoning.</li>\n</ul>\n</li>\n<li><strong>Redcap</strong> @Compendium[pf2e.spell-effects.Spell Effect: Fey Form (Redcap)]{Spell Effect: Fey Form (Redcap)}\n<ul>\n<li>Speed 40 feet;</li>\n<li><strong>Size</strong> Small;</li>\n<li><strong>Melee</strong> <span class=\"pf2-icon\">1</span> scythe (deadly d10, trip), <strong>Damage</strong> 1d10+8 slashing;</li>\n<li><strong>Melee</strong> <span class=\"pf2-icon\">1</span> boot (agile, versatile B), <strong>Damage</strong> 1d6 piercing.</li>\n</ul>\n</li>\n<li><strong>Unicorn</strong> @Compendium[pf2e.spell-effects.Spell Effect: Fey Form (Unicorn)]{Spell Effect: Fey Form (Unicorn)}\n<ul>\n<li>gain the beast trait in addition to fey;</li>\n<li>Speed 40 feet;</li>\n<li>resistance 5 to poison;</li>\n<li><strong>Size</strong> Large;</li>\n<li><strong>Melee</strong> <span class=\"pf2-icon\">1</span> horn, <strong>Damage</strong> 1d10+8 piercing plus 1 good;</li>\n<li><strong>Melee</strong> <span class=\"pf2-icon\">1</span> hoof (agile), <strong>Damage</strong> 1d8 bludgeoning; all Strikes have the effects of a <em>@Compendium[pf2e.equipment-srd.Ghost Touch]{Ghost Touch}</em> property rune.</li>\n</ul>\n</li>\n</ul>"
        },
        "duration": {
            "value": "1 minute"
        },
        "hasCounteractCheck": {
            "value": false
        },
        "level": {
            "value": 4
        },
        "location": {
            "value": ""
        },
        "materials": {
            "value": ""
        },
        "range": {
            "value": ""
        },
        "rules": [],
        "save": {
            "basic": "",
            "value": ""
        },
        "school": {
            "value": "transmutation"
        },
        "source": {
            "value": "Pathfinder Secrets of Magic"
        },
        "spellType": {
            "value": "utility"
        },
        "sustained": {
            "value": false
        },
        "target": {
            "value": ""
        },
        "time": {
            "value": "2"
        },
        "traditions": {
            "custom": "",
            "value": [
                "occult",
                "primal"
            ]
        },
        "traits": {
            "custom": "",
            "rarity": "common",
            "value": [
                "polymorph"
            ]
        }
    },
    "effects": [],
    "flags": {},
    "img": "systems/pf2e/icons/spells/fey-form.webp",
    "name": "Fey Form",
    "type": "spell"
}
