{
    "_id": "LNOwaJAkCfsgTKgV",
    "data": {
        "ability": {
            "value": ""
        },
        "area": {
            "areaType": "",
            "value": ""
        },
        "autoHeightenLevel": {
            "value": null
        },
        "category": {
            "value": "spell"
        },
        "components": {
            "focus": false,
            "material": true,
            "somatic": true,
            "verbal": true
        },
        "cost": {
            "value": ""
        },
        "damage": {
            "value": {}
        },
        "description": {
            "value": "<p>Raising your hand in the air, you call a massive wave onto the battlefield. The wall stays upright in a straight line that is 60 feet long, 10 feet high, and 5 feet thick.</p>\n<p>Any non-magical fires within the wall of water's area that are its size or smaller are put out instantly. It also attempts to counteract any magical fires in its area. Both of these effects happen when the spell is cast and whenever a fire enters the wall's area. If the wall fails to counteract a given fire, it can't counteract that fire for the duration of the spell.</p>\n<p>Bludgeoning or slashing projectiles can't pass through the wall, and piercing projectiles have their range increments halved if they pass through the wall. A creature traversing the wall of water needs to Swim through. The rules of aquatic combat apply to creatures traversing the wall of water, targeting creatures within the wall, or passing through the wall. For instance, a bludgeoning or slashing melee attack targeting a creature in the wall would take a -2 circumstance penalty.</p>"
        },
        "duration": {
            "value": "1 minute"
        },
        "hasCounteractCheck": {
            "value": true
        },
        "level": {
            "value": 3
        },
        "location": {
            "value": ""
        },
        "materials": {
            "value": ""
        },
        "range": {
            "value": "120 feet"
        },
        "rules": [],
        "save": {
            "basic": "",
            "value": ""
        },
        "school": {
            "value": "conjuration"
        },
        "source": {
            "value": "Pathfinder Secrets of Magic"
        },
        "spellType": {
            "value": "utility"
        },
        "sustained": {
            "value": false
        },
        "target": {
            "value": ""
        },
        "time": {
            "value": "2"
        },
        "traditions": {
            "custom": "",
            "value": [
                "arcane",
                "primal"
            ]
        },
        "traits": {
            "custom": "",
            "rarity": "common",
            "value": [
                "water"
            ]
        }
    },
    "effects": [],
    "flags": {},
    "img": "systems/pf2e/icons/spells/wall-of-water.webp",
    "name": "Wall of Water",
    "type": "spell"
}
