{
    "_id": "HWrNMQENi9WSGbnF",
    "data": {
        "ability": {
            "value": ""
        },
        "area": {
            "areaType": "",
            "value": ""
        },
        "autoHeightenLevel": {
            "value": null
        },
        "category": {
            "value": "spell"
        },
        "components": {
            "focus": false,
            "material": true,
            "somatic": true,
            "verbal": true
        },
        "cost": {
            "value": ""
        },
        "damage": {
            "value": {
                "h5zzrh1xmy9k57m6": {
                    "applyMod": false,
                    "type": {
                        "categories": [],
                        "subtype": "",
                        "value": "fire"
                    },
                    "value": "2d6"
                }
            }
        },
        "description": {
            "value": "<p>You form a wall of brilliant light that obscures creatures. You create a thin wall of light in a straight line up to 60 feet long and 10 feet high. You must create the wall in an unbroken open space so its edges don't pass through any creatures or objects, or the spell is lost. The wall stands vertically. If you wish, the wall can be of a shorter length or height.</p>\n<p>Creatures adjacent to the wall are @Compendium[pf2e.conditionitems.Dazzled]{Dazzled}. Creatures that move through the wall take 2d6 fire damage (basic Fortitude save) as the concentrated light burns them.</p>\n<hr />\n<p><strong>Heightened (4th)</strong> The bright light makes it difficult to discern creatures on the other side. Creatures are @Compendium[pf2e.conditionitems.Concealed]{Concealed} to other creatures on the opposite side of the wall from them. The fire damage increases to [[/r 3d6[fire]]]{3d6 fire damage}.</p>"
        },
        "duration": {
            "value": "1 minute"
        },
        "hasCounteractCheck": {
            "value": false
        },
        "level": {
            "value": 3
        },
        "location": {
            "value": ""
        },
        "materials": {
            "value": ""
        },
        "range": {
            "value": "30 feet"
        },
        "rules": [],
        "save": {
            "basic": "basic",
            "value": "fortitude"
        },
        "school": {
            "value": "evocation"
        },
        "source": {
            "value": "Pathfinder #172: Secrets of the Temple-City"
        },
        "spellType": {
            "value": "save"
        },
        "sustained": {
            "value": false
        },
        "target": {
            "value": ""
        },
        "time": {
            "value": "3"
        },
        "traditions": {
            "custom": "",
            "value": [
                "arcane",
                "primal"
            ]
        },
        "traits": {
            "custom": "",
            "rarity": "uncommon",
            "value": [
                "light"
            ]
        }
    },
    "effects": [],
    "flags": {},
    "img": "systems/pf2e/icons/default-icons/spell.svg",
    "name": "Wall of Radiance",
    "type": "spell"
}
