{
    "_id": "4UNQfMrwfWirdwoV",
    "data": {
        "description": {
            "value": "<p>Granted when a ranger shares their @Compendium[pf2e.classfeatures.Masterful Hunter (Flurry)]{Masterful Hunter (Flurry)} with you.</p>\n<p>Your multiple attack penalty for attacks against your hunted prey is -3 (-2 with an agile weapon) on your second attack of the turn instead of -5, and -6 (-4 with an agile weapon) on your third or subsequent attack of the turn, instead of -10.</p>"
        },
        "duration": {
            "expiry": "turn-start",
            "sustained": false,
            "unit": "unlimited",
            "value": -1
        },
        "level": {
            "value": 17
        },
        "rules": [
            {
                "key": "ToggleProperty",
                "label": "Target is your Hunted Prey",
                "property": "flags.pf2e.rollOptions.all.hunted-prey"
            },
            {
                "key": "FlatModifier",
                "label": "To Track hunted prey (Masterful Hunter)",
                "predicate": {
                    "all": [
                        "action:track",
                        "hunted-prey"
                    ]
                },
                "selector": "survival",
                "type": "circumstance",
                "value": {
                    "brackets": [
                        {
                            "end": 4,
                            "start": 3,
                            "value": 4
                        },
                        {
                            "end": 2,
                            "start": 1,
                            "value": 2
                        }
                    ],
                    "field": "actor|data.skills.sur.rank"
                }
            },
            {
                "key": "FlatModifier",
                "label": "To Seek hunted prey (Masterful Hunter)",
                "predicate": {
                    "all": [
                        "action:seek",
                        "hunted-prey"
                    ]
                },
                "selector": "perception",
                "type": "circumstance",
                "value": {
                    "brackets": [
                        {
                            "end": 4,
                            "start": 3,
                            "value": 4
                        },
                        {
                            "end": 2,
                            "start": 1,
                            "value": 2
                        }
                    ],
                    "field": "actor|data.attributes.perception.rank"
                }
            },
            {
                "key": "MultipleAttackPenalty",
                "predicate": {
                    "all": [
                        "hunted-prey"
                    ],
                    "any": [
                        "proficiency:master",
                        "proficiency:legendary"
                    ],
                    "not": [
                        "agile"
                    ]
                },
                "selector": "attack",
                "value": -2
            },
            {
                "key": "MultipleAttackPenalty",
                "predicate": {
                    "all": [
                        "agile",
                        "hunted-prey"
                    ],
                    "any": [
                        "proficiency:master",
                        "proficiency:legendary"
                    ]
                },
                "selector": "attack",
                "value": -1
            }
        ],
        "source": {
            "value": ""
        },
        "start": {
            "initiative": null,
            "value": 3648
        },
        "target": null,
        "tokenIcon": {
            "show": true
        },
        "traits": {
            "custom": "",
            "rarity": "common",
            "value": []
        }
    },
    "effects": [],
    "flags": {},
    "img": "systems/pf2e/icons/features/classes/flurry.webp",
    "name": "Effect: Masterful Hunter's Edge, Flurry",
    "type": "effect"
}
