{
    "_id": "k1J2SaHPwZb2Y6Bp",
    "data": {
        "badge": null,
        "description": {
            "value": "<p>You can strain to call forth feathered or cloudy wings from your back. Once manifested, these wings remain for 10 minutes. You gain a fly Speed equal to your land Speed while you've manifested your wings.</p>"
        },
        "duration": {
            "expiry": "turn-start",
            "sustained": false,
            "unit": "minutes",
            "value": 10
        },
        "level": {
            "value": 9
        },
        "rules": [
            {
                "key": "BaseSpeed",
                "selector": "fly",
                "value": "@actor.attributes.speed.value"
            }
        ],
        "source": {
            "value": "Pathfinder Lost Omens: Ancestry Guide"
        },
        "start": {
            "initiative": null,
            "value": 0
        },
        "target": null,
        "tokenIcon": {
            "show": false
        },
        "traits": {
            "custom": "",
            "rarity": "common",
            "value": []
        }
    },
    "effects": [],
    "flags": {},
    "img": "systems/pf2e/icons/spells/angel-form.webp",
    "name": "Effect: Wings of Air",
    "type": "effect"
}
