{
    "_id": "NbGLrlt7RYdFFBQ5",
    "data": {
        "abilities": {
            "cha": {
                "mod": 0
            },
            "con": {
                "mod": 5
            },
            "dex": {
                "mod": 6
            },
            "int": {
                "mod": 0
            },
            "str": {
                "mod": 6
            },
            "wis": {
                "mod": 3
            }
        },
        "attributes": {
            "ac": {
                "details": "",
                "value": 31
            },
            "allSaves": {
                "value": ""
            },
            "hp": {
                "details": "explosion",
                "max": 210,
                "temp": 0,
                "value": 210
            },
            "initiative": {
                "ability": "perception"
            },
            "perception": {
                "value": 20
            },
            "speed": {
                "otherSpeeds": [],
                "value": "70"
            }
        },
        "details": {
            "alignment": {
                "value": "N"
            },
            "blurb": "",
            "creatureType": "Elemental",
            "level": {
                "value": 11
            },
            "privateNotes": "",
            "publicNotes": "<p>Walking conflagrations of unimaginably hot fire, elemental infernos are harbingers of destruction and heedless chaos.</p>\n<hr />\n<p>Fire elementals are destructive manifestations of the scorching Plane of Fire.</p>",
            "source": {
                "value": "Pathfinder Bestiary"
            }
        },
        "resources": {},
        "saves": {
            "fortitude": {
                "saveDetail": "",
                "value": 21
            },
            "reflex": {
                "saveDetail": "",
                "value": 23
            },
            "will": {
                "saveDetail": "",
                "value": 19
            }
        },
        "traits": {
            "ci": [],
            "di": {
                "custom": "",
                "value": [
                    "bleed",
                    "fire",
                    "paralyzed",
                    "poison",
                    "sleep"
                ]
            },
            "dr": [],
            "dv": [
                {
                    "type": "cold",
                    "value": 15
                }
            ],
            "languages": {
                "custom": "",
                "selected": [],
                "value": [
                    "ignan"
                ]
            },
            "rarity": "common",
            "senses": {
                "value": "darkvision, smoke vision"
            },
            "size": {
                "value": "huge"
            },
            "traits": {
                "custom": "",
                "value": [
                    "elemental",
                    "fire"
                ]
            }
        }
    },
    "effects": [],
    "flags": {},
    "img": "systems/pf2e/icons/default-icons/npc.svg",
    "items": [
        {
            "_id": "AkOZsS5Ar1Py89Zo",
            "data": {
                "attack": {
                    "value": ""
                },
                "attackEffects": {
                    "custom": "",
                    "value": []
                },
                "bonus": {
                    "value": 24
                },
                "damageRolls": {
                    "xgr15osmglgpvp74pftn": {
                        "damage": "2d10+12",
                        "damageType": "fire"
                    }
                },
                "description": {
                    "value": "<p>@Localize[PF2E.PersistentDamage.Fire3d8.success]</p>"
                },
                "rules": [
                    {
                        "key": "Note",
                        "outcome": [
                            "success"
                        ],
                        "selector": "{item|_id}-damage",
                        "text": "<p class='compact-text' data-visibility='gm'>@Localize[PF2E.PersistentDamage.Fire3d8.success]</p>"
                    },
                    {
                        "key": "Note",
                        "outcome": [
                            "criticalSuccess"
                        ],
                        "selector": "{item|_id}-damage",
                        "text": "<p class='compact-text' data-visibility='gm'>@Localize[PF2E.PersistentDamage.Fire3d8.criticalSuccess]</p>"
                    }
                ],
                "slug": null,
                "source": {
                    "value": ""
                },
                "traits": {
                    "custom": "",
                    "rarity": "common",
                    "value": [
                        "reach-15"
                    ]
                },
                "weaponType": {
                    "value": "melee"
                }
            },
            "effects": [],
            "flags": {},
            "img": "systems/pf2e/icons/default-icons/melee.svg",
            "name": "Tendril",
            "sort": 100000,
            "type": "melee"
        },
        {
            "_id": "j3ILBYm7ssA8p2Nz",
            "data": {
                "attack": {
                    "value": ""
                },
                "attackEffects": {
                    "custom": "",
                    "value": []
                },
                "bonus": {
                    "value": 24
                },
                "damageRolls": {
                    "pf4joyj8goqdxlluw7eb": {
                        "damage": "2d10+6",
                        "damageType": "fire"
                    }
                },
                "description": {
                    "value": ""
                },
                "rules": [],
                "slug": null,
                "source": {
                    "value": ""
                },
                "traits": {
                    "custom": "",
                    "rarity": "common",
                    "value": [
                        "range-increment-60"
                    ]
                },
                "weaponType": {
                    "value": "ranged"
                }
            },
            "effects": [],
            "flags": {},
            "img": "systems/pf2e/icons/default-icons/melee.svg",
            "name": "Fire Mote",
            "sort": 200000,
            "type": "melee"
        },
        {
            "_id": "b24uVlcva1St9NKy",
            "data": {
                "actionCategory": {
                    "value": "interaction"
                },
                "actionType": {
                    "value": "passive"
                },
                "actions": {
                    "value": null
                },
                "description": {
                    "value": "<p>@Localize[PF2E.NPC.Abilities.Glossary.Darkvision]</p>"
                },
                "requirements": {
                    "value": ""
                },
                "rules": [],
                "slug": "darkvision",
                "source": {
                    "value": ""
                },
                "traits": {
                    "custom": "",
                    "rarity": "common",
                    "value": []
                },
                "trigger": {
                    "value": ""
                },
                "weapon": {
                    "value": ""
                }
            },
            "effects": [],
            "flags": {
                "core": {
                    "sourceId": "Compendium.pf2e.bestiary-ability-glossary-srd.qCCLZhnp2HhP3Ex6"
                }
            },
            "img": "systems/pf2e/icons/actions/Passive.webp",
            "name": "Darkvision",
            "sort": 300000,
            "type": "action"
        },
        {
            "_id": "fgRAIdUznaID2VqA",
            "data": {
                "actionCategory": {
                    "value": "interaction"
                },
                "actionType": {
                    "value": "passive"
                },
                "actions": {
                    "value": null
                },
                "description": {
                    "value": "<p>The elemental inferno ignores the @Compendium[pf2e.conditionitems.Concealed]{Concealed} condition from smoke.</p>"
                },
                "requirements": {
                    "value": ""
                },
                "rules": [],
                "slug": null,
                "source": {
                    "value": ""
                },
                "traits": {
                    "custom": "",
                    "rarity": "common",
                    "value": []
                },
                "trigger": {
                    "value": ""
                },
                "weapon": {
                    "value": ""
                }
            },
            "effects": [],
            "flags": {},
            "img": "systems/pf2e/icons/actions/Passive.webp",
            "name": "Smoke Vision",
            "sort": 400000,
            "type": "action"
        },
        {
            "_id": "oncBOpovIROpa0vf",
            "data": {
                "actionCategory": {
                    "value": "defensive"
                },
                "actionType": {
                    "value": "passive"
                },
                "actions": {
                    "value": null
                },
                "description": {
                    "value": "<p>When the elemental inferno dies, it explodes, dealing [[/r {7d6}[fire]]]{7d6 fire damage} to each creature in a @Template[type:emanation|distance:10|traits:fire,damaging-effect] (@Check[type:reflex|dc:30|basic:true] save).</p>"
                },
                "requirements": {
                    "value": ""
                },
                "rules": [],
                "slug": null,
                "source": {
                    "value": ""
                },
                "traits": {
                    "custom": "",
                    "rarity": "common",
                    "value": [
                        "fire"
                    ]
                },
                "trigger": {
                    "value": ""
                },
                "weapon": {
                    "value": ""
                }
            },
            "effects": [],
            "flags": {},
            "img": "systems/pf2e/icons/actions/Passive.webp",
            "name": "Explosion",
            "sort": 500000,
            "type": "action"
        },
        {
            "_id": "cIAptRydc370Xjbd",
            "data": {
                "actionCategory": {
                    "value": "defensive"
                },
                "actionType": {
                    "value": "passive"
                },
                "actions": {
                    "value": null
                },
                "description": {
                    "value": "<p>@Template[type:emanation|distance:10]{10 feet} @Compendium[pf2e.bestiary-ability-glossary-srd.Aura]{Aura}</p>\n<hr />\n<p>[[/r {7d6}[fire]]]{7d6 fire damage} @Check[type:reflex|dc:28|basic:true]</p>"
                },
                "requirements": {
                    "value": ""
                },
                "rules": [],
                "slug": null,
                "source": {
                    "value": ""
                },
                "traits": {
                    "custom": "",
                    "rarity": "common",
                    "value": [
                        "aura",
                        "fire"
                    ]
                },
                "trigger": {
                    "value": ""
                },
                "weapon": {
                    "value": ""
                }
            },
            "effects": [],
            "flags": {},
            "img": "systems/pf2e/icons/actions/Passive.webp",
            "name": "Intense Heat",
            "sort": 600000,
            "type": "action"
        },
        {
            "_id": "Q7WZ4aNo40BCE8gQ",
            "data": {
                "actionCategory": {
                    "value": "offensive"
                },
                "actionType": {
                    "value": "passive"
                },
                "actions": {
                    "value": null
                },
                "description": {
                    "value": "<p>When the elemental inferno scores a critical hit, its body surges with blue flames, increasing the damage of its intense heat and Inferno Leap by [[/r {3d6}[fire]]]{3d6} until the start of its next turn.</p>"
                },
                "requirements": {
                    "value": ""
                },
                "rules": [],
                "slug": null,
                "source": {
                    "value": ""
                },
                "traits": {
                    "custom": "",
                    "rarity": "common",
                    "value": []
                },
                "trigger": {
                    "value": ""
                },
                "weapon": {
                    "value": ""
                }
            },
            "effects": [],
            "flags": {},
            "img": "systems/pf2e/icons/actions/Passive.webp",
            "name": "Blue Flames",
            "sort": 700000,
            "type": "action"
        },
        {
            "_id": "9Gpl3fy3X5489jJF",
            "data": {
                "actionCategory": {
                    "value": "offensive"
                },
                "actionType": {
                    "value": "action"
                },
                "actions": {
                    "value": 2
                },
                "description": {
                    "value": "<p>The elemental inferno jumps horizontally and vertically with a maximum height and distance each equal to its Speed. Its intense heat is suppressed until the end of the jump. At any point during the jump, flames explode from the elemental in a @Template[type:emanation|distance:30], dealing [[/r {12d6}[fire]]]{12d6 fire damage} to each creature within the area (@Check[type:reflex|dc:30|basic:true] save).</p>\n<p data-visibility=\"gm\">The elemental inferno can't Inferno Leap again for [[/br 1d4 #Recharge Inferno Leap]]{1d4 rounds}.</p>"
                },
                "requirements": {
                    "value": ""
                },
                "rules": [],
                "slug": null,
                "source": {
                    "value": ""
                },
                "traits": {
                    "custom": "",
                    "rarity": "common",
                    "value": [
                        "fire"
                    ]
                },
                "trigger": {
                    "value": ""
                },
                "weapon": {
                    "value": ""
                }
            },
            "effects": [],
            "flags": {},
            "img": "systems/pf2e/icons/actions/TwoActions.webp",
            "name": "Inferno Leap",
            "sort": 800000,
            "type": "action"
        },
        {
            "_id": "pTGPRXgc6v1Pv0q1",
            "data": {
                "description": {
                    "value": ""
                },
                "mod": {
                    "value": 21
                },
                "proficient": {
                    "value": 0
                },
                "rules": [],
                "slug": null,
                "source": {
                    "value": ""
                },
                "traits": {
                    "custom": "",
                    "rarity": "common",
                    "value": []
                }
            },
            "effects": [],
            "flags": {},
            "img": "systems/pf2e/icons/default-icons/lore.svg",
            "name": "Acrobatics",
            "sort": 900000,
            "type": "lore"
        }
    ],
    "name": "Elemental Inferno",
    "token": {
        "disposition": -1,
        "height": 3,
        "img": "systems/pf2e/icons/default-icons/npc.svg",
        "name": "Elemental Inferno",
        "width": 3
    },
    "type": "npc"
}
