{
    "_id": "pMPe01GWvfwcYwUR",
    "data": {
        "badge": null,
        "description": {
            "value": "<p>The creature gains a circumstance bonus to AC based on the weapons used for defense.</p>"
        },
        "duration": {
            "expiry": "turn-start",
            "sustained": false,
            "unit": "rounds",
            "value": 1
        },
        "level": {
            "value": 17
        },
        "rules": [
            {
                "choices": [
                    {
                        "label": "1",
                        "value": 1
                    },
                    {
                        "label": "2",
                        "value": 2
                    },
                    {
                        "label": "3",
                        "value": 3
                    },
                    {
                        "label": "4",
                        "value": 4
                    }
                ],
                "flag": "defensiveAssaultChoice",
                "key": "ChoiceSet",
                "prompt": "PF2E.NPCAbility.MarilithDefensiveAssault"
            },
            {
                "key": "FlatModifier",
                "selector": "ac",
                "type": "circumstance",
                "value": "{item|flags.pf2e.rulesSelections.defensiveAssaultChoice}"
            }
        ],
        "source": {
            "value": "Pathfinder Bestiary"
        },
        "start": {
            "initiative": null,
            "value": 0
        },
        "target": null,
        "tokenIcon": {
            "show": true
        },
        "traits": {
            "custom": "",
            "rarity": "common",
            "value": []
        }
    },
    "effects": [],
    "flags": {},
    "img": "systems/pf2e/icons/features/classes/master-strike.webp",
    "name": "Effect: Defensive Assault",
    "type": "effect"
}
