{
    "_id": "31nnjHZqiaqaWBUi",
    "data": {
        "description": {
            "value": "<p>The creature gains a +2 status bonus to sonic damage rolls and a +1 status bonus to AC and all saves against sonic and auditory effects</p>"
        },
        "duration": {
            "expiry": "turn-start",
            "sustained": false,
            "unit": "unlimited",
            "value": -1
        },
        "level": {
            "value": 6
        },
        "rules": [
            {
                "key": "FlatModifier",
                "label": "Harmonizing Aura",
                "predicate": {
                    "any": [
                        "sonic",
                        "auditory"
                    ]
                },
                "selector": "ac",
                "type": "status",
                "value": "1"
            },
            {
                "key": "FlatModifier",
                "label": "Harmonizing Aura",
                "predicate": {
                    "any": [
                        "sonic",
                        "auditory"
                    ]
                },
                "selector": "saving-throw",
                "type": "status",
                "value": 1
            },
            {
                "key": "FlatModifier",
                "label": "Harmonizing Aura",
                "predicate": {
                    "all": [
                        "sonic"
                    ]
                },
                "selector": "strike-damage",
                "type": "status",
                "value": 2
            }
        ],
        "source": {
            "value": "Pathfinder Bestiary"
        },
        "start": {
            "initiative": null,
            "value": 0
        },
        "target": null,
        "tokenIcon": {
            "show": true
        },
        "traits": {
            "custom": "",
            "rarity": "common",
            "value": []
        }
    },
    "effects": [],
    "flags": {},
    "img": "systems/pf2e/icons/spells/spirit-song.webp",
    "name": "Effect: Harmonizing Aura (Allies)",
    "type": "effect"
}
