{
    "_id": "L8W1qzHJgRor97RC",
    "content": "<p>Play after you learn about a foe's resistance.</p>\n<hr />\n<p>Until the end of your next turn, the foe loses a resistance of your choice. You must be aware of the resistance, either from seeing it shrug off damage from an attack or due to a successful Recall Knowledge check.</p>",
    "flags": {},
    "name": "Pierce Resistance",
    "permission": {
        "default": 0
    }
}
