{
    "_id": "91rxlFyg6uGC16RJ",
    "data": {
        "attributes": {
            "ac": {
                "value": 0
            },
            "hardness": 0,
            "hasHealth": true,
            "hp": {
                "details": "",
                "max": 0,
                "temp": 0,
                "value": 0
            },
            "stealth": {
                "details": "",
                "value": 8
            }
        },
        "creatureType": "",
        "details": {
            "description": "<p>Many small pits have been dug in the road and covered with leaves and dirt to disguise them.</p>",
            "disable": "<p>If spotted, the pits can be avoided by moving at one quarter of normal speed.</p>",
            "isComplex": false,
            "level": {
                "value": 1
            },
            "reset": "",
            "routine": ""
        },
        "saves": {
            "fortitude": {
                "saveDetail": "",
                "value": 0
            },
            "reflex": {
                "saveDetail": "",
                "value": 0
            },
            "will": {
                "saveDetail": "",
                "value": 0
            }
        },
        "source": {
            "value": "Pathfinder Society Scenario 1-04: Bandits of Immenwood"
        },
        "statusEffects": [],
        "traits": {
            "ci": [],
            "di": {
                "custom": "",
                "selected": {},
                "value": []
            },
            "dr": [],
            "dv": [],
            "rarity": "common",
            "size": {
                "value": "med"
            },
            "traits": {
                "custom": "",
                "value": [
                    "mechanical",
                    "trap"
                ]
            }
        }
    },
    "effects": [],
    "flags": {},
    "img": "systems/pf2e/icons/default-icons/hazard.svg",
    "items": [
        {
            "_id": "lHpqxn9DJEOjZ9GT",
            "data": {
                "actionCategory": {
                    "value": "offensive"
                },
                "actionType": {
                    "value": "reaction"
                },
                "actions": {
                    "value": null
                },
                "description": {
                    "value": "<p data-visibility=\"gm\"><strong>Trigger</strong> A creature walks into the affected area</p>\n<p><strong>Effect</strong> Any creature that walks through the affected area must attempt a @Check[type:acrobatics|dc:14|name:Ankle Trap|traits:damaging-effect,hazard,mechanical,trap] check. Creatures that fail this check take [[/r {1d4}[bludgeoning]]]{1d4 bludgeoning damage} and a -5-foot penalty to their Speed for 1 hour. A critical failure increases the damage to [[/r {2d4}[bludgeoning]]]{2d4 bludgeoning damage} and reduces the creature's Speed by half for 1 hour.</p>"
                },
                "requirements": {
                    "value": ""
                },
                "rules": [],
                "slug": null,
                "source": {
                    "value": ""
                },
                "traits": {
                    "custom": "",
                    "rarity": "common",
                    "value": []
                },
                "trigger": {
                    "value": ""
                }
            },
            "effects": [],
            "flags": {},
            "img": "systems/pf2e/icons/actions/Reaction.webp",
            "name": "Trip Up",
            "sort": 0,
            "type": "action"
        }
    ],
    "name": "Ankle Trap (1-2)",
    "token": {
        "disposition": 0,
        "height": 1,
        "img": "systems/pf2e/icons/default-icons/hazard.svg",
        "name": "Ankle Trap",
        "width": 1
    },
    "type": "hazard"
}
